80

6
Ben Hebert
Ashley Underwood
Kaitlyn Adams
Rachel Luyendyk
Ashley Fletcher
Sean Kufrin
6 1 4 3 2 5
4 2 6 5 1 3
2 5 1 6 3 4
4 6 1 5 3 2
1 2 3 6 4 5
6 4 3 5 2 1
4 1 5 2 6 3
3 4 1 6 2 5
1 5 4 6 2 3
1 5 6 4 3 2
1 5 3 6 4 2
4 1 5 2 3 6
4 3 1 2 6 5
2 6 1 5 3 4
6 4 5 1 2 3
4 6 3 1 5 2
2 5 1 6 4 3
4 3 2 6 5 1
2 1 6 4 3 5
2 1 3 5 4 6
2 1 5 4 6 3
2 1 3 4 5 6
2 4 5 6 1 3
4 1 2 3 6 5
1 3 2 5 6 4
3 1 2 6 5 4
3 6 1 4 2 5
5 3 4 6 2 1

13
Brad Kufrin
Peter Adams
Katie Weber
Andi Higgins
Clare Recchia
Matt Soules
Michelle Recchia
Nick Kufrin
Chris Lowe
Zach Kufrin
Emily Maynard
Colton Soules
Andi Hartsock
8 3 12 13 2 9 1 4 11 10 5 7 6
6 1 8 10 2 11 7 9 12 4 13 5 3
7 1 13 12 6 9 5 2 4 3 11 8 10
9 10 5 4 8 3 13 11 7 12 2 1 6
10 4 5 11 3 6 13 1 2 12 9 7 8
1 12 11 13 5 7 2 9 10 4 6 8 3
1 5 8 12 11 6 7 4 9 3 13 2 10
3 2 4 9 6 11 7 12 5 10 13 8 1
11 6 4 2 3 5 13 12 1 8 7 10 9
9 12 6 7 3 1 4 5 13 10 2 8 11
9 10 4 12 11 2 3 13 6 1 7 8 5
11 5 3 7 10 12 13 4 1 9 6 8 2
1 12 4 5 6 3 10 7 9 2 8 13 11
13 10 9 1 4 3 7 8 12 2 5 11 6
8 9 5 10 6 4 12 7 1 3 13 2 11
5 4 12 10 2 9 8 11 6 7 13 1 3
1 10 9 11 4 2 5 6 7 12 3 13 8
7 11 9 3 8 6 2 13 5 4 12 10 1
5 12 13 1 4 2 9 11 10 6 7 8 3
3 11 9 6 12 8 2 7 13 1 4 5 10
13 11 2 12 8 5 10 3 7 4 9 1 6
5 4 9 1 3 6 7 10 11 2 8 12 13
10 2 8 7 4 13 9 1 11 6 12 5 3
7 8 11 6 13 9 1 4 2 10 3 5 12
10 12 8 7 9 5 11 6 4 13 1 2 3
5 7 3 12 10 9 8 6 11 4 2 1 13
4 6 10 3 7 12 11 9 5 13 2 1 8
10 6 7 5 1 9 2 12 13 4 11 8 3
5 13 7 4 8 1 10 2 3 12 11 9 6
3 12 10 2 7 9 5 8 6 1 11 4 13
6 2 7 1 4 12 9 13 5 3 11 10 8
4 7 6 2 3 8 5 13 12 9 1 11 10
13 1 3 6 5 2 12 11 9 8 4 7 10
2 6 13 5 9 10 12 1 11 8 7 3 4
5 12 1 13 10 6 9 7 11 2 3 4 8
3 1 10 12 5 8 11 4 13 2 9 6 7
13 12 10 7 11 8 6 9 5 3 2 4 1
5 12 4 9 11 3 2 13 8 1 10 7 6
2 5 11 3 12 6 13 8 4 7 1 10 9
12 8 3 6 7 1 2 11 10 4 9 13 5
7 13 4 11 2 12 8 1 5 3 9 6 10
12 2 5 1 8 6 9 13 10 3 7 11 4
3 13 9 10 12 8 6 2 7 1 4 5 11
4 12 11 6 8 2 1 10 5 13 3 7 9
10 13 1 11 2 5 7 6 8 4 12 9 3
2 11 9 6 10 1 13 4 8 3 12 7 5
10 3 11 7 12 2 1 8 5 13 4 6 9
12 13 6 5 11 8 4 3 2 9 1 10 7
3 4 13 7 10 8 9 6 5 12 11 2 1
12 1 4 8 2 9 3 11 6 13 7 5 10

2
Kaitlyn Echard
Arie Weber
2 1
1 2
2 1
2 1
2 1
2 1
2 1
2 1
1 2
1 2
1 2
1 2
1 2
1 2
2 1
2 1
2 1
1 2
1 2
2 1
2 1

7
Zach Crawley
Katie Dorfman
Zach Adams
Matt Graziadei
Clayton Graziadei
Ashley Weber
Ben Young
3 6 7 2 4 1 5
1 3 5 4 7 6 2
6 7 5 4 1 2 3
6 2 3 1 5 7 4
6 1 7 4 3 5 2
3 2 1 6 7 5 4
4 1 7 2 3 5 6
7 5 1 4 2 6 3
7 1 2 4 3 5 6
5 2 3 7 1 4 6
2 4 5 7 3 1 6
1 5 7 6 4 3 2
6 4 5 7 3 2 1
1 4 7 2 5 6 3
3 6 5 1 2 7 4
4 3 7 2 1 5 6
6 1 4 2 7 5 3
4 6 3 7 5 1 2
5 1 6 2 4 3 7
1 2 7 3 6 5 4
7 6 4 3 5 1 2
5 7 4 1 2 3 6
7 1 6 4 5 3 2
2 4 1 7 6 3 5
6 7 2 3 5 1 4
3 1 7 2 4 5 6
5 7 4 2 3 6 1
1 7 2 6 5 4 3
1 5 4 3 2 7 6
4 5 3 6 1 7 2
2 5 4 6 1 7 3
1 3 5 7 4 6 2
5 1 2 6 7 3 4
5 7 6 1 4 3 2
5 4 1 6 7 3 2
1 4 2 7 3 6 5
6 4 3 2 1 7 5
2 1 5 3 7 6 4
5 6 4 2 7 1 3
2 6 5 1 7 3 4
7 6 1 2 5 4 3
7 5 3 6 2 1 4
5 6 7 3 4 2 1
4 7 5 2 3 6 1
4 1 7 3 5 6 2
7 6 3 4 5 2 1
7 1 5 3 6 4 2

1
Desiree Maynard
1
1
1
1
1
1
1
1
1
1
1
1
1
1
1
1
1
1
1
1
1
1
1
1
1
1
1
1
1
1

15
Brad Adams
Katie Lawson
Charity Windey
Clayton Crawley
Peter Lindsay
Matt Shallcross
Brad Lowe
Zach Windey
Jojo Young
Michelle Weber
Ashley Crawley
Peter James
Joey Flajnik
Jojo Echard
Joey Higgins
11 15 4 1 5 10 14 6 8 13 2 3 9 7 12
2 11 12 3 15 7 5 1 8 6 10 13 4 14 9
8 14 12 5 9 1 11 13 15 4 2 10 6 3 7
3 8 6 11 12 1 2 5 4 13 7 10 9 15 14
5 2 12 15 4 8 9 13 7 11 14 3 10 1 6
5 2 7 15 11 10 14 1 6 3 8 4 9 12 13
10 11 7 6 13 8 5 2 15 1 3 12 9 14 4
6 5 15 7 13 3 1 10 9 12 8 14 2 11 4
15 11 8 1 13 6 7 10 4 12 3 9 14 5 2
7 11 9 2 3 1 10 13 6 5 15 4 12 14 8
4 12 1 2 14 9 10 15 11 13 5 7 6 3 8
10 6 5 13 9 12 11 14 3 7 8 4 1 15 2
6 11 9 1 12 14 10 7 4 2 13 5 3 8 15
7 5 11 1 10 9 8 2 14 6 15 3 4 12 13
14 6 2 1 7 12 8 15 13 11 10 5 4 9 3
6 3 10 13 15 12 4 11 9 5 8 14 7 2 1
15 3 5 7 9 13 1 12 4 2 6 11 8 14 10
8 4 9 1 14 10 11 13 15 3 7 6 5 12 2
4 8 3 2 7 6 5 11 1 10 15 9 12 13 14
7 11 15 9 2 5 12 13 8 3 10 1 4 6 14
5 10 2 11 3 13 8 12 14 1 4 6 9 15 7
11 3 9 10 14 1 12 7 4 2 5 15 8 13 6
7 15 11 3 13 1 9 14 5 6 10 2 4 8 12
11 4 15 8 10 9 12 7 14 6 2 1 3 5 13
3 12 10 2 1 4 6 9 8 5 7 13 11 14 15
4 2 8 11 15 6 3 13 1 5 7 14 9 10 12
15 9 5 13 10 7 3 1 8 2 12 6 11 14 4
14 3 9 7 1 15 11 8 6 13 4 12 2 5 10
6 9 13 4 10 14 11 1 2 8 15 3 7 5 12
7 12 1 13 8 11 10 4 14 2 15 5 3 6 9
11 4 3 5 15 1 10 9 13 12 14 8 2 7 6
12 11 5 10 14 13 3 6 15 8 2 7 4 1 9
7 8 12 3 2 11 14 6 10 9 4 13 5 15 1
10 9 5 3 1 14 12 11 7 2 6 13 4 8 15
1 8 14 5 4 15 12 13 2 3 9 7 10 11 6
15 1 8 9 3 2 12 4 14 7 11 6 5 13 10
5 13 9 15 12 7 1 4 11 6 3 2 14 8 10
5 7 8 15 14 6 1 10 4 9 13 12 2 11 3
15 7 5 2 10 6 8 11 12 4 9 14 3 1 13
10 8 5 9 11 6 12 13 4 14 7 15 3 2 1
1 6 7 15 4 12 9 3 14 13 10 2 11 8 5
3 7 13 15 4 12 8 9 1 2 10 6 14 5 11
2 5 9 7 13 6 10 4 8 11 14 1 15 3 12
6 13 4 5 14 3 1 10 9 2 8 12 7 15 11
1 3 10 14 13 2 11 8 6 12 15 9 7 5 4
14 10 9 6 11 2 4 3 12 8 13 7 5 1 15
5 14 7 8 13 3 12 4 11 1 9 6 2 15 10
12 1 2 14 9 3 15 11 6 8 10 13 4 7 5
12 14 1 3 7 4 15 5 13 9 2 8 10 11 6
11 3 14 5 1 15 13 4 2 12 10 7 8 6 9
8 7 9 13 5 6 3 15 12 10 4 11 14 1 2
15 5 8 11 6 9 2 3 12 4 13 7 1 10 14

14
Tayshia Young
Matt Hartsock
Jojo Shallcross
Peter Luyendyk
Sean Dorfman
Sean Lowe
Clare Graziadei
Desiree Bristowe
Sean Luyendyk
Nick Higgins
Zach Dorfman
Colton Higgins
Rachel Fletcher
Desiree Shallcross
9 10 11 5 6 3 14 8 4 2 1 13 7 12
5 9 2 13 7 3 6 10 12 14 8 11 1 4
8 10 12 4 11 3 7 9 5 1 2 6 13 14
5 14 1 10 8 12 7 6 2 11 4 3 9 13
1 7 2 5 12 6 8 3 4 11 13 10 14 9
1 14 9 4 2 13 7 8 3 12 11 5 6 10
5 8 11 3 7 12 10 13 14 9 1 4 2 6
12 7 10 6 13 1 3 8 14 5 2 11 4 9
13 3 4 5 7 8 1 6 9 2 12 11 10 14
13 1 5 10 2 6 11 7 12 4 9 3 8 14
13 5 12 14 4 10 11 9 2 3 8 6 1 7
1 6 13 9 14 5 2 7 3 12 11 4 10 8
11 1 14 12 10 13 2 8 3 7 4 9 5 6
14 11 10 12 8 5 4 2 13 7 6 3 9 1
7 4 5 9 14 1 8 2 3 10 13 11 12 6
5 3 9 4 6 10 13 7 14 2 11 8 1 12
5 11 8 7 1 14 9 12 6 2 3 10 4 13
9 12 4 11 7 5 10 8 1 2 13 6 14 3
3 8 6 13 10 1 11 4 7 9 14 5 12 2
5 2 8 10 13 4 1 9 14 11 6 3 12 7
6 5 13 8 3 9 4 11 1 2 10 14 7 12
7 6 14 10 4 9 3 2 11 5 13 12 1 8
5 8 7 9 12 13 10 3 1 14 2 11 4 6
7 3 8 11 10 9 12 14 2 13 1 4 6 5
3 8 1 13 9 2 14 12 10 4 6 5 11 7
5 1 6 12 2 11 3 10 8 9 7 13 14 4
7 8 12 5 2 4 3 6 13 1 10 14 11 9
2 1 8 3 4 5 7 14 10 6 13 9 11 12
11 4 13 2 3 10 7 12 5 9 1 14 6 8
13 8 4 1 7 9 11 10 12 5 6 14 2 3
4 12 9 13 8 7 14 5 1 2 6 3 10 11

3
Brad Viall
Tayshia Weber
Katie Fletcher
1 3 2
3 1 2
2 1 3
3 2 1
3 1 2
2 3 1
1 3 2
2 1 3
1 2 3
3 1 2
3 1 2
2 1 3
1 3 2
1 3 2
3 2 1
3 1 2
2 3 1
2 1 3
2 3 1
3 1 2
2 3 1
1 3 2
1 2 3
3 2 1
3 2 1
3 1 2
2 1 3
3 2 1
2 1 3
1 2 3
3 1 2
2 3 1
3 1 2
3 2 1
1 3 2
3 2 1
3 2 1
3 2 1
2 3 1
3 2 1
3 2 1
3 2 1

12
Chris Underwood
Colton Lindsay
Kaitlyn Brown
Emily Hebert
Hannah Windey
Clayton Kufrin
Joey Luyendyk
Arie Underwood
Clare Shallcross
Chris Lowe
Charity James
Jojo Young
8 10 3 7 4 12 11 9 5 6 1 2
12 4 8 1 11 9 10 6 3 2 5 7
11 3 2 7 9 1 5 10 8 6 4 12
12 7 1 10 3 11 2 5 8 6 9 4
3 4 1 11 7 10 12 2 8 5 9 6
12 1 11 8 5 6 10 9 2 3 4 7
3 5 2 4 8 1 7 12 9 6 10 11
7 4 11 8 5 1 6 9 3 12 2 10
4 6 7 8 9 5 11 12 2 3 10 1
10 12 6 3 9 4 2 1 8 5 11 7
2 11 8 12 1 7 5 10 3 6 4 9
9 4 5 3 2 10 7 6 12 8 11 1
9 12 6 3 5 10 11 2 8 7 4 1
2 9 3 1 10 8 4 11 6 12 5 7
2 5 8 7 1 9 11 3 6 4 10 12
4 7 9 8 3 5 10 6 2 11 1 12
6 12 11 5 3 2 8 9 7 1 4 10
5 7 1 8 11 9 10 6 4 3 2 12
9 8 4 11 1 3 10 2 12 5 7 6
8 7 1 11 5 2 3 6 10 9 12 4

7
Zach Maynard
Kaitlyn Maynard
Tayshia Lindsay
Rachel Hebert
Sean Hebert
Joey Hebert
Charity Kufrin
6 2 7 3 4 5 1
6 2 5 7 1 4 3
5 4 7 3 2 1 6
1 7 2 4 3 5 6
7 3 4 6 2 1 5
1 7 6 2 5 4 3
5 2 6 1 7 4 3
5 7 3 2 6 1 4
3 5 7 1 2 4 6
3 2 6 1 5 7 4
3 7 6 4 5 1 2
2 4 7 6 5 1 3
3 2 6 4 1 7 5
5 7 4 2 6 1 3
6 3 2 7 4 1 5
5 2 6 3 1 4 7
4 3 1 2 5 6 7
6 5 4 3 7 1 2
6 3 1 4 5 2 7
1 5 6 2 4 3 7
2 5 6 3 1 7 4
3 2 1 4 7 6 5
2 7 5 6 4 1 3
6 7 1 2 5 3 4
7 6 2 4 3 5 1
4 5 2 6 1 7 3
6 2 3 5 1 4 7
3 4 6 5 1 2 7
1 7 5 6 3 2 4
7 6 3 2 5 4 1
1 5 7 6 2 3 4
3 1 4 5 7 2 6
1 4 6 7 5 2 3
2 7 1 3 6 5 4
5 2 1 4 3 7 6
3 5 4 1 2 7 6
1 7 5 6 3 2 4
5 3 1 4 6 2 7
6 5 3 4 2 7 1
2 1 4 7 5 3 6
5 4 1 6 3 2 7
2 6 5 1 3 7 4

6
Ashley Bristowe
Gabby Viall
Ashley Young
Arie Weber
Charity Weber
Tayshia Higgins
2 3 5 6 1 4
3 2 5 4 6 1
5 6 3 2 4 1
6 2 1 5 3 4
1 5 6 4 2 3
3 6 4 2 1 5
3 6 2 1 5 4
6 2 5 1 4 3
5 6 3 1 2 4
2 1 5 6 3 4
1 4 5 6 3 2
2 3 4 6 1 5
3 4 6 2 1 5
4 3 5 6 1 2
5 2 3 4 1 6
2 3 1 6 4 5
1 6 3 5 2 4
2 3 5 1 4 6
1 5 3 6 4 2
5 2 6 4 1 3
1 2 3 6 5 4
4 5 1 3 6 2
3 2 6 4 1 5
2 1 6 3 4 5
4 3 2 5 6 1
3 2 6 5 1 4
1 4 3 2 6 5
5 1 4 6 3 2
5 3 4 6 2 1
2 5 6 1 3 4
2 4 1 6 3 5
6 5 3 4 2 1
3 1 4 6 2 5
6 2 1 3 5 4
1 3 6 4 5 2
2 6 3 5 1 4
3 2 1 4 6 5
1 5 6 4 3 2
2 4 6 1 3 5
2 3 1 6 5 4
6 3 2 4 1 5
6 3 2 4 5 1
2 4 1 3 6 5
3 6 4 1 5 2
4 6 1 5 3 2
6 2 5 4 1 3
2 4 3 5 6 1
3 5 2 4 1 6
4 5 3 6 1 2

13
Chris Soules
Hannah Lindsay
Jojo Flajnik
Desiree Young
Becca Thurston
Clayton Recchia
Kaitlyn Flajnik
Charity Flajnik
Tayshia Higgins
Brad Young
Brad Lawson
Peter Brown
Peter Maynard
9 8 4 7 11 13 6 2 10 12 5 1 3
11 4 6 1 9 5 12 2 10 13 3 8 7
9 12 2 13 5 8 10 11 3 4 1 6 7
8 5 13 3 4 11 9 2 7 1 12 6 10
3 5 1 8 11 9 2 4 12 13 10 7 6
4 10 12 1 13 11 2 5 8 9 6 7 3
8 5 2 11 13 7 12 4 3 6 10 9 1
3 2 9 5 13 7 4 6 8 10 1 12 11
9 13 6 8 3 2 4 7 1 10 12 11 5
7 12 8 2 1 4 9 11 3 6 5 13 10
8 11 13 2 10 3 1 9 7 12 6 4 5
13 5 10 9 4 7 1 6 11 8 2 3 12
2 5 10 11 7 3 8 12 6 13 4 9 1
8 13 9 1 4 7 12 3 2 6 10 5 11
11 3 5 9 6 12 2 8 7 1 4 10 13
9 3 1 11 13 6 10 8 5 12 4 2 7
6 3 1 12 7 11 13 10 8 5 2 4 9
9 3 2 5 13 1 10 7 12 6 8 11 4
4 7 3 1 11 10 8 13 2 9 12 5 6
9 8 7 4 1 13 12 10 11 2 3 5 6
8 6 13 5 3 7 11 10 1 12 9 4 2
7 4 1 13 9 10 11 12 3 8 5 2 6
5 4 10 13 1 9 3 8 11 6 12 7 2
3 10 9 5 8 2 6 4 1 7 13 11 12
10 1 7 11 3 12 13 2 8 9 5 6 4
5 10 4 1 11 7 6 13 9 12 8 2 3
10 11 9 13 5 1 8 4 2 7 3 6 12
7 13 3 9 4 10 11 12 5 6 8 1 2
10 13 12 2 6 4 11 3 9 5 8 7 1
3 7 13 12 11 5 1 8 6 9 10 4 2
5 3 7 10 8 6 4 2 9 12 1 11 13
12 4 11 3 7 10 9 5 2 8 13 6 1
11 5 2 10 9 4 3 1 13 7 8 6 12
10 2 12 6 13 3 1 9 11 4 8 7 5

11
Clayton Bristowe
Clayton Brown
Gabby Dorfman
Matt Recchia
Peter Lindsay
Zach Soules
Gabby Soules
Joey Flajnik
Andi Underwood
Nick Young
Clayton Brown
5 9 2 3 8 7 1 4 6 10 11
5 11 2 3 10 4 6 8 9 7 1
5 1 10 7 9 4 2 8 6 11 3
6 10 4 11 2 9 1 5 7 8 3
7 8 2 4 1 5 10 9 3 6 11
3 9 8 11 10 1 7 6 5 4 2
5 1 11 4 7 2 6 9 3 10 8
7 5 2 3 6 1 4 10 9 8 11
11 5 2 4 10 8 7 1 6 9 3
2 1 6 10 8 4 9 7 3 5 11
1 4 3 10 11 6 5 2 9 7 8
5 6 3 10 7 11 8 4 9 2 1
8 3 6 10 9 1 2 5 11 4 7
9 6 11 7 2 8 1 10 4 3 5
4 10 7 5 9 11 6 2 8 1 3
11 7 4 1 9 2 3 6 8 5 10

18
Peter Hebert
Clare James
Hannah Recchia
Rachel Viall
Ashley Viall
Joey Young
Clare Lawson
Desiree Adams
Clayton Fletcher
Kaitlyn Recchia
Emily Soules
Jojo Higgins
Tayshia Lawson
Clayton Luyendyk
Ben Echard
Desiree Recchia
Chris Adams
Matt Adams
1 13 8 3 5 11 9 12 7 18 16 6 4 17 14 2 10 15
2 15 13 10 8 4 7 3 16 18 11 9 5 1 14 6 12 17
14 17 7 2 1 13 5 12 16 15 11 10 8 18 4 9 3 6
7 2 8 5 17 11 14 15 16 9 3 18 6 10 4 12 13 1
11 13 16 1 8 6 7 10 14 15 4 2 3 12 9 17 18 5
7 4 16 2 5 9 10 12 3 18 14 8 11 15 13 1 17 6
7 16 9 1 12 13 11 10 3 4 17 2 5 14 6 8 15 18
5 1 11 14 4 10 6 13 15 18 12 17 9 7 16 2 3 8
13 18 15 7 5 2 17 1 3 12 9 8 16 14 6 10 11 4
15 8 18 1 9 17 12 11 4 16 14 3 6 7 2 10 13 5
8 3 2 9 7 1 16 10 18 11 17 14 15 4 13 12 6 5
14 6 18 5 11 12 7 10 17 2 3 8 9 4 16 1 15 13
14 8 15 4 16 9 2 7 6 3 11 10 18 5 1 17 12 13
17 9 2 4 11 6 12 8 10 5 13 1 18 7 14 15 3 16
1 18 6 8 16 14 13 5 9 17 7 2 10 15 11 12 3 4
5 8 2 6 13 7 18 12 17 16 4 3 11 1 15 14 9 10
6 11 7 13 2 1 9 3 15 18 4 10 16 8 17 5 12 14
6 4 7 12 14 9 16 5 8 3 18 2 10 13 11 15 1 17
7 5 1 4 2 16 6 13 8 14 12 17 10 9 3 15 11 18
14 18 8 2 12 10 6 15 3 16 13 9 4 17 1 11 5 7
9 2 15 4 11 17 5 14 16 13 12 6 7 1 18 8 10 3
10 14 3 4 12 6 18 9 11 17 8 13 16 7 15 5 2 1
4 16 18 8 2 14 6 17 1 7 9 3 5 11 13 12 15 10
14 10 9 18 17 2 7 16 3 1 11 6 12 4 8 13 5 15
18 4 8 15 13 10 17 12 14 7 2 9 3 11 5 6 1 16
16 8 7 2 5 17 12 1 18 4 10 13 3 6 15 11 9 14
7 11 2 9 15 16 1 4 8 14 10 12 5 6 17 13 18 3
4 3 8 17 14 15 9 18 2 11 10 13 16 12 7 1 5 6
1 8 6 11 3 18 15 16 9 12 7 14 4 5 10 2 17 13
1 7 14 12 18 2 13 6 16 17 5 8 9 3 11 15 10 4
18 15 13 8 4 3 14 10 16 2 11 12 7 5 1 9 17 6
15 13 16 11 4 12 10 18 9 7 3 2 17 14 5 6 1 8

20
Matt Higgins
Hannah Viall
Sean Lindsay
Zach Crawley
Andi Viall
Michelle Shallcross
Nick Graziadei
Jojo Weber
Ben Dorfman
Clare Recchia
Charity Crawley
Rachel Viall
Clare Recchia
Clare Kufrin
Matt Maynard
Charity Fletcher
Jojo Shallcross
Charity Soules
Tayshia Lowe
Rachel Lindsay
16 13 1 19 9 14 7 15 10 8 12 3 17 20 4 18 2 5 11 6
6 16 19 1 20 8 11 4 18 15 14 7 9 13 5 17 2 10 12 3
20 19 18 17 9 8 7 5 14 4 15 13 2 1 12 6 3 10 16 11
17 10 1 4 19 8 9 2 13 12 6 18 14 15 11 5 3 20 7 16
20 1 18 6 8 15 5 19 14 13 9 3 2 4 10 17 12 11 7 16
15 2 12 5 11 18 7 20 3 1 9 13 19 14 16 17 8 6 4 10
18 8 3 19 10 15 2 4 9 5 7 1 12 20 16 17 14 6 13 11

14
Katie Lindsay
Hannah Adams
Katie Viall
Clare Luyendyk
Colton Graziadei
Hannah James
Jojo Hebert
Brad Bristowe
Tayshia Hebert
Jojo Recchia
Joey Dorfman
Clare Adams
Andi Viall
Kaitlyn Lowe
10 14 2 7 8 9 1 4 13 12 5 3 11 6
1 5 8 13 12 10 11 9 14 3 7 4 2 6
3 2 14 12 6 1 7 9 8 10 4 13 5 11
7 10 11 9 13 4 6 1 8 14 12 3 5 2

18
Matt Flajnik
Charity Lowe
Charity Weber
Colton Fletcher
Desiree Bristowe
Michelle Weber
Clayton Viall
Clayton Young
Rachel Thurston
Rachel Hartsock
Joey Thurston
Clare Young
Ben Brown
Sean Brown
Arie Brown
Hannah Maynard
Kaitlyn Hebert
Chris Kufrin
15 17 18 3 14 10 1 8 2 4 9 16 13 12 11 5 6 7
14 13 6 3 7 16 17 4 9 10 12 8 2 15 5 11 1 18
18 2 9 3 1 14 12 17 10 15 6 5 4 11 8 7 13 16
2 3 1 14 6 9 13 12 15 11 16 5 8 17 7 18 10 4
7 3 2 9 1 11 14 8 17 16 6 18 13 15 10 4 12 5
2 4 5 6 8 17 13 12 10 15 3 16 1 18 9 14 7 11
4 3 14 2 13 9 18 10 15 5 17 12 6 16 11 1 8 7
16 14 18 4 6 15 17 7 3 9 10 8 2 11 1 12 5 13
15 5 11 7 14 12 17 6 8 4 9 13 10 3 2 1 16 18
5 8 15 4 16 17 12 18 6 3 13 1 11 9 10 7 14 2
9 8 10 2 12 18 5 11 16 15 13 14 3 1 7 6 4 17
15 1 2 6 12 14 3 11 17 16 4 9 5 8 13 7 18 10
18 7 4 6 1 10 11 16 13 14 5 8 3 12 15 17 2 9
4 3 12 6 13 14 18 10 11 9 5 2 15 7 8 16 1 17
14 4 11 8 5 10 18 3 15 17 12 1 16 13 7 2 6 9
11 10 5 4 1 3 12 15 6 7 16 13 9 8 18 14 17 2
10 7 12 14 13 4 15 17 2 16 18 1 5 9 11 6 3 8
18 17 2 9 6 7 16 12 3 13 15 10 11 14 8 1 4 5
7 13 10 15 18 1 2 11 5 8 14 3 4 12 6 16 9 17
4 9 14 2 8 10 16 17 3 5 6 15 1 11 12 13 18 7
1 11 15 8 7 18 5 4 14 2 3 12 9 6 17 10 13 16
7 17 9 11 8 3 18 16 1 4 6 10 14 12 13 2 5 15
10 9 14 3 6 5 7 18 2 12 13 16 1 17 15 8 11 4
2 13 4 15 3 17 16 6 1 9 12 11 10 8 7 18 14 5
4 17 10 5 15 3 11 14 1 12 8 18 7 6 9 13 2 16
4 3 1 14 16 18 12 5 11 10 15 6 2 9 13 17 7 8
9 18 3 5 8 7 1 15 6 14 2 13 11 16 12 4 17 10
15 12 7 11 9 4 2 18 6 10 14 13 8 5 16 17 1 3
17 2 5 12 8 6 18 11 7 14 1 9 4 13 15 10 3 16
9 11 4 2 8 5 18 14 7 1 6 3 16 10 15 17 12 13
10 2 3 7 1 11 18 8 15 14 6 12 5 13 17 16 9 4
10 9 5 4 13 1 12 2 14 16 8 15 17 7 11 6 3 18
18 8 15 14 5 6 17 3 9 7 4 1 11 16 10 2 13 12
1 18 10 5 4 15 14 13 3 2 12 16 9 17 7 6 11 8
10 4 3 12 14 17 6 8 16 15 1 11 13 18 7 9 5 2
1 16 18 6 7 15 5 9 14 17 10 3 13 11 8 4 12 2
2 18 13 16 9 7 14 8 3 5 6 1 11 12 4 10 17 15

17
Chris Crawley
Gabby Flajnik
Kaitlyn Lowe
Emily Young
Katie Hebert
Gabby Kufrin
Desiree Graziadei
Ben Hartsock
Clayton Shallcross
Michelle Bristowe
Clayton Dorfman
Andi James
Jojo James
Emily Windey
Katie Recchia
Emily Hartsock
Kaitlyn Echard
16 7 10 9 12 11 13 3 8 17 4 6 15 14 5 2 1
4 15 17 6 8 2 9 11 13 5 3 16 10 14 7 1 12
7 17 1 2 10 9 14 5 12 3 11 8 15 4 16 6 13
17 2 1 9 16 3 4 13 14 7 15 5 11 8 12 10 6
9 8 14 13 4 7 17 3 2 10 5 1 11 16 12 15 6
14 10 3 1 4 11 9 7 15 16 2 17 6 8 13 5 12
6 7 10 1 14 9 5 11 17 8 12 3 2 15 13 4 16
5 17 12 1 13 6 3 8 11 4 16 14 10 15 2 7 9
1 2 16 7 17 3 12 13 5 10 9 14 8 6 11 15 4
10 7 11 9 5 2 8 13 14 1 16 15 12 17 4 6 3
16 2 7 15 14 10 17 5 1 11 9 6 13 12 3 8 4
4 10 6 11 3 2 9 13 17 5 14 12 15 8 1 16 7
16 1 8 12 7 6 17 4 15 9 3 2 11 13 5 14 10
4 16 5 7 6 8 11 1 12 13 2 14 3 15 9 17 10
11 15 2 10 14 6 13 4 8 16 1 12 3 5 9 7 17
16 5 10 8 1 15 3 7 12 6 17 14 4 13 9 2 11
4 13 16 7 12 3 17 11 6 10 1 15 5 8 2 14 9
2 11 1 6 7 13 17 16 3 5 14 8 12 10 4 9 15
15 9 13 17 2 8 1 12 3 4 11 6 5 16 14 10 7
15 1 7 2 13 9 11 8 17 5 16 12 10 6 3 4 14
12 6 13 15 7 4 10 5 2 9 14 11 8 3 17 1 16
13 9 17 11 15 8 5 7 12 10 1 2 3 6 4 14 16
16 11 14 17 5 13 4 7 10 8 15 2 1 9 3 6 12
4 8 15 6 13 14 17 16 3 7 5 11 2 1 12 10 9
11 12 1 13 7 3 5 9 17 2 6 4 8 14 16 10 15
12 1 11 13 14 8 6 4 9 10 16 5 3 15 7 2 17
11 4 15 6 10 12 1 14 8 13 7 16 2 9 5 3 17
9 11 4 17 2 5 1 16 12 8 7 3 15 14 6 10 13
16 3 14 2 13 1 9 7 17 12 11 4 8 10 5 6 15
3 4 14 5 6 16 2 1 11 13 7 10 9 17 12 8 15
13 2 6 1 11 17 16 10 9 7 5 4 15 12 8 14 3
8 3 1 10 16 6 14 15 12 9 7 17 2 5 4 13 11
17 3 4 6 9 16 14 12 15 7 1 13 10 2 5 8 11
10 17 11 7 15 2 13 12 6 9 3 8 5 14 16 4 1
15 9 3 13 5 4 16 10 11 12 2 1 17 14 6 8 7
2 6 16 3 14 5 17 9 12 11 4 1 10 15 13 8 7
10 4 7 9 1 13 6 12 14 16 8 5 3 2 17 11 15
5 1 3 14 16 4 7 13 12 9 10 2 8 15 6 17 11
13 7 9 14 16 2 3 10 4 12 8 6 5 17 11 15 1
8 5 17 7 6 4 10 16 11 15 9 1 3 13 12 2 14
16 10 14 3 4 15 13 17 8 6 9 11 12 7 1 2 5
17 10 8 7 5 9 3 13 2 11 6 14 16 15 4 1 12
9 5 1 15 8 17 16 7 2 12 13 6 4 11 10 3 14
5 10 9 14 1 6 8 4 16 17 2 7 13 11 12 3 15
4 5 11 16 10 3 15 9 8 7 6 13 14 12 1 2 17
1 13 10 3 8 7 16 15 14 2 9 5 11 6 17 4 12
8 14 1 16 2 10 13 17 9 15 11 6 7 4 5 3 12
15 3 8 9 17 10 11 6 7 16 13 12 4 5 1 14 2
11 17 3 13 14 6 8 9 5 10 15 16 2 4 12 7 1
15 5 7 14 9 4 12 1 2 6 10 17 8 16 11 3 13
2 17 13 16 14 1 9 15 11 5 12 8 3 7 6 4 10
10 15 14 2 9 1 7 3 12 17 6 16 8 4 5 11 13
9 14 4 11 15 5 6 8 7 1 2 13 16 3 17 10 12
14 13 1 17 9 6 5 10 15 7 12 2 4 3 8 16 11

11
Michelle Lindsay
Ashley Brown
Emily Luyendyk
Sean Underwood
Colton Graziadei
Chris Dorfman
Matt Flajnik
Arie Recchia
Charity Dorfman
Andi Crawley
Joey Thurston
2 4 3 1 10 6 11 7 8 9 5
7 2 4 9 6 5 11 10 8 3 1
6 11 8 7 4 2 3 5 9 10 1
2 7 1 5 3 10 9 4 8 11 6
4 7 2 1 10 9 3 8 6 5 11
1 4 11 2 7 8 10 5 6 9 3
9 4 8 1 11 10 2 7 6 5 3
8 9 7 4 6 5 11 10 1 2 3
6 1 9 8 2 4 7 10 5 11 3
5 11 6 3 9 1 10 2 8 7 4
5 8 1 2 3 7 9 6 10 11 4
5 3 11 4 2 6 10 1 9 7 8
1 8 10 2 11 3 6 7 4 5 9
7 10 3 4 2 11 8 1 9 5 6
4 2 1 5 6 10 7 8 11 3 9
6 9 8 4 5 1 10 7 11 3 2
7 6 5 3 9 1 11 10 2 8 4
4 3 10 1 8 9 5 11 7 6 2
8 3 6 4 9 2 1 10 11 5 7

4
Charity Crawley
Clare Lawson
Kaitlyn Lawson
Arie Soules
1 4 2 3
4 3 1 2
2 1 3 4
2 4 1 3
4 1 3 2

1
Colton Fletcher
1
1
1
1
1
1
1
1
1
1
1
1
1
1
1
1
1
1
1
1
1
1
1
1
1
1
1
1
1
1
1
1
1
1
1
1
1
1
1
1
1
1
1

5
Matt Brown
Jojo Fletcher
Ben Recchia
Tayshia Recchia
Clare Viall
3 1 4 5 2
2 5 1 3 4
2 3 1 5 4
2 3 4 5 1
5 1 3 4 2
2 4 3 1 5
3 5 1 2 4
2 1 3 5 4
1 4 2 3 5
2 3 5 4 1
2 5 4 3 1
2 1 4 3 5
1 2 5 4 3
1 2 4 5 3
2 4 5 3 1
4 5 3 1 2
2 3 1 5 4
2 3 5 4 1
5 3 2 1 4
1 4 3 2 5
4 5 2 3 1

13
Clayton Lawson
Tayshia Maynard
Peter Hebert
Kaitlyn Recchia
Tayshia Kufrin
Arie Thurston
Ben Recchia
Zach Flajnik
Arie Fletcher
Arie Dorfman
Brad Crawley
Gabby Soules
Tayshia Dorfman
13 3 4 7 9 1 5 8 2 12 6 11 10
4 13 11 10 2 3 6 1 12 7 8 5 9
2 5 7 6 8 3 12 9 4 10 13 11 1
7 6 12 10 9 2 8 13 1 3 4 11 5
8 10 9 11 13 6 4 1 3 2 5 12 7
6 2 3 1 4 9 8 11 13 5 10 7 12
7 1 11 5 2 10 12 4 3 6 8 13 9
3 5 2 7 1 10 11 6 8 9 4 13 12
9 6 7 4 13 1 12 3 11 5 2 10 8
8 4 9 11 5 12 2 6 1 7 13 3 10
7 10 11 8 5 3 6 1 13 4 2 12 9
12 4 2 6 3 11 7 5 9 8 10 1 13
13 8 6 1 12 11 9 5 7 4 10 2 3

19
Desiree Lowe
Kaitlyn Shallcross
Nick Bristowe
Sean Soules
Ashley Echard
Katie Higgins
Sean Lawson
Clayton Adams
Michelle Hebert
Hannah Bristowe
Colton Brown
Jojo Maynard
Sean Windey
Rachel Underwood
Jojo Windey
Sean Higgins
Clare Lawson
Kaitlyn Shallcross
Joey Bristowe
9 13 17 5 7 3 12 14 16 15 6 18 11 2 19 8 4 10 1
1 7 12 2 15 19 17 13 14 11 6 5 16 8 4 9 18 3 10
16 19 13 17 7 3 2 14 10 6 12 4 1 18 9 5 8 11 15
7 11 5 2 8 13 6 10 19 12 4 1 17 16 15 18 3 9 14
10 11 7 8 5 17 15 6 18 12 1 19 3 9 13 14 16 4 2
13 12 1 2 17 10 7 6 4 16 5 15 18 11 8 14 19 3 9
11 19 9 8 15 4 7 13 3 18 17 5 12 16 10 6 14 1 2
5 18 10 12 17 15 8 13 2 6 4 1 19 3 11 9 16 14 7
15 7 6 4 13 2 3 1 9 17 5 16 8 11 14 12 19 18 10
12 10 16 13 6 14 18 1 19 3 7 2 11 4 8 17 9 5 15
12 10 6 2 13 11 7 18 9 14 15 19 16 17 3 5 8 4 1
13 5 3 16 18 17 8 4 19 14 1 6 10 15 2 7 11 9 12
4 18 2 17 14 13 12 7 9 11 6 15 8 1 19 10 5 3 16
13 1 19 17 12 16 9 6 4 7 3 5 11 18 8 15 10 14 2
2 15 13 7 1 16 3 10 6 12 4 17 14 5 9 18 19 8 11
7 13 16 11 17 19 10 2 15 5 4 18 14 1 12 3 9 6 8
8 4 11 19 17 7 5 9 16 15 12 1 18 3 13 2 6 14 10
13 18 15 8 10 14 4 3 2 17 1 11 7 6 19 12 16 9 5
7 9 14 12 5 15 10 4 16 19 2 8 11 3 18 17 1 13 6
8 1 4 13 7 6 5 11 12 9 2 16 18 10 19 3 15 14 17
4 10 11 12 19 16 6 17 2 5 15 1 3 18 9 8 14 13 7
11 13 15 2 19 6 17 14 8 16 9 10 3 1 4 5 7 12 18
9 11 14 19 10 13 7 1 5 15 2 17 16 4 8 3 18 6 12
8 14 4 1 7 5 11 19 15 18 6 9 13 10 17 16 12 3 2
1 18 6 9 10 12 14 3 5 13 15 11 7 17 4 16 19 2 8
11 16 19 15 9 5 12 14 13 2 6 3 8 4 17 1 18 7 10
2 5 13 6 16 14 12 10 4 17 9 8 1 7 19 18 15 11 3
7 11 6 1 9 3 8 16 2 5 4 10 12 19 17 15 18 13 14
1 11 14 13 15 17 9 2 19 7 16 6 4 12 5 3 18 8 10
3 13 16 8 15 6 14 4 18 7 19 17 12 10 1 5 9 2 11
10 8 14 17 15 1 12 4 18 19 6 13 3 16 9 5 7 11 2
11 19 14 18 9 2 5 6 3 16 12 10 1 7 13 15 17 4 8
6 18 16 8 19 2 1 10 13 12 5 9 3 17 14 15 11 4 7
4 16 12 11 17 19 5 2 7 18 13 1 3 8 15 10 14 9 6
10 3 9 6 4 13 5 8 2 11 12 19 14 15 16 18 1 17 7
11 1 12 4 13 16 3 10 17 8 18 14 7 9 19 2 6 15 5
5 19 1 11 9 14 17 6 12 2 16 15 13 10 4 3 8 7 18
3 10 15 14 18 8 9 19 7 17 1 13 12 16 6 5 4 11 2
10 4 19 8 13 14 12 16 1 11 6 15 7 9 2 18 3 17 5
6 16 14 8 5 15 17 18 1 4 10 9 12 11 19 7 13 2 3
5 2 15 13 12 17 8 14 9 16 18 1 7 6 10 19 3 4 11
3 8 1 13 10 9 5 4 12 17 2 11 19 6 7 14 16 15 18
9 2 7 12 11 10 18 4 6 13 17 15 14 5 19 16 1 3 8
9 12 10 3 8 2 6 11 16 15 1 13 14 4 17 18 5 19 7
10 15 5 7 12 1 4 19 16 17 14 9 13 6 11 2 8 18 3
15 14 4 3 17 5 13 11 10 1 8 18 19 7 6 2 12 9 16
6 9 7 17 3 14 13 15 2 8 11 18 4 1 16 12 19 5 10
11 17 10 6 3 5 8 16 2 13 4 7 1 15 9 12 18 19 14

15
Arie Lowe
Chris Underwood
Michelle Windey
Ashley Shallcross
Sean Kufrin
Colton Thurston
Kaitlyn Hebert
Brad Windey
Jojo Luyendyk
Rachel Brown
Peter Graziadei
Charity Weber
Clayton Maynard
Zach Hartsock
Ashley Adams
13 9 2 11 5 6 12 10 1 14 8 3 15 7 4
1 10 13 12 3 15 14 4 11 7 6 9 8 5 2
4 12 10 5 7 8 9 2 1 11 15 6 13 14 3
6 1 3 9 5 11 7 12 8 14 4 10 15 2 13
8 13 10 2 14 15 4 12 3 1 7 5 9 6 11
2 12 15 4 8 3 11 5 7 6 14 13 9 1 10
10 9 11 6 13 2 14 8 4 1 7 15 12 5 3
14 5 7 4 9 12 6 11 2 3 1 13 15 8 10
12 3 11 2 13 14 6 15 10 8 4 7 1 5 9
10 2 9 8 5 3 11 1 6 14 15 12 13 7 4
7 13 8 11 15 4 3 10 2 6 12 14 1 5 9
11 9 13 6 4 8 14 7 15 12 5 1 2 3 10
3 6 10 14 8 9 11 5 4 12 15 1 13 2 7
15 4 1 5 3 8 10 9 13 14 2 7 12 6 11
1 2 14 3 10 8 13 15 11 6 9 4 7 5 12
7 5 14 13 8 12 9 15 1 2 6 10 11 4 3
11 2 14 3 1 4 8 5 10 9 7 15 6 12 13
5 13 14 8 1 7 11 3 6 9 2 4 15 10 12
14 7 9 5 2 15 13 10 4 11 1 3 12 8 6
2 3 15 13 1 4 6 14 9 8 10 7 12 11 5
1 13 14 6 7 12 11 5 4 3 9 2 15 8 10
14 4 11 1 6 12 7 10 5 15 2 13 9 8 3
9 5 4 14 1 11 6 13 12 15 8 10 2 3 7
9 2 7 3 14 6 12 4 15 13 8 1 5 10 11
11 12 1 2 4 3 10 6 8 13 14 9 5 7 15
6 8 2 7 10 12 14 5 1 4 3 9 15 11 13
10 4 6 7 9 11 15 3 2 12 13 14 5 1 8
8 10 1 2 9 15 7 14 4 6 12 3 13 11 5
14 7 15 10 8 9 11 5 12 3 13 4 1 6 2
7 13 10 9 1 8 6 5 4 15 2 11 3 14 12
13 2 7 10 5 3 6 12 15 9 11 4 1 14 8
4 15 6 8 10 14 3 13 11 5 7 2 1 9 12
10 11 5 6 15 8 3 1 12 13 2 7 4 9 14
8 9 15 4 12 11 10 6 7 2 14 3 1 13 5
13 14 12 4 3 6 5 1 10 8 9 11 15 7 2
9 4 13 12 15 8 7 1 5 11 6 10 14 3 2
7 12 3 10 9 13 14 5 4 6 2 1 11 15 8
15 13 11 4 8 10 7 9 2 3 5 14 12 6 1
8 15 11 12 1 2 9 7 6 5 3 14 13 4 10
11 2 13 1 10 14 6 15 9 3 4 7 5 12 8
1 8 13 6 12 15 3 2 9 5 14 7 10 11 4
9 7 10 4 11 5 13 14 1 6 3 12 15 8 2
8 6 13 2 5 4 3 11 15 14 7 12 9 1 10
10 4 5 12 9 14 15 7 13 11 1 8 3 2 6
2 8 7 10 4 1 12 11 14 9 5 13 15 3 6
14 8 10 13 11 4 6 12 7 9 2 5 1 3 15
11 5 10 3 13 1 7 4 2 14 6 9 8 12 15
8 13 4 6 14 5 15 1 2 12 11 3 7 9 10
13 11 7 15 2 12 14 9 6 4 3 1 10 8 5
13 6 15 9 1 5 11 12 2 10 4 7 8 3 14
7 6 4 8 1 14 11 15 2 10 3 9 13 12 5
11 1 2 6 15 5 10 7 9 14 4 13 3 8 12
11 1 12 13 3 6 15 2 10 7 14 4 8 9 5
8 13 5 9 6 14 2 15 1 12 7 11 4 10 3
15 3 4 11 10 12 14 9 7 1 13 8 5 6 2
15 9 4 11 6 14 3 10 5 1 12 2 13 8 7
9 3 1 6 10 14 15 8 5 4 7 12 2 11 13
7 10 14 1 3 15 4 9 8 5 13 2 11 6 12
7 3 2 14 13 15 1 12 5 8 10 6 11 4 9

3
Tayshia Maynard
Kaitlyn Thurston
Clare Lawson
3 1 2
1 2 3
1 2 3
1 3 2
2 1 3
3 2 1
2 3 1
3 2 1
1 2 3
1 2 3
3 2 1
3 1 2
3 2 1
1 2 3
1 3 2
1 3 2
3 2 1
1 3 2
3 1 2
1 2 3
1 3 2
1 2 3
1 3 2
2 1 3
1 2 3
2 1 3
2 1 3
2 3 1
1 2 3
1 2 3
3 1 2
2 3 1
2 3 1
1 2 3
2 3 1
3 2 1
1 2 3
3 1 2
3 2 1
2 1 3
3 1 2
1 3 2
1 3 2
2 1 3
3 2 1
1 3 2
3 1 2
1 3 2
1 3 2
2 3 1
3 1 2
2 1 3
2 1 3
1 3 2
3 2 1

4
Charity Maynard
Sean Soules
Matt Hartsock
Andi Crawley
1 3 4 2
2 4 1 3
4 2 1 3
4 1 2 3
3 2 1 4
4 1 2 3
2 3 4 1
3 2 1 4

4
Becca Bristowe
Hannah Graziadei
Jojo Hartsock
Hannah Brown
3 1 2 4
1 4 2 3
2 4 1 3
2 4 1 3
3 2 4 1
1 4 2 3
4 2 3 1
2 1 4 3
4 1 3 2
4 2 1 3
3 4 1 2
1 4 2 3
2 1 3 4
2 3 4 1

10
Joey Recchia
Clare Windey
Joey James
Chris Graziadei
Rachel Luyendyk
Matt Fletcher
Rachel Adams
Gabby Young
Andi Fletcher
Becca Recchia
3 8 1 10 4 2 7 9 6 5
5 9 6 10 3 2 8 7 1 4
3 10 6 1 7 9 4 5 2 8
9 4 10 3 7 6 8 2 5 1
10 1 2 3 9 4 5 6 7 8
2 10 5 4 8 6 9 7 3 1
9 5 3 4 1 6 2 8 10 7
8 9 10 3 1 6 2 7 5 4
10 6 4 2 8 3 7 9 5 1
6 9 8 4 2 10 7 5 3 1

20
Emily Hartsock
Matt Windey
Andi Lowe
Kaitlyn Echard
Arie Windey
Andi Kufrin
Clare Lawson
Clare Graziadei
Desiree Shallcross
Brad Lawson
Tayshia Adams
Kaitlyn Lawson
Hannah Young
Hannah Lawson
Michelle Hartsock
Charity Crawley
Gabby Viall
Brad Adams
Brad Shallcross
Jojo Higgins
1 10 3 19 13 15 7 17 11 20 8 2 18 6 12 5 4 16 9 14
15 14 6 18 13 9 11 12 19 4 16 10 20 3 7 8 1 2 5 17
7 15 12 11 17 18 2 14 1 3 20 8 4 10 9 13 16 6 5 19
7 13 8 17 16 5 11 9 15 4 2 18 14 19 6 3 12 1 20 10
18 6 16 10 17 11 14 4 9 19 8 12 3 7 13 2 20 1 15 5
6 4 1 10 19 9 12 20 16 14 7 11 13 8 5 15 3 18 17 2
5 7 9 4 2 10 11 8 6 12 13 14 3 16 17 18 15 1 19 20
15 18 12 5 4 20 13 6 11 14 3 2 8 16 7 9 10 17 19 1
1 13 15 2 16 9 20 19 17 5 18 8 12 14 6 11 10 7 3 4
3 20 16 4 7 6 9 13 15 10 18 1 5 8 12 2 14 11 19 17
15 2 20 5 8 19 3 16 9 18 7 4 17 10 1 13 6 11 14 12
8 9 16 15 7 5 3 18 11 12 1 20 4 13 2 17 6 10 19 14
12 7 19 16 13 8 18 14 15 9 4 11 2 3 17 20 10 6 1 5
6 4 20 7 9 18 11 8 5 2 19 1 16 14 10 13 15 12 3 17
1 5 8 9 4 6 20 18 11 19 7 14 10 12 16 13 2 3 17 15
12 9 16 18 8 7 19 4 15 1 3 10 5 11 17 13 6 14 20 2
19 3 12 8 17 9 1 10 7 5 14 4 2 15 11 13 20 18 16 6
2 18 5 14 1 13 19 11 6 7 3 4 17 10 9 12 8 15 20 16
11 15 14 1 7 16 6 19 18 5 17 12 3 9 2 4 10 20 13 8
8 9 17 20 13 16 2 11 3 5 6 4 10 12 7 19 1 14 18 15
13 20 16 12 19 15 17 14 4 10 7 8 6 5 1 2 3 18 9 11
20 14 18 16 11 10 8 4 2 12 7 5 6 3 13 15 1 17 9 19
16 19 20 4 10 1 5 13 12 11 7 2 14 8 9 6 18 3 15 17
16 1 20 14 13 12 8 15 3 6 11 17 18 4 19 9 10 7 5 2
16 17 15 6 18 3 19 4 10 11 13 14 7 9 2 1 5 20 8 12
13 18 3 1 8 16 6 9 10 4 12 14 11 15 19 2 5 20 7 17
2 15 12 13 5 8 11 7 9 17 4 6 3 20 18 16 14 19 1 10
6 12 16 11 8 1 7 20 14 5 15 3 2 4 18 17 13 10 9 19
6 14 2 13 16 18 10 15 7 3 11 12 5 20 9 4 1 8 17 19
8 4 2 12 15 6 9 14 16 19 13 10 7 20 5 3 1 18 17 11
6 11 17 4 1 14 10 19 8 13 2 16 3 5 12 7 9 15 20 18
7 14 1 11 3 5 13 10 2 8 15 16 12 19 18 20 6 17 9 4
13 19 18 14 8 20 11 12 16 10 15 1 6 3 9 2 17 5 7 4
19 3 9 11 5 2 4 1 16 13 10 20 12 15 7 18 6 17 8 14
8 5 20 1 11 3 14 9 18 6 7 13 19 4 16 17 12 2 10 15
6 20 11 12 3 9 1 15 13 5 2 7 10 19 18 17 14 8 16 4
17 8 20 14 9 2 11 7 10 3 12 19 4 1 16 6 18 5 13 15
8 15 11 7 12 3 5 18 2 16 4 20 17 10 9 13 6 14 19 1
19 1 6 5 9 4 16 3 17 12 11 13 14 7 2 10 15 8 20 18
9 20 2 4 14 1 16 13 19 8 12 10 7 5 17 18 3 15 6 11
20 9 8 12 3 7 14 1 4 18 15 2 17 16 11 19 6 5 13 10
1 15 4 8 6 16 9 13 17 20 12 19 18 11 10 14 3 7 2 5
5 2 1 19 9 18 3 13 12 6 11 15 16 8 20 10 14 17 7 4
11 18 2 14 12 9 7 3 19 15 10 16 13 8 6 5 1 4 17 20
5 7 6 10 12 20 13 11 9 8 17 16 14 2 18 15 3 1 4 19
18 11 3 16 5 19 7 9 15 20 2 12 8 13 6 17 14 1 10 4
12 9 10 11 1 20 6 8 16 4 7 18 14 19 13 15 17 3 2 5
3 14 17 11 15 1 18 2 12 10 8 13 19 16 6 4 9 5 20 7
20 7 14 8 9 6 4 10 3 16 2 11 1 12 15 19 18 17 13 5
15 2 1 13 14 5 7 18 6 9 12 17 16 11 10 20 19 3 8 4
6 12 17 10 15 5 16 1 7 2 8 4 11 19 14 20 13 3 9 18
7 18 13 14 1 4 19 8 2 15 6 9 10 16 17 3 12 5 11 20
16 18 20 19 12 6 3 2 17 9 8 11 4 13 1 5 7 10 15 14
17 8 10 5 2 18 6 7 14 19 16 20 11 9 13 4 3 15 1 12
14 9 13 19 6 18 1 3 12 16 10 15 20 4 7 5 11 8 2 17
8 12 10 17 7 20 6 5 9 19 1 16 13 15 4 3 14 11 2 18
9 8 7 6 1 17 2 11 19 13 10 12 3 20 5 4 14 15 16 18

16
Ashley Hartsock
Zach Graziadei
Rachel Brown
Sean Fletcher
Clare Hebert
Matt James
Andi Young
Kaitlyn Maynard
Colton Hebert
Ashley Brown
Matt Shallcross
Tayshia Young
Becca Lindsay
Matt Flajnik
Jojo Lawson
Jojo Windey
11 8 4 15 9 2 16 14 13 7 3 5 6 1 10 12
2 8 7 11 13 9 12 1 14 16 5 6 3 15 4 10
14 6 2 9 4 12 11 15 8 13 10 7 3 16 5 1
15 6 14 13 7 3 9 1 10 4 5 16 12 8 11 2
14 6 13 1 4 7 11 12 16 9 5 3 10 8 2 15
14 8 16 5 12 6 7 1 9 13 15 2 11 3 10 4
12 9 13 10 6 16 14 11 8 15 7 3 5 4 1 2
10 15 6 8 2 11 5 4 3 1 9 12 13 16 7 14
8 14 4 15 9 2 7 16 13 5 11 1 12 10 3 6
10 6 12 14 16 7 9 11 5 2 4 8 13 1 3 15
4 3 1 16 14 12 13 7 9 2 10 5 11 15 8 6
12 7 14 15 11 5 3 13 8 16 9 10 2 1 4 6
8 7 12 2 3 16 13 9 14 6 11 15 10 4 1 5
3 15 16 14 10 13 6 11 9 4 1 12 8 7 2 5
15 1 7 9 16 2 10 6 5 13 8 11 12 3 14 4
9 4 1 13 10 12 16 5 3 6 14 15 7 11 8 2
13 5 15 8 16 7 6 3 14 2 12 4 9 11 1 10
3 6 10 9 8 7 4 12 16 11 2 15 1 13 5 14
2 16 5 11 9 3 4 13 14 1 15 8 12 10 7 6
14 12 15 13 8 2 7 9 5 1 6 10 3 11 16 4
13 8 11 5 9 1 10 3 15 14 12 4 16 2 6 7
12 4 10 1 6 16 9 14 8 2 15 7 3 11 13 5
14 13 4 9 5 7 10 16 11 3 15 2 12 6 8 1
7 6 5 13 4 8 2 9 10 12 16 3 1 15 11 14
2 4 5 3 1 6 12 13 9 8 11 10 16 14 7 15
1 4 15 5 11 10 13 3 2 8 14 16 9 7 12 6
16 7 3 1 5 15 9 6 12 14 13 2 10 4 11 8
10 11 1 15 13 16 4 9 7 12 6 8 2 5 3 14
11 4 7 9 10 1 6 12 13 15 3 16 14 8 5 2
1 3 16 15 14 2 12 7 6 5 10 11 9 13 4 8
7 3 13 5 10 14 11 16 2 15 6 8 1 12 9 4
6 13 15 10 7 16 14 12 8 9 4 1 11 5 2 3
4 10 14 11 15 1 2 16 9 13 6 5 7 12 8 3
9 13 7 5 1 8 16 4 10 15 2 6 11 3 12 14
10 9 5 8 4 11 15 16 6 3 14 12 7 13 1 2
16 12 3 15 8 14 11 4 7 13 10 1 5 2 9 6
2 9 3 5 11 14 7 6 13 16 4 8 10 1 12 15
9 10 13 4 6 7 15 8 2 12 14 5 1 3 11 16
13 2 5 6 16 4 9 14 8 15 7 12 3 11 10 1
14 2 10 7 3 4 11 16 6 12 1 5 9 8 15 13
16 9 8 11 10 1 4 5 12 15 2 3 6 13 14 7
10 4 12 7 13 3 5 14 1 6 16 2 15 8 9 11
6 5 15 12 8 10 2 13 11 14 7 4 1 16 9 3
4 12 2 9 13 7 5 6 11 16 10 8 15 1 14 3
2 13 1 4 12 6 10 5 15 16 11 3 9 8 7 14
14 2 8 9 4 6 12 16 1 7 5 10 15 13 3 11
7 11 12 5 8 16 15 4 1 3 10 6 2 9 14 13
13 11 12 3 10 14 5 8 16 2 15 4 9 6 1 7
12 8 9 15 6 11 4 10 5 1 7 16 3 14 13 2
1 2 8 9 4 11 14 5 12 7 6 10 13 15 16 3
1 14 16 8 15 6 10 2 9 3 7 4 13 11 12 5
6 15 11 4 8 9 12 14 10 7 1 16 5 13 2 3
13 15 4 2 12 9 14 7 6 16 3 5 11 8 10 1
12 4 6 16 8 13 10 3 1 2 7 5 15 11 14 9
13 6 1 11 4 10 3 7 15 14 12 5 8 16 9 2

1
Nick Young
1
1
1
1
1
1
1
1
1
1
1
1
1
1
1
1
1
1
1
1
1
1
1
1
1
1
1
1
1
1
1
1
1
1
1
1
1
1
1
1
1
1
1
1
1
1
1

8
Matt Echard
Desiree Thurston
Brad Hebert
Gabby Shallcross
Ben Shallcross
Sean Recchia
Nick Fletcher
Zach Lawson
8 5 6 7 4 1 3 2
8 2 4 3 7 5 6 1
3 7 8 5 2 1 4 6
2 5 3 1 8 7 6 4
3 1 4 5 2 6 7 8
6 8 7 5 4 3 2 1
5 4 7 1 6 3 8 2
4 8 6 7 3 1 2 5
4 2 3 8 6 1 5 7
8 2 5 4 6 3 1 7
7 3 8 1 6 5 2 4
6 4 8 1 7 5 3 2
5 3 6 2 4 7 8 1
3 5 2 4 1 7 6 8
2 5 6 3 8 7 1 4
7 5 2 4 6 8 3 1
8 6 2 3 1 7 4 5
6 2 8 4 5 7 3 1

9
Hannah Recchia
Nick Lowe
Ashley Luyendyk
Sean Brown
Katie Lowe
Charity Hebert
Chris Young
Brad Thurston
Sean Kufrin
1 2 4 3 5 8 7 6 9
1 5 6 2 4 8 3 9 7
1 9 8 6 4 2 7 5 3
8 4 7 6 1 5 9 2 3
9 2 3 8 6 7 5 1 4
5 3 4 9 1 2 7 6 8
1 2 5 8 4 9 7 3 6
3 6 8 5 9 2 7 4 1
7 5 2 3 1 8 4 9 6
2 7 8 9 4 5 3 6 1
4 2 1 3 8 7 9 5 6
1 9 5 4 6 8 2 7 3
5 4 2 6 9 7 3 8 1
6 4 8 7 3 2 5 9 1
7 3 5 4 9 8 2 6 1
8 5 7 6 9 1 3 4 2
8 3 1 4 6 9 2 7 5
5 8 4 9 1 2 7 3 6
8 7 6 1 4 5 3 9 2
9 4 8 3 2 7 6 1 5
3 6 8 2 5 1 4 9 7
5 7 8 3 9 4 6 2 1
3 4 2 8 1 7 5 6 9
2 7 8 6 5 9 1 3 4
2 7 3 1 8 5 9 6 4
7 5 3 8 4 6 1 9 2
8 4 9 1 2 7 6 5 3
7 8 2 4 3 9 6 5 1
6 9 3 8 2 1 4 5 7
8 6 1 4 5 3 9 7 2
5 1 8 6 3 2 4 9 7
8 9 6 1 7 2 4 3 5

3
Zach Higgins
Clare Flajnik
Clayton Echard
3 2 1
1 3 2
1 2 3
2 1 3
1 3 2
2 1 3
1 2 3
2 3 1
2 3 1
1 3 2
1 3 2
1 2 3
1 2 3
2 3 1
2 3 1
2 3 1
3 2 1
3 2 1
2 1 3

20
Katie Brown
Clayton Hebert
Joey Underwood
Katie Weber
Michelle Viall
Desiree Lowe
Desiree Soules
Charity Flajnik
Kaitlyn Windey
Ashley Adams
Katie Adams
Becca Recchia
Becca Weber
Andi Lawson
Andi Higgins
Brad Kufrin
Charity Shallcross
Arie Thurston
Matt Adams
Kaitlyn Weber
14 15 3 1 7 17 9 11 10 8 20 12 5 19 13 16 4 18 6 2
3 5 15 1 14 6 4 2 7 8 11 12 13 16 17 20 9 18 19 10
20 2 8 9 4 3 11 7 6 5 1 15 12 14 13 17 18 19 10 16
12 13 10 20 2 9 5 15 3 14 8 11 6 4 17 1 16 19 18 7
7 2 6 15 5 3 11 1 14 12 4 20 10 19 18 13 9 16 8 17
5 18 12 14 8 3 11 17 13 16 10 6 4 7 20 2 19 1 9 15
15 8 9 2 5 10 16 14 18 19 17 7 11 13 1 12 3 20 4 6
9 20 8 4 2 11 14 12 13 10 1 7 18 6 17 3 15 19 5 16
8 17 20 9 7 11 4 12 14 15 16 3 1 13 18 19 2 10 6 5
15 12 13 7 16 19 9 17 18 6 10 5 1 4 2 20 8 11 14 3
18 20 4 6 3 14 7 11 1 13 17 9 5 19 16 15 2 10 12 8
15 14 2 1 7 18 4 11 16 13 20 12 6 19 5 10 17 9 3 8
9 5 11 15 13 14 4 18 7 12 19 3 8 1 17 16 6 2 20 10
15 18 16 5 1 12 14 10 11 17 6 7 19 2 13 3 20 9 4 8
16 18 19 20 8 15 14 7 1 12 10 11 4 6 3 17 5 9 13 2
2 9 15 1 8 18 3 17 5 4 19 14 7 10 20 6 11 16 13 12
10 8 6 2 7 14 17 1 13 16 20 3 18 19 15 11 5 4 12 9
7 4 10 18 9 13 1 8 3 12 15 5 2 6 11 19 14 20 17 16
17 18 10 6 14 11 7 8 19 9 15 2 20 5 12 4 16 1 13 3
2 18 9 3 17 15 20 8 14 12 11 4 6 7 10 5 19 13 1 16
9 13 4 2 12 11 3 16 15 8 5 1 14 19 7 10 17 18 20 6
4 17 6 15 11 5 3 19 13 18 14 10 7 8 9 20 2 16 1 12
18 5 4 1 14 15 12 17 9 6 3 19 13 20 16 10 7 8 11 2
16 6 5 13 14 1 12 3 10 17 9 15 2 11 4 19 18 8 7 20
8 11 12 20 17 3 10 6 18 4 13 1 5 16 19 14 2 9 15 7
12 17 8 4 13 18 19 10 3 5 11 20 1 9 7 6 14 15 2 16
4 7 19 8 3 9 5 12 15 18 13 1 20 10 14 11 6 2 17 16
20 7 11 3 6 10 14 4 9 16 18 12 5 19 17 15 1 13 8 2
5 7 14 13 20 6 9 15 11 4 1 18 10 2 8 19 17 16 12 3
20 14 17 19 11 8 18 5 4 9 6 7 12 1 3 2 15 13 16 10
14 15 13 16 3 6 18 5 2 8 19 12 17 11 10 7 1 9 20 4
2 7 16 5 8 11 1 6 14 18 17 3 4 9 10 19 12 15 13 20
19 15 4 20 16 18 8 2 1 6 11 12 9 5 13 17 7 3 14 10
6 20 18 2 5 19 17 8 9 13 7 4 11 10 14 1 15 12 16 3
19 7 1 3 12 2 14 20 4 16 9 11 10 5 6 8 17 18 13 15
3 16 13 19 20 15 18 17 9 1 6 14 8 11 5 4 10 2 12 7
19 18 16 9 3 5 11 1 13 12 7 14 2 6 4 17 15 10 20 8

12
Clayton Crawley
Clare Graziadei
Nick James
Becca Higgins
Ben Adams
Hannah Hebert
Charity Windey
Michelle Maynard
Katie Flajnik
Becca Weber
Peter Fletcher
Sean James
10 2 12 8 5 6 7 11 9 1 4 3
2 3 4 11 8 9 5 6 1 12 10 7
3 5 11 4 6 10 12 1 8 2 7 9
10 6 2 8 9 7 3 4 1 5 12 11
1 4 2 9 5 3 12 6 10 8 7 11
8 6 9 4 10 7 1 12 2 5 3 11
8 10 5 2 3 4 6 11 12 9 7 1
12 5 1 7 10 6 3 11 4 2 9 8
7 5 10 1 3 9 11 4 8 2 12 6
5 7 1 12 10 8 4 2 9 3 6 11
7 4 11 1 8 2 5 9 6 12 3 10
4 6 1 12 7 9 3 8 5 10 2 11
7 9 12 1 10 4 6 3 2 11 8 5
4 1 12 6 5 10 3 9 2 7 8 11
8 12 1 9 10 11 2 6 4 5 7 3
7 4 9 11 3 12 1 2 5 6 10 8
4 2 10 12 11 5 8 9 6 1 7 3

9
Ben Crawley
Gabby Bristowe
Hannah James
Brad Flajnik
Matt Windey
Michelle James
Clayton Underwood
Arie Soules
Kaitlyn James
7 3 1 8 6 9 5 4 2
7 2 9 5 3 4 1 6 8
2 4 1 3 7 9 5 8 6
8 7 1 4 2 5 3 6 9
6 2 3 4 5 7 1 9 8
6 5 1 3 2 7 9 8 4
2 5 4 6 8 9 7 1 3
4 2 8 6 1 3 9 5 7
6 8 2 7 1 5 3 4 9
6 8 7 9 5 1 2 3 4
8 9 3 6 2 7 5 1 4
6 4 2 7 5 9 3 1 8
9 4 6 7 2 5 8 3 1
8 1 9 6 2 7 5 4 3
9 7 2 5 8 4 1 3 6
3 9 6 5 8 7 1 4 2
5 7 3 8 9 4 2 6 1
9 4 2 7 5 6 1 3 8
5 3 7 2 8 1 4 6 9
3 6 1 8 9 2 7 5 4
4 8 7 6 3 5 1 9 2
5 9 8 1 4 7 3 2 6
4 1 6 7 8 9 3 5 2

6
Katie Hartsock
Rachel Flajnik
Desiree Hebert
Hannah Lindsay
Arie Viall
Becca Kufrin
5 1 6 4 3 2
2 1 3 5 4 6
3 5 2 1 4 6
1 6 3 5 4 2
5 6 4 2 1 3
6 3 2 5 4 1
1 6 2 5 4 3
2 5 3 6 1 4
3 6 1 4 5 2
3 2 5 6 1 4
1 5 2 3 6 4
1 5 2 6 4 3
3 1 5 2 4 6
1 6 3 4 5 2
6 4 5 1 2 3
6 4 5 2 1 3
2 3 5 4 1 6
3 5 2 1 4 6
6 2 1 3 5 4
2 1 3 5 4 6
3 1 5 6 4 2
1 5 4 2 3 6
6 5 3 4 1 2
3 5 6 4 2 1
2 5 6 1 4 3
2 1 3 5 6 4
6 3 1 4 5 2
1 5 2 4 6 3
1 4 2 3 5 6
2 6 5 4 3 1
6 5 4 3 2 1
1 3 4 5 2 6
4 2 1 6 5 3
5 1 4 6 2 3
1 4 6 2 3 5
2 6 5 3 1 4
4 6 5 1 2 3
5 1 6 2 3 4
4 5 1 3 2 6
5 4 6 3 1 2
5 4 2 3 6 1
2 3 1 4 6 5
6 1 4 2 3 5
5 4 1 3 6 2
4 3 2 5 1 6
3 2 1 5 6 4
4 6 5 2 3 1
4 5 1 3 2 6
4 6 5 2 1 3
1 3 2 4 6 5
6 1 4 5 2 3
6 4 2 1 5 3
1 6 5 3 4 2

12
Peter Viall
Brad Shallcross
Desiree Windey
Nick Crawley
Matt Higgins
Colton Fletcher
Katie Thurston
Becca Dorfman
Colton Graziadei
Arie Lowe
Katie Flajnik
Jojo Weber
7 6 9 11 3 2 4 10 1 8 12 5
10 7 4 3 9 2 5 1 6 8 12 11
9 11 8 6 4 5 7 1 2 12 10 3
5 11 7 4 9 1 10 2 8 3 12 6
8 9 3 1 7 11 12 10 5 4 2 6
12 2 9 7 4 3 6 1 5 11 10 8
11 3 6 10 1 4 12 9 5 2 7 8
11 6 2 5 10 12 3 8 1 7 9 4
9 3 6 5 2 10 11 1 7 8 4 12
7 8 4 5 9 2 6 10 11 3 1 12
3 11 1 2 12 7 8 6 5 10 9 4
5 12 9 8 7 2 6 11 10 1 3 4
2 3 4 6 12 10 5 9 1 7 11 8
2 8 1 12 11 4 10 3 9 6 7 5
3 11 1 8 10 7 5 9 2 12 4 6
11 12 10 7 5 4 9 6 2 8 1 3
10 3 11 7 6 5 9 8 2 12 1 4
11 10 1 2 6 8 4 3 5 9 12 7
5 9 2 4 3 6 7 10 12 11 1 8
4 9 1 3 7 8 2 6 12 5 11 10
9 11 8 7 2 10 4 3 6 12 1 5
2 8 6 4 1 10 3 7 12 11 5 9
8 9 10 6 7 4 3 12 1 5 2 11
12 8 2 10 1 11 7 3 9 5 4 6
4 1 5 2 11 12 3 8 6 7 10 9
3 2 12 8 1 5 4 10 11 6 7 9
7 10 11 4 9 6 2 1 3 8 12 5
4 7 1 11 6 9 12 2 10 5 8 3
5 3 8 10 1 12 11 2 9 4 7 6
3 4 9 6 5 12 10 7 2 11 8 1
8 9 2 5 4 1 11 7 12 3 6 10
3 10 6 11 8 12 1 7 5 9 2 4
10 1 12 2 11 4 3 6 9 5 8 7
3 2 8 12 6 11 4 7 1 5 10 9
6 4 11 5 8 9 1 3 12 10 7 2
12 1 5 3 7 4 6 9 10 2 8 11
12 4 6 7 1 10 9 5 3 11 8 2
8 10 12 4 2 11 3 7 6 9 1 5
8 5 2 12 7 9 6 4 11 10 3 1
10 7 4 9 12 11 5 8 3 1 6 2
4 9 2 8 1 10 5 6 7 11 3 12
11 7 8 2 12 6 3 10 9 5 1 4
4 7 11 5 12 9 6 2 3 1 10 8
1 9 10 12 5 6 3 8 7 4 2 11
4 2 6 10 11 9 3 8 7 1 5 12
1 10 5 2 3 12 9 11 8 7 4 6
11 5 1 9 2 12 6 8 10 4 7 3
7 2 5 4 10 1 9 8 11 6 3 12
1 8 4 11 5 12 6 2 10 7 9 3
7 6 10 9 1 2 3 12 8 4 5 11
3 1 4 10 12 8 11 6 7 2 5 9
9 12 1 6 5 10 2 4 3 8 11 7
8 7 3 10 4 6 5 9 12 11 1 2

11
Hannah Flajnik
Sean Hebert
Ashley Lawson
Becca Windey
Brad Brown
Sean Underwood
Joey Bristowe
Rachel Echard
Hannah Lowe
Ben Windey
Arie James
9 3 4 11 1 5 10 2 6 8 7
4 7 2 1 8 6 3 5 9 11 10
6 3 7 1 8 9 11 5 2 10 4
2 6 11 10 7 9 3 8 5 4 1
10 4 5 3 2 7 9 6 1 8 11
10 2 3 9 8 5 11 1 6 4 7
3 6 2 10 9 8 5 4 1 7 11
3 9 8 10 1 11 2 7 5 6 4
10 5 11 9 7 4 1 3 2 8 6
6 7 11 10 4 9 8 3 2 5 1
4 9 8 3 2 11 1 10 6 5 7
1 3 2 6 4 11 10 8 7 5 9
6 7 1 10 2 8 4 9 5 3 11
5 11 6 3 2 7 9 4 1 8 10
5 7 10 9 6 1 11 4 2 8 3
1 7 6 10 5 11 3 8 4 2 9
11 2 6 9 5 3 10 4 1 7 8
4 8 9 1 10 11 7 2 3 6 5
1 8 9 6 11 10 2 3 4 7 5
10 1 4 11 7 3 8 2 9 6 5
5 11 7 3 1 10 2 4 9 8 6
8 9 4 3 1 2 6 10 11 7 5
10 1 8 2 9 7 4 3 5 6 11
5 11 8 4 6 1 9 7 2 10 3
2 10 3 8 6 4 7 9 5 1 11
4 5 7 6 9 10 3 1 8 2 11
5 1 4 10 9 6 2 11 3 8 7
10 7 1 6 4 3 8 9 11 2 5
3 8 6 1 2 7 11 10 4 5 9
4 1 7 11 5 9 3 2 6 10 8
7 8 6 10 5 4 11 2 1 9 3
3 6 4 11 5 7 1 2 10 9 8
7 5 3 1 10 11 8 4 6 2 9
10 5 3 9 7 8 11 4 6 2 1
2 1 11 8 9 3 5 10 7 6 4
11 10 5 3 9 6 4 8 7 2 1
11 1 9 5 7 8 3 10 6 2 4
9 8 3 7 10 1 2 5 6 4 11
10 1 2 7 5 9 3 8 6 4 11
11 10 3 5 9 7 1 2 8 4 6
8 5 4 3 10 2 7 1 6 9 11
2 4 1 7 3 6 9 8 5 10 11
9 7 4 5 1 10 2 6 11 3 8
4 8 1 9 3 6 11 2 5 10 7
6 10 5 4 1 3 7 8 11 2 9
3 6 5 7 8 1 2 9 11 4 10
4 1 3 2 5 9 7 6 8 11 10
6 11 2 8 9 3 10 7 4 1 5
5 6 2 8 4 11 9 3 10 7 1
10 3 11 5 7 9 8 1 6 2 4
2 6 9 11 4 1 7 8 3 10 5
7 2 6 11 5 9 1 8 3 10 4
5 10 4 1 2 11 8 3 7 9 6
10 3 1 6 9 8 2 4 7 11 5
7 11 2 5 6 9 8 4 1 10 3
2 5 9 6 1 4 10 7 11 8 3
11 3 2 5 10 1 7 4 9 6 8
10 1 6 7 3 2 5 9 4 11 8

13
Nick Lowe
Arie Luyendyk
Chris Recchia
Clare Crawley
Sean Fletcher
Nick Windey
Katie Dorfman
Clare Graziadei
Joey Brown
Clare Recchia
Gabby Soules
Emily Hartsock
Andi Lindsay
6 12 7 10 11 8 3 1 5 4 2 9 13
10 13 7 3 2 11 4 12 5 8 1 9 6
10 1 5 13 4 7 12 8 6 9 3 2 11
7 12 13 8 3 2 4 9 11 1 10 5 6
3 11 7 13 2 9 10 12 4 1 5 8 6
6 10 3 7 8 9 5 13 11 4 1 12 2
3 12 5 11 2 10 1 4 6 8 7 13 9
1 9 7 8 2 13 5 11 4 6 12 10 3
10 11 13 4 2 1 12 5 9 3 8 7 6
13 6 1 11 4 5 3 7 9 10 2 8 12
6 12 7 13 8 11 4 3 5 1 10 2 9
5 4 7 8 3 6 11 1 10 12 13 9 2
11 10 4 7 1 13 3 9 5 12 6 2 8
3 7 5 8 6 11 4 10 12 1 2 9 13
1 9 13 3 12 7 2 11 4 8 5 10 6
5 12 3 13 6 1 9 11 7 4 2 10 8
4 13 3 2 7 5 8 11 12 10 1 9 6
11 13 5 3 9 12 1 2 7 10 4 8 6
4 2 11 13 1 6 3 10 12 5 8 7 9
2 9 6 8 13 3 5 11 4 1 7 10 12
1 10 6 5 11 9 7 2 4 12 3 13 8
13 2 8 1 3 9 6 5 7 10 4 11 12
2 4 10 13 7 11 6 12 9 3 5 1 8
6 12 4 2 7 5 9 13 11 1 8 3 10
4 7 11 5 8 2 1 6 13 10 3 12 9
6 8 3 5 11 2 10 9 12 4 7 1 13
4 6 9 12 5 2 10 11 13 1 7 8 3
6 3 2 11 8 4 9 1 5 10 12 7 13
9 4 6 7 8 11 2 1 5 10 12 13 3
13 10 12 8 4 3 9 11 7 6 5 1 2
3 4 11 13 6 12 8 7 9 1 5 2 10
12 10 2 7 6 4 8 13 11 3 9 5 1
9 13 5 6 4 11 3 10 8 2 1 7 12
4 10 11 2 12 6 9 13 1 3 5 7 8
1 11 4 13 7 8 6 3 5 2 10 12 9
4 13 11 12 2 10 8 1 3 7 6 5 9
5 4 1 2 3 13 10 7 8 12 9 11 6
3 5 11 6 10 13 4 1 7 12 9 2 8
6 7 13 4 3 11 1 10 5 8 9 2 12
4 8 3 1 7 10 9 12 13 11 6 2 5
9 3 2 6 10 11 1 13 7 8 4 12 5
6 7 10 1 11 12 9 5 3 2 8 13 4
11 1 8 2 5 12 7 6 9 13 10 3 4
1 13 10 9 3 7 2 6 11 8 4 5 12
5 13 7 9 3 1 12 10 2 8 4 11 6
6 10 5 9 1 12 2 13 11 7 4 3 8
5 4 10 2 6 7 8 12 1 9 3 11 13
4 13 8 9 10 11 1 12 2 5 7 3 6
12 4 2 8 11 13 7 10 9 3 6 5 1
1 4 8 13 12 5 10 3 7 6 2 9 11
13 8 10 7 3 4 2 11 5 1 9 6 12
2 5 9 13 1 3 10 12 7 11 6 8 4
13 1 3 7 9 2 5 10 12 11 4 6 8
11 9 13 12 1 7 8 4 2 10 6 3 5
13 10 5 2 6 7 8 1 9 4 11 3 12
8 1 7 5 10 9 13 4 3 12 6 2 11

2
Andi Recchia
Katie Lawson
2 1
2 1
2 1
2 1
1 2
2 1
1 2
2 1
2 1
2 1
2 1
2 1
2 1
1 2
1 2
1 2
1 2
1 2
1 2
1 2
2 1
1 2

1
Ben Soules
1
1
1
1
1
1
1
1
1
1
1
1
1
1
1
1

9
Jojo Viall
Gabby Kufrin
Joey Thurston
Ashley Kufrin
Clayton James
Brad Shallcross
Rachel Maynard
Arie Echard
Becca Shallcross
2 6 5 4 9 8 7 1 3
4 1 7 3 5 6 2 9 8
4 5 2 3 1 7 6 9 8
6 8 4 7 3 9 5 1 2
2 5 6 3 4 8 9 1 7
3 4 1 8 2 9 7 5 6
3 9 7 6 4 1 8 5 2
2 4 7 8 3 5 9 6 1
3 6 8 2 1 9 4 5 7
9 4 1 2 8 6 5 3 7
5 6 3 4 2 1 8 7 9
3 8 6 9 5 4 1 7 2
3 2 8 5 1 4 7 6 9
5 4 3 6 9 7 1 8 2
2 1 7 5 8 6 3 9 4
5 8 2 7 9 1 6 4 3
2 6 5 1 7 9 4 3 8
8 7 3 4 5 2 6 9 1
8 6 3 5 1 7 4 2 9
8 1 2 5 7 6 3 9 4
7 8 2 6 1 5 9 4 3
1 3 2 8 9 4 7 5 6
6 9 1 8 3 4 5 2 7
5 8 3 1 4 9 7 6 2
3 9 2 8 1 6 5 4 7
5 8 7 6 9 3 2 4 1
7 9 8 5 4 1 6 2 3
6 3 9 5 4 8 7 2 1
8 7 4 1 6 5 3 9 2
3 5 7 2 4 1 9 8 6
7 3 5 2 6 9 8 4 1
7 1 6 9 3 2 8 4 5
3 7 9 8 6 5 4 2 1
1 2 6 7 4 5 9 3 8
7 9 1 6 8 5 2 3 4
1 8 6 5 3 2 4 7 9
6 2 4 9 1 5 8 3 7
7 2 1 6 8 3 4 5 9
9 2 3 5 8 1 4 7 6
1 5 7 2 9 3 8 6 4
4 9 6 2 3 7 1 5 8
8 9 5 3 6 1 2 7 4
3 9 2 6 1 5 4 7 8
5 3 1 4 6 9 8 2 7

16
Joey Lindsay
Charity Shallcross
Sean Luyendyk
Brad Lawson
Colton Hebert
Ben Lindsay
Emily James
Arie Lowe
Peter Maynard
Nick Dorfman
Michelle Echard
Gabby Crawley
Peter Lindsay
Sean James
Charity Hebert
Tayshia Higgins
10 12 6 9 2 5 15 14 11 3 4 16 13 7 8 1
8 6 12 9 15 1 7 13 5 14 10 2 11 4 16 3
5 7 14 1 13 11 4 15 3 6 12 2 9 16 10 8
6 13 11 3 9 5 14 16 8 2 12 10 1 7 15 4
13 8 14 2 9 3 7 11 1 6 16 15 10 5 12 4
2 12 8 5 15 16 1 11 4 10 14 7 9 13 6 3
11 10 8 16 2 4 13 15 3 6 12 7 14 5 9 1
12 16 14 3 7 11 13 9 8 1 6 2 5 10 15 4
11 16 2 6 8 14 15 12 1 4 9 3 10 13 5 7
10 12 11 6 7 3 16 8 4 5 15 13 9 2 1 14
4 12 13 5 8 9 7 2 15 10 16 1 3 14 6 11
10 2 3 14 9 4 11 12 15 13 7 1 16 6 8 5
2 1 3 10 5 11 6 8 14 4 15 12 16 7 13 9
3 12 11 15 4 6 9 5 2 8 13 16 1 7 10 14
8 14 2 4 7 12 1 11 13 6 15 5 16 3 9 10
14 6 10 8 11 12 3 2 1 16 7 4 5 13 9 15
5 9 3 15 12 11 8 14 7 4 2 13 6 16 10 1
14 3 2 13 15 8 12 4 1 6 5 7 9 11 16 10
6 8 1 14 13 12 7 3 9 16 2 15 11 4 5 10
8 14 15 16 6 13 9 12 2 10 3 1 5 4 7 11
2 7 8 11 1 14 3 15 10 9 13 12 5 6 4 16
4 10 11 6 12 5 14 13 16 3 1 15 9 8 2 7
7 14 13 16 6 1 2 4 15 9 12 8 3 10 11 5
13 5 7 6 11 14 15 3 1 16 4 8 10 2 9 12
5 8 2 3 14 13 10 6 7 12 4 1 16 11 15 9
9 14 12 1 6 4 2 5 8 13 11 15 7 3 10 16
12 7 6 11 10 3 2 13 4 15 8 9 14 5 16 1
13 1 15 16 5 14 12 8 9 11 4 6 10 2 3 7
2 4 14 15 12 6 16 7 13 9 8 3 5 11 1 10
8 15 13 9 14 1 12 16 6 4 5 3 10 2 7 11
13 4 3 1 16 12 11 6 8 7 10 15 9 14 5 2
10 9 12 3 13 11 6 5 1 14 8 15 7 4 2 16
3 1 15 7 10 5 6 2 12 13 9 11 8 4 14 16
4 9 15 13 16 6 7 5 10 1 11 14 2 8 12 3
7 15 10 11 1 9 6 13 2 16 4 12 8 3 14 5
3 1 16 10 2 15 8 13 14 12 11 6 9 5 4 7
6 7 10 12 5 11 2 14 3 4 16 8 13 9 1 15

19
Andi Soules
Emily James
Colton Lawson
Michelle Echard
Andi Shallcross
Matt Flajnik
Colton Dorfman
Brad Lindsay
Sean Flajnik
Joey Graziadei
Arie Lawson
Tayshia Weber
Gabby Young
Zach Thurston
Arie Graziadei
Gabby Echard
Clayton Dorfman
Sean Higgins
Nick Crawley
14 3 13 19 11 17 9 1 5 15 12 7 8 10 16 18 4 6 2
1 19 9 2 3 10 18 15 17 7 16 6 5 4 11 14 12 8 13
3 13 6 14 4 8 11 10 5 2 9 1 17 15 19 12 18 16 7
4 6 18 10 9 5 13 16 8 19 15 7 2 1 12 14 3 11 17
2 7 5 8 11 3 10 17 14 16 13 15 1 4 12 9 18 19 6
9 16 12 19 4 1 2 5 3 11 13 7 14 6 10 8 15 17 18
17 12 2 8 5 11 3 1 9 16 7 15 6 14 19 13 10 18 4
16 5 10 6 4 14 13 18 7 19 15 12 1 17 11 3 9 8 2
14 16 19 9 3 1 12 6 15 5 10 11 4 2 7 18 13 17 8
6 11 8 18 19 4 3 10 12 7 16 13 2 14 1 5 9 15 17
7 3 6 8 9 19 14 13 18 16 15 2 1 12 17 5 10 4 11

17
Brad Windey
Charity Thurston
Ashley Flajnik
Peter Thurston
Tayshia Bristowe
Matt Underwood
Chris Dorfman
Clayton Weber
Zach Shallcross
Charity Fletcher
Hannah Adams
Arie Higgins
Rachel Hebert
Peter Brown
Emily Lawson
Charity Dorfman
Chris Weber
2 5 16 10 3 12 14 6 4 1 15 17 7 8 13 11 9
5 6 4 16 10 8 2 11 14 1 9 15 13 17 3 12 7
7 2 3 14 6 12 8 13 11 15 9 1 17 4 16 10 5
7 5 11 3 13 17 16 4 14 8 2 10 6 9 12 1 15
10 8 16 13 7 17 1 11 5 4 6 14 12 9 2 3 15
8 7 9 4 16 1 2 11 10 5 15 13 17 3 14 12 6
11 10 13 17 12 4 3 14 15 5 6 16 9 1 7 8 2
4 8 6 11 9 10 13 14 2 17 5 16 7 15 1 3 12
1 9 8 10 14 16 4 5 3 2 13 11 7 17 6 12 15
17 7 1 6 2 10 3 15 4 9 11 13 16 14 5 12 8
4 15 2 5 8 10 11 12 14 7 1 6 13 16 17 9 3
6 17 10 12 9 7 11 5 16 2 13 8 14 4 15 1 3
2 10 12 7 8 9 11 3 17 13 1 15 5 16 6 4 14
12 9 8 17 15 11 10 3 6 1 16 5 7 2 13 4 14
7 9 4 17 3 1 16 14 10 11 13 15 8 12 5 2 6
14 13 12 16 5 8 1 11 7 3 15 2 9 17 4 10 6
14 1 8 15 3 6 9 10 7 17 2 13 16 4 5 12 11
4 10 17 6 11 5 15 16 7 14 9 3 2 8 12 13 1
14 1 10 5 11 6 13 12 9 15 4 17 2 3 7 16 8
1 8 7 3 4 13 14 2 16 9 10 11 5 6 17 12 15
5 9 10 11 1 6 14 4 16 3 7 2 13 15 8 17 12
11 6 17 7 9 10 4 14 8 12 3 2 13 16 1 5 15
10 2 13 3 11 12 14 17 6 5 7 15 8 16 9 1 4
2 6 13 11 7 17 15 4 5 8 1 16 9 12 10 14 3
6 17 11 9 12 15 14 4 13 1 5 2 10 8 3 16 7
7 1 6 2 3 15 12 5 9 16 8 17 4 11 14 10 13
5 3 2 12 6 8 4 17 13 9 11 10 7 1 14 16 15
3 16 1 15 13 12 9 7 5 14 4 10 8 11 2 6 17
5 7 1 2 13 16 9 4 15 11 12 17 6 14 3 8 10
8 5 6 14 2 15 11 17 4 7 10 16 13 9 1 3 12
10 12 4 2 15 16 14 13 6 3 9 5 1 17 7 8 11
14 8 7 11 15 6 3 4 2 13 10 1 16 5 9 12 17
5 11 9 6 4 14 1 17 3 7 13 15 16 8 2 12 10
1 4 17 16 12 8 11 7 5 10 6 3 9 14 15 2 13
7 1 16 2 4 6 3 8 13 17 11 10 9 5 15 12 14
4 2 6 9 7 14 8 11 12 10 3 13 17 1 16 5 15
2 7 1 15 17 6 12 8 4 14 16 3 9 10 13 5 11
11 17 2 12 7 5 3 4 13 16 1 15 14 8 10 9 6
7 9 3 2 10 13 6 1 17 14 8 16 12 15 11 4 5
4 10 16 2 9 8 17 12 6 11 1 3 5 13 7 15 14
6 9 7 4 12 8 10 14 15 1 2 5 3 16 11 17 13
3 10 17 6 7 13 11 14 16 9 2 8 4 5 15 12 1
14 8 9 15 12 2 17 7 16 6 3 13 10 1 4 5 11
6 14 3 17 11 12 7 8 2 13 15 5 1 10 16 9 4
17 9 13 11 12 8 5 4 6 14 15 2 16 1 7 3 10
16 9 11 14 2 4 6 13 10 15 7 17 3 1 5 12 8
10 3 6 16 13 7 1 15 8 11 5 4 12 9 17 2 14
12 11 15 8 1 7 14 3 13 5 2 6 17 10 4 9 16
12 10 15 16 7 1 4 14 9 13 17 3 8 5 6 11 2
8 11 14 15 1 5 17 9 7 6 12 4 2 10 13 3 16
4 2 15 16 7 8 11 17 1 14 12 3 10 5 6 13 9

18
Sean James
Jojo Recchia
Hannah Windey
Jojo Kufrin
Andi Kufrin
Arie Fletcher
Becca Fletcher
Andi Echard
Rachel Hebert
Charity Adams
Emily James
Ashley Graziadei
Peter Windey
Tayshia Underwood
Clare Thurston
Zach Young
Peter Brown
Jojo Echard
10 3 14 13 16 15 17 18 5 4 7 11 8 9 12 6 1 2
3 15 13 2 14 16 6 1 10 7 9 5 17 4 11 8 12 18
13 16 18 7 3 6 14 12 1 2 15 11 9 17 5 10 8 4
6 17 14 3 5 16 8 13 7 1 11 4 9 10 2 18 12 15
5 11 8 4 6 15 18 13 1 14 7 17 2 3 12 16 9 10
9 12 6 11 7 14 2 15 18 4 13 16 3 10 17 5 1 8
12 11 8 7 9 1 18 16 4 2 10 6 14 5 17 13 15 3
16 17 6 2 8 1 12 11 9 13 4 15 3 7 10 18 5 14
17 11 10 3 7 5 13 8 18 9 1 6 4 14 2 15 12 16
7 8 12 14 2 5 10 11 18 17 3 6 9 4 16 1 13 15
2 10 5 9 4 17 13 16 6 11 12 15 8 18 7 3 14 1
15 8 16 1 13 2 6 4 7 5 12 11 9 14 10 17 18 3
12 6 5 11 10 16 1 14 3 2 18 13 7 17 9 8 15 4
4 18 13 8 6 17 12 10 14 15 5 3 9 11 2 7 1 16
16 3 4 11 15 18 7 1 12 17 5 8 6 2 14 13 10 9
18 2 10 1 8 12 15 9 7 5 6 11 13 16 17 14 4 3
15 7 9 1 6 13 2 10 11 4 3 8 18 12 5 14 16 17
4 7 14 3 17 16 6 11 9 13 10 2 18 12 5 1 8 15
2 1 4 12 9 7 16 13 8 11 6 17 5 14 18 3 15 10
18 13 17 14 1 15 5 12 11 16 2 6 7 3 10 9 4 8
18 7 4 14 9 13 15 6 12 17 2 10 11 3 16 8 5 1
17 14 9 13 1 5 8 18 11 2 15 7 16 12 10 4 6 3
5 13 10 12 14 11 8 16 4 1 7 9 6 18 2 3 17 15
13 12 6 8 5 14 9 11 3 7 10 2 16 1 4 18 17 15
3 11 18 1 10 17 8 16 15 13 12 4 5 9 14 6 2 7
6 18 16 4 5 9 14 3 13 1 10 8 11 2 17 7 12 15
17 5 13 2 10 14 15 4 6 3 16 7 12 8 18 11 1 9
4 11 7 9 13 17 8 12 6 3 14 1 5 18 16 10 15 2
18 3 17 5 6 1 15 9 11 2 14 7 10 13 4 16 8 12
8 1 3 2 7 10 13 4 9 18 5 12 15 16 11 6 14 17
15 7 14 5 10 13 4 2 12 16 11 9 1 18 6 3 8 17
4 11 16 18 12 6 5 2 13 7 14 3 8 10 1 17 9 15
8 5 3 9 13 16 17 6 18 10 7 15 14 2 1 12 11 4
16 8 6 11 7 18 9 15 4 10 1 17 13 3 5 12 14 2
8 1 4 10 18 12 14 11 9 7 15 3 16 5 17 2 6 13
9 13 5 3 12 18 15 16 2 11 4 1 7 6 14 10 17 8
2 3 1 15 9 17 13 18 6 10 4 12 8 5 16 11 7 14
16 17 18 14 6 7 3 13 11 15 1 9 12 4 8 5 2 10
10 16 1 6 5 15 11 9 12 17 13 8 2 18 4 14 3 7
14 11 7 17 12 9 1 16 6 8 10 2 5 18 3 15 4 13
1 2 7 6 16 11 8 14 3 15 17 9 10 13 12 4 5 18
12 7 14 2 4 9 1 11 13 17 3 16 15 10 8 6 18 5
17 6 10 2 9 18 11 4 8 3 7 15 16 13 5 14 12 1

18
Charity Lawson
Hannah Dorfman
Clare Brown
Becca Brown
Becca Bristowe
Clayton Luyendyk
Joey Kufrin
Sean Crawley
Michelle Dorfman
Emily Soules
Matt Fletcher
Charity James
Colton Windey
Zach Lowe
Emily Higgins
Chris Graziadei
Gabby Lowe
Joey James
18 11 14 17 7 15 13 10 4 3 8 16 12 6 9 5 1 2
17 12 8 10 2 1 5 7 18 13 11 16 3 14 9 15 4 6
17 10 2 6 5 16 18 14 9 11 8 4 1 15 7 13 12 3
13 12 14 9 10 2 5 4 17 18 8 15 6 1 16 7 3 11
14 3 17 13 6 4 5 2 12 11 9 1 7 8 15 18 16 10
9 6 1 16 13 7 2 10 17 15 14 3 8 4 5 11 18 12
6 2 5 3 15 13 17 11 8 16 12 10 7 1 18 4 14 9
17 11 5 4 9 3 18 10 2 1 16 7 6 13 8 12 15 14
5 17 13 9 14 7 10 6 11 4 15 16 1 12 3 2 8 18
7 11 6 14 4 16 17 9 8 15 1 3 10 5 2 13 18 12
8 12 15 17 14 9 7 6 10 16 5 2 1 13 4 3 11 18
15 2 11 12 5 9 6 16 14 17 7 8 1 3 18 10 13 4
6 3 12 13 14 9 1 15 5 2 7 8 10 17 18 16 4 11
9 10 6 5 2 15 17 3 4 8 12 14 1 16 11 13 7 18
3 17 4 10 14 9 8 1 7 15 18 12 16 6 13 5 11 2
6 10 12 9 7 11 3 13 8 14 2 1 17 18 15 4 16 5
15 10 6 2 1 4 13 9 7 12 17 16 5 3 14 11 8 18
10 13 2 6 14 8 1 5 18 3 7 15 12 16 9 11 17 4
4 11 18 6 12 5 16 17 13 15 9 2 14 1 10 7 3 8
1 5 4 2 16 10 3 18 8 11 13 15 6 14 7 12 9 17
16 10 3 14 18 9 12 17 5 4 13 2 6 8 15 1 7 11
2 16 18 8 17 4 13 1 10 5 14 3 9 15 6 7 12 11
1 5 15 2 18 8 6 14 11 3 10 4 9 7 13 16 17 12
5 14 4 7 10 8 15 1 17 2 12 3 16 6 18 11 9 13
15 16 1 18 9 3 17 10 6 11 12 4 13 8 2 14 7 5
7 8 5 13 3 14 10 15 12 18 16 2 6 9 17 4 11 1
1 15 11 7 5 17 8 12 3 13 10 9 18 2 6 14 16 4
17 1 3 7 16 15 8 9 4 13 12 6 10 5 11 18 14 2
10 11 7 1 8 18 9 5 4 17 15 12 6 3 2 13 16 14
16 4 8 15 2 6 9 11 12 5 18 14 10 13 1 7 17 3
15 7 6 16 13 3 8 9 12 5 4 1 11 10 18 14 2 17
7 10 2 4 18 13 16 8 11 9 3 5 17 6 15 14 1 12
6 17 9 11 1 12 18 5 15 3 16 7 4 14 2 10 13 8
14 16 17 12 5 15 3 18 11 8 2 6 4 1 9 13 7 10
1 12 3 13 8 2 14 17 9 7 11 16 18 6 15 10 4 5
8 14 3 15 1 5 6 16 13 7 17 11 12 4 2 18 9 10
6 9 8 13 5 15 16 7 10 11 1 18 2 4 17 3 14 12

4
Sean Windey
Brad Young
Ben Brown
Ashley Lindsay
4 2 1 3
4 1 2 3
2 3 1 4
4 3 1 2
3 4 1 2
2 3 1 4
1 3 4 2
4 3 1 2
1 3 2 4
4 3 2 1
3 1 4 2
3 2 4 1
3 1 4 2
1 4 3 2
2 1 4 3
2 1 4 3
3 4 1 2
3 1 4 2
4 3 1 2
1 3 4 2
2 1 4 3
3 2 1 4
3 4 2 1
3 4 2 1
1 2 4 3
1 4 3 2
3 2 1 4
3 4 1 2
2 1 3 4
4 2 3 1
2 3 1 4
4 2 3 1
3 1 2 4
1 3 4 2
4 3 2 1
4 1 2 3
2 3 1 4
3 4 1 2
2 3 1 4

1
Clare Adams
1

16
Nick Fletcher
Brad Graziadei
Charity Lawson
Peter Maynard
Colton Hartsock
Ben Brown
Joey James
Charity Adams
Sean Soules
Matt Lawson
Arie Soules
Zach Graziadei
Matt Fletcher
Rachel Kufrin
Sean Crawley
Nick Dorfman
16 14 12 9 7 15 2 1 8 3 13 4 10 5 11 6
16 11 9 3 6 5 7 12 13 4 14 10 8 1 15 2
13 3 9 15 14 5 12 2 8 1 16 10 6 11 7 4
5 4 13 12 11 15 9 1 6 14 10 8 7 3 16 2
15 2 9 14 4 5 7 16 10 11 13 1 12 8 3 6
1 4 5 3 7 2 16 9 11 12 15 8 10 13 6 14
12 7 13 8 9 15 11 10 3 16 6 5 4 14 1 2
15 16 4 13 7 9 11 10 2 12 6 8 1 5 3 14
14 10 12 15 4 11 6 1 13 7 9 3 5 16 8 2
10 6 8 9 11 14 5 13 3 4 2 12 15 16 1 7
15 6 1 11 2 10 12 16 8 7 4 13 5 3 14 9
5 2 12 8 11 10 4 15 1 16 6 9 7 3 14 13
10 7 4 2 13 1 6 11 8 9 12 16 14 5 15 3
4 12 13 1 15 10 9 16 2 7 11 5 3 6 14 8
6 14 11 10 13 8 7 4 16 9 15 3 5 1 12 2
5 4 7 14 11 15 6 1 8 2 9 10 13 12 16 3
14 5 8 3 10 12 13 6 2 15 11 1 7 9 4 16
14 5 16 10 2 9 12 15 1 11 13 6 8 3 4 7
9 14 15 2 12 5 13 4 11 1 10 8 6 3 16 7
5 4 10 16 3 1 15 11 9 13 8 14 12 6 7 2
15 4 6 14 3 7 13 8 12 10 2 5 16 1 11 9
12 4 7 10 1 2 14 16 13 9 3 6 8 11 5 15
15 7 13 6 14 12 11 2 3 9 8 4 10 16 1 5
14 3 9 6 15 10 5 8 7 11 16 13 2 4 12 1
7 2 13 11 12 3 5 16 9 6 4 8 14 15 1 10
15 9 8 6 1 12 7 2 13 4 16 10 5 11 14 3
12 16 1 13 8 6 2 7 3 9 15 10 5 11 14 4
16 6 5 11 14 3 10 7 12 9 8 2 1 15 13 4
4 3 14 1 13 7 9 2 8 5 16 12 11 6 15 10
9 11 8 12 13 3 6 7 15 14 5 4 1 2 10 16
14 5 2 8 11 7 4 6 9 3 10 13 16 15 12 1
6 2 1 8 15 5 4 16 3 11 10 7 12 13 14 9
13 7 14 9 4 5 6 12 1 8 11 3 15 10 2 16
12 16 5 2 15 4 1 11 9 13 6 3 8 7 14 10
5 16 4 15 13 2 3 1 7 8 10 9 12 14 11 6
12 3 4 16 8 6 10 5 7 14 1 13 9 15 2 11

2
Tayshia Graziadei
Joey Thurston
1 2
2 1
2 1
2 1
2 1
2 1
1 2
1 2
2 1
2 1
2 1
1 2
1 2
2 1
2 1
2 1
1 2
1 2
2 1
1 2
1 2
1 2
1 2
1 2
1 2
2 1
2 1
2 1
2 1

10
Jojo Lowe
Andi Bristowe
Chris Windey
Ben Young
Clayton Windey
Zach Echard
Emily Maynard
Rachel Luyendyk
Chris Graziadei
Colton Windey
4 10 1 9 3 5 7 2 8 6
7 2 4 10 8 5 9 1 3 6
5 1 8 2 9 3 7 6 4 10
1 6 10 5 4 2 3 8 7 9
7 3 6 9 8 4 5 2 10 1
7 4 5 2 10 6 3 8 9 1
2 7 3 6 9 8 1 5 4 10
10 2 6 4 5 7 9 8 3 1
8 5 6 2 1 7 3 10 9 4
2 8 6 4 7 10 1 5 9 3
10 9 2 7 4 5 3 1 8 6
4 7 10 2 3 8 5 6 1 9
10 7 5 3 4 6 2 1 9 8
10 1 8 5 9 2 3 7 6 4
4 3 9 8 2 6 1 10 7 5
6 8 3 10 5 9 2 4 1 7
3 7 6 2 9 4 5 8 1 10
7 1 5 4 6 3 8 10 9 2
2 10 1 7 6 8 3 9 4 5
4 10 1 8 5 9 7 6 2 3
6 4 9 7 10 5 3 2 8 1
5 4 1 3 10 6 7 9 2 8

18
Gabby Hebert
Clayton Shallcross
Sean Hebert
Ben Luyendyk
Rachel Hartsock
Becca Hartsock
Nick Adams
Matt Recchia
Clare Crawley
Katie Viall
Kaitlyn James
Colton Recchia
Jojo Weber
Emily Brown
Desiree Flajnik
Michelle Viall
Clayton Lindsay
Katie Fletcher
16 11 15 5 8 17 12 13 6 14 9 1 7 2 10 4 3 18
3 14 8 15 4 7 18 10 11 2 16 13 17 6 9 5 1 12
7 14 3 10 18 16 13 8 9 17 12 6 2 15 1 4 5 11
15 9 18 7 14 6 17 8 10 16 12 3 13 2 5 1 4 11
10 14 15 7 11 13 12 2 3 5 8 1 17 4 16 6 9 18
2 15 10 9 12 13 18 16 4 8 7 1 6 17 11 3 5 14
6 10 1 9 5 8 13 12 14 16 3 7 2 11 17 4 15 18
11 18 4 9 14 3 12 6 1 17 15 16 7 8 2 10 5 13
14 9 5 3 7 11 4 1 15 16 17 6 10 12 2 13 18 8
7 18 12 15 9 13 16 14 10 8 2 6 17 3 1 4 11 5
12 10 11 5 2 18 9 17 1 13 8 4 7 14 15 16 6 3
3 2 4 7 8 17 14 9 11 15 18 5 13 10 12 16 1 6
17 4 12 5 7 1 9 14 2 11 16 15 10 13 6 8 3 18
7 12 15 10 4 9 5 8 18 14 1 17 11 6 13 16 2 3
1 4 7 10 11 5 17 15 18 3 9 14 2 8 16 13 12 6
5 3 10 8 16 13 18 17 15 4 1 7 9 2 14 11 12 6
12 5 1 15 18 14 11 13 3 9 17 16 10 7 4 6 2 8
7 16 9 3 1 2 5 17 15 14 8 4 12 10 11 18 13 6
9 15 6 3 13 16 17 1 7 4 18 10 12 5 8 2 14 11
17 12 13 11 4 1 5 10 3 18 16 8 7 15 6 2 14 9
6 14 9 10 16 17 11 8 3 1 7 5 4 12 18 15 13 2
11 3 10 4 2 5 13 18 12 17 16 8 7 6 1 14 9 15
4 8 11 3 1 15 2 5 17 12 10 18 14 7 6 9 13 16
4 7 8 5 3 2 17 16 1 18 6 13 15 9 12 10 11 14
9 11 14 3 17 10 13 7 1 8 2 18 6 12 4 16 5 15
13 11 8 9 18 10 5 17 4 1 14 12 7 3 16 15 2 6
13 10 18 8 1 9 12 11 7 3 16 6 2 4 17 15 14 5
8 2 5 9 11 15 6 12 14 1 4 3 18 17 13 16 7 10
5 12 4 14 13 17 7 11 3 9 1 10 16 8 18 6 2 15
13 6 9 15 18 4 5 12 7 16 10 1 17 8 2 11 3 14
10 7 9 14 12 17 2 11 4 1 6 16 13 3 5 18 15 8
13 17 11 18 12 16 10 14 6 4 15 3 1 7 8 9 5 2
6 8 11 2 14 12 10 16 9 4 13 5 15 17 18 3 1 7
18 6 10 9 4 14 1 16 12 11 2 7 17 8 3 15 5 13
6 13 18 11 17 4 8 5 12 15 2 10 1 9 16 3 14 7
15 7 11 5 1 8 13 12 18 17 14 2 6 4 10 16 3 9
9 12 14 17 18 11 7 1 15 16 5 8 13 4 10 3 6 2
17 5 8 6 4 15 16 9 11 13 2 12 7 18 1 14 10 3
17 16 2 7 13 9 11 10 3 14 5 4 15 18 8 6 12 1
16 15 9 18 13 14 11 3 17 5 12 1 4 7 10 2 6 8
18 6 4 10 15 1 3 12 16 2 5 8 17 9 11 13 7 14
9 14 16 12 4 13 10 2 7 18 11 6 8 17 3 15 1 5
8 11 3 10 5 7 6 18 17 14 13 16 15 9 12 1 2 4
12 14 9 5 3 7 2 8 6 4 13 18 15 17 10 1 11 16
15 14 17 2 7 16 6 5 18 3 9 13 1 11 8 10 12 4
1 6 5 2 14 15 4 16 18 17 11 12 13 8 9 3 7 10
11 18 13 7 12 9 2 6 15 5 10 3 17 1 4 14 8 16
10 7 3 1 8 4 14 17 18 12 9 16 6 13 5 15 11 2
12 4 13 7 8 10 6 18 3 1 9 17 15 14 11 2 5 16
14 5 18 3 6 2 9 4 1 10 11 15 12 13 16 17 7 8

16
Jojo Lowe
Rachel Adams
Colton Hartsock
Brad Bristowe
Gabby Viall
Katie Maynard
Nick Brown
Zach Brown
Arie Viall
Ashley Shallcross
Colton Shallcross
Emily Fletcher
Brad Maynard
Kaitlyn Viall
Emily Lawson
Peter Lindsay
2 1 14 12 15 8 6 5 9 13 16 7 11 4 10 3
3 4 15 9 14 12 10 7 1 13 11 16 5 2 8 6
7 9 13 16 8 2 4 1 12 11 10 15 5 14 3 6
13 5 10 2 1 8 3 14 12 9 6 4 11 15 7 16
12 10 4 15 13 1 11 16 14 9 7 6 8 3 2 5
7 14 5 6 4 10 1 16 3 12 15 9 11 2 8 13
5 6 15 1 4 9 11 3 8 2 14 16 12 7 13 10
8 9 1 13 14 16 12 11 4 3 6 15 10 5 2 7
13 14 3 8 5 1 11 2 10 9 7 6 16 12 4 15
5 14 13 1 4 8 7 15 2 12 9 16 10 11 3 6
12 3 7 5 8 4 10 2 6 9 15 13 16 1 11 14
7 8 5 1 15 14 3 13 11 4 2 12 10 6 16 9
7 11 1 12 2 15 14 4 10 8 9 3 5 13 16 6
3 9 16 15 2 5 11 7 14 6 8 4 13 1 10 12
15 13 6 4 11 2 1 16 9 3 8 12 7 5 14 10
15 2 1 3 16 12 5 7 10 13 6 8 9 4 14 11
5 6 14 9 7 12 1 13 16 3 15 2 8 4 10 11
9 14 8 12 4 6 7 13 10 15 2 16 11 3 5 1
4 13 9 2 6 8 11 5 7 15 3 1 16 12 10 14
10 12 16 2 7 15 9 5 6 13 4 3 11 1 14 8
15 8 11 10 1 2 12 4 7 14 3 5 9 6 13 16
10 14 15 2 9 8 1 7 3 11 16 12 6 4 13 5
1 12 6 7 14 4 13 16 11 8 10 15 2 5 9 3
3 2 7 15 12 10 8 9 4 1 5 6 14 13 16 11
1 5 14 8 2 16 7 10 6 15 4 11 3 9 12 13
5 6 2 14 4 15 11 7 13 10 8 1 16 12 3 9
2 6 10 14 1 11 13 16 7 9 3 15 5 8 12 4
3 15 16 1 2 12 5 9 4 6 10 14 7 11 8 13
15 9 8 1 7 12 4 14 3 5 2 6 11 16 10 13
9 12 14 16 15 7 2 1 13 8 3 6 11 10 5 4
3 15 5 16 13 6 10 8 7 1 12 9 11 14 4 2
13 8 7 11 1 14 2 5 10 6 16 3 15 9 12 4
16 3 6 4 8 14 2 15 9 12 5 1 10 7 13 11

1
Joey Shallcross
1
1
1
1
1
1
1
1
1
1
1
1
1
1
1
1
1
1
1
1
1
1
1
1
1
1
1
1
1
1
1
1
1
1
1

9
Zach Crawley
Becca Fletcher
Ashley Weber
Peter Maynard
Rachel Lowe
Sean Dorfman
Katie Luyendyk
Gabby Maynard
Ashley Fletcher
7 6 8 1 5 4 9 3 2
3 9 4 8 7 2 5 6 1
5 6 7 4 9 3 2 8 1
7 8 2 5 9 3 1 6 4
3 1 2 7 8 5 4 6 9
6 9 4 2 7 3 5 1 8
1 3 2 4 6 5 8 9 7
9 4 6 2 8 5 3 1 7
3 5 1 2 6 9 8 4 7
3 6 4 1 2 5 8 9 7
3 5 8 9 6 2 7 4 1
4 6 8 7 3 2 9 5 1
8 6 1 3 4 5 7 9 2
8 3 7 4 1 2 9 6 5
5 4 3 9 1 8 6 7 2
9 5 6 8 7 1 2 4 3
6 4 7 8 9 5 1 3 2
5 3 7 8 2 6 1 4 9
4 7 2 8 5 9 6 3 1
6 2 4 1 8 5 9 7 3
6 3 5 9 2 1 4 8 7
7 8 2 3 4 1 5 6 9
6 4 7 9 3 1 2 5 8
4 3 5 8 9 1 2 6 7
7 5 6 4 8 2 1 3 9
9 5 4 6 7 8 3 2 1
8 5 1 9 6 2 3 7 4
7 3 2 4 6 8 5 1 9
4 7 1 6 9 5 8 2 3
3 8 7 1 6 4 2 9 5
4 8 2 6 9 5 1 7 3
4 5 8 3 9 6 2 7 1
5 9 8 6 4 1 3 2 7
1 5 9 6 7 3 2 4 8
2 3 6 4 7 9 1 8 5
5 1 6 3 7 9 8 4 2
7 2 8 5 9 3 4 1 6
8 4 7 5 9 3 1 6 2
5 4 1 9 6 3 7 2 8
6 8 1 3 5 4 7 9 2
7 4 3 2 8 1 6 5 9
3 6 8 7 4 5 2 1 9
6 2 3 9 4 1 8 7 5
8 3 1 2 7 4 6 5 9
3 1 4 7 6 8 2 5 9
1 8 5 4 3 2 9 7 6
6 5 1 2 7 4 8 9 3
9 6 8 7 1 2 5 4 3
9 1 6 5 3 2 7 4 8
8 4 2 5 6 7 3 1 9
7 6 5 8 3 1 2 4 9
4 2 9 6 5 8 7 1 3
3 2 7 6 4 9 1 8 5
5 7 1 2 8 4 6 9 3
1 5 7 9 4 3 6 8 2
6 8 5 4 2 7 3 1 9
5 6 3 8 9 1 7 2 4
6 3 8 4 1 7 2 5 9
1 6 3 2 8 5 7 9 4
2 1 6 9 3 4 7 8 5

18
Clare Weber
Zach Underwood
Jojo Underwood
Sean Windey
Joey Hartsock
Matt Young
Colton Bristowe
Clare Brown
Hannah Flajnik
Becca Weber
Becca Lowe
Andi Hebert
Rachel James
Colton Young
Michelle Adams
Colton Luyendyk
Desiree Crawley
Rachel Underwood
2 10 3 13 11 12 8 18 5 1 14 4 6 7 16 15 17 9
13 15 1 9 17 10 6 3 4 11 16 7 8 18 12 14 5 2
13 17 18 4 3 15 9 5 1 2 6 11 12 7 14 8 10 16
17 15 14 1 2 8 13 11 12 5 3 10 6 16 18 7 9 4
2 3 4 5 14 17 16 9 8 13 18 11 6 1 12 15 10 7
7 18 2 1 10 11 8 14 3 4 13 6 17 9 15 16 5 12
6 3 1 9 2 7 12 13 11 17 10 4 8 16 15 5 18 14
3 6 2 7 12 17 11 9 13 1 16 10 4 15 14 5 8 18
2 8 6 9 16 11 10 5 3 13 15 14 18 12 7 1 17 4
17 15 14 12 13 3 11 5 6 16 1 7 10 9 2 8 4 18
18 10 17 1 13 5 16 2 7 6 9 3 11 12 8 14 15 4
17 15 8 11 9 18 5 16 10 13 1 3 4 6 14 2 12 7
3 5 13 16 14 9 8 12 2 18 17 15 1 11 7 4 10 6
6 15 5 17 11 18 1 10 16 4 12 2 7 14 8 13 3 9
13 3 17 11 12 14 2 7 4 6 15 16 18 9 1 8 10 5
18 17 4 9 7 3 14 16 1 5 13 15 6 8 12 2 11 10
6 12 10 13 5 18 14 7 9 4 1 17 15 2 11 16 8 3
15 2 3 12 17 18 13 16 10 14 1 6 5 4 8 11 7 9
15 11 13 14 12 8 1 6 5 10 4 17 9 16 3 2 7 18
15 4 9 10 12 6 11 18 13 2 5 7 16 17 14 8 1 3
18 8 11 7 6 14 4 1 10 9 15 16 2 5 3 13 17 12
8 2 9 16 6 14 10 7 5 15 12 18 4 17 1 13 11 3
15 12 7 16 4 5 13 18 6 11 2 10 14 8 17 3 9 1
3 13 5 15 7 8 9 16 14 17 10 4 18 12 11 1 6 2
18 13 16 3 8 5 7 12 17 10 4 1 2 14 11 9 15 6
12 2 14 15 3 10 7 17 6 1 11 9 4 18 5 13 8 16
17 5 18 14 12 9 3 2 6 4 7 1 10 13 8 11 15 16
17 14 15 11 6 10 13 18 16 12 3 2 4 9 5 7 8 1
5 10 18 12 17 9 15 14 16 11 3 4 8 6 1 2 7 13
3 2 9 14 16 4 1 11 13 6 8 18 5 7 10 12 17 15
18 14 3 1 16 7 12 4 11 13 15 5 2 6 10 17 9 8
15 12 1 17 6 14 3 5 13 18 4 16 2 10 8 9 11 7
7 2 1 12 16 14 9 6 10 3 5 18 11 13 4 15 17 8
18 16 6 9 2 10 17 3 7 14 4 12 1 11 5 8 15 13
2 11 18 15 4 1 6 17 16 12 8 13 7 9 10 14 3 5
10 14 5 9 12 8 13 3 15 2 18 1 16 6 11 4 17 7
7 12 6 8 1 14 2 15 9 17 11 10 18 5 4 16 3 13
3 1 14 6 11 7 8 2 15 13 10 12 16 17 18 4 9 5
15 1 17 18 8 10 5 7 13 4 12 11 16 9 2 6 3 14
17 15 8 5 16 2 3 13 7 11 9 10 12 4 1 14 18 6
16 15 2 5 13 7 8 11 10 17 14 18 9 6 4 1 12 3
9 12 14 3 1 6 15 5 8 7 10 17 13 4 11 16 2 18

5
Clayton Dorfman
Sean Viall
Becca Viall
Ashley Flajnik
Chris James
4 5 3 2 1
2 5 4 3 1
1 5 3 4 2
1 2 4 3 5
5 4 1 2 3
2 4 3 1 5
4 2 1 5 3
3 1 2 5 4
1 4 2 3 5
2 5 3 1 4
1 4 3 2 5
2 4 5 3 1
2 4 3 1 5
3 4 2 5 1
2 1 4 3 5
4 3 1 5 2
5 1 4 2 3
3 1 4 5 2
4 1 5 2 3
5 4 1 3 2
4 3 5 2 1
1 5 2 4 3
3 2 1 5 4
3 4 1 5 2
2 1 5 4 3
3 5 4 1 2
5 1 2 4 3
1 5 3 4 2
3 2 1 5 4
3 2 1 5 4
5 1 3 4 2
4 2 3 1 5
3 5 2 4 1
1 4 5 2 3
4 2 5 3 1
2 3 5 1 4
3 2 4 5 1
1 5 4 2 3
5 1 3 2 4
2 4 1 5 3
5 2 1 4 3
1 3 5 2 4
5 1 2 4 3
3 2 5 1 4
1 2 4 3 5
4 3 5 2 1
1 4 5 2 3
2 5 1 3 4

7
Andi Lawson
Arie Fletcher
Peter Fletcher
Zach Graziadei
Hannah Underwood
Peter Windey
Chris Lindsay
7 4 1 6 3 5 2
5 7 6 2 1 4 3
4 6 5 1 7 3 2
2 7 1 5 4 3 6
1 3 5 7 6 4 2
1 2 6 7 3 5 4
7 5 4 2 6 3 1
1 4 7 3 5 6 2
3 1 4 2 6 5 7
6 1 3 4 7 2 5
1 2 6 7 3 5 4
3 6 1 5 2 7 4

9
Nick Luyendyk
Sean Thurston
Clare Maynard
Peter Soules
Michelle Maynard
Sean Thurston
Katie Graziadei
Hannah Viall
Kaitlyn Adams
7 6 3 4 1 2 9 5 8
2 5 4 1 7 8 3 9 6
9 6 2 4 8 7 1 3 5
5 7 2 1 6 9 3 8 4
8 4 5 9 2 6 1 3 7
7 8 6 4 2 1 3 9 5
3 5 7 6 9 4 2 8 1
5 9 2 7 4 1 6 3 8
1 8 4 6 2 9 5 7 3
7 9 6 3 2 5 1 4 8
8 4 2 5 9 6 7 3 1
3 2 1 8 6 9 4 5 7
9 8 7 2 6 5 1 4 3
8 6 4 9 3 7 1 5 2
7 8 5 1 6 3 4 2 9
1 5 3 2 7 6 4 9 8
3 9 4 8 6 2 1 5 7
8 7 4 1 6 5 2 3 9
4 9 5 8 6 7 1 2 3
1 8 6 4 2 3 5 7 9
4 6 5 7 1 3 9 8 2

14
Arie Viall
Desiree Bristowe
Michelle Thurston
Hannah Echard
Chris Echard
Michelle Higgins
Peter Higgins
Peter Brown
Zach Luyendyk
Sean James
Emily Higgins
Colton Lowe
Brad Lawson
Sean Adams
5 4 3 2 13 7 8 10 12 14 11 1 9 6
8 12 11 10 5 6 4 7 3 1 9 14 2 13
2 4 11 14 7 8 10 6 1 12 9 3 5 13
11 13 5 12 8 4 6 2 10 1 14 7 3 9
3 12 9 14 6 7 13 2 4 5 11 1 10 8
7 4 11 13 14 12 8 2 1 6 5 9 3 10
1 10 12 14 11 13 9 8 2 6 3 7 4 5
11 4 2 3 13 7 6 5 14 10 9 1 8 12
7 4 2 1 12 13 9 3 11 10 14 5 6 8
6 1 11 12 8 2 7 10 13 9 3 4 5 14
13 5 3 7 12 6 2 1 10 8 11 4 9 14
2 6 3 1 14 13 10 12 4 9 11 5 8 7
6 10 9 5 14 12 3 2 13 7 1 11 4 8
9 8 1 12 4 7 13 6 5 2 3 11 14 10
5 1 2 12 6 10 4 9 7 3 11 14 8 13
9 7 12 2 5 14 4 1 6 8 13 10 3 11
14 1 13 9 11 2 5 12 7 6 3 8 4 10
7 8 1 6 2 10 5 9 12 14 3 4 11 13
9 10 3 14 2 8 7 5 6 1 11 12 4 13
5 1 4 8 7 10 6 3 2 14 12 9 11 13
9 10 3 11 1 12 14 5 4 6 2 8 13 7
11 3 5 6 10 4 2 12 14 13 9 1 8 7
4 3 10 11 7 8 1 14 13 6 5 9 12 2
11 6 9 13 3 7 10 2 5 12 14 1 4 8
8 5 10 3 7 1 9 14 4 11 6 12 2 13
4 11 13 1 9 10 14 12 6 7 8 3 5 2
7 14 9 4 2 11 6 12 1 5 13 3 10 8
6 10 13 5 12 14 1 9 2 11 4 8 3 7
8 13 5 12 3 7 14 1 4 11 2 10 6 9
5 11 2 1 10 8 7 12 4 14 6 9 3 13
14 10 2 1 9 13 7 5 3 11 8 4 12 6
11 13 5 6 14 9 3 2 8 10 4 1 7 12

18
Tayshia Young
Clayton Crawley
Emily Crawley
Gabby Hartsock
Zach Flajnik
Gabby Lawson
Becca Young
Gabby Bristowe
Brad Flajnik
Jojo Crawley
Joey Kufrin
Ben Fletcher
Rachel Viall
Desiree Underwood
Chris Hartsock
Katie Soules
Chris Brown
Clare Young
15 10 5 7 2 9 1 4 16 18 17 12 11 8 13 14 3 6
18 14 9 10 2 7 16 8 13 15 3 1 6 11 17 12 4 5
5 6 8 13 14 10 17 16 11 12 15 3 18 1 4 7 9 2

14
Matt Soules
Colton Viall
Katie Adams
Sean Weber
Nick Viall
Katie Adams
Sean Windey
Sean Maynard
Arie Flajnik
Tayshia Fletcher
Nick Hebert
Ben Luyendyk
Katie Maynard
Sean Fletcher
13 5 10 9 3 7 12 2 4 14 1 6 8 11
6 5 14 4 2 11 12 8 9 10 3 7 1 13
13 8 12 9 2 11 4 3 1 5 14 7 10 6
9 7 10 3 1 14 4 6 12 11 8 2 13 5
10 6 4 3 14 13 2 7 11 8 12 1 9 5
12 4 8 2 14 6 11 5 10 3 9 1 13 7
2 13 6 11 12 5 10 7 8 1 14 9 3 4
4 9 6 12 3 8 7 1 5 11 10 2 13 14
7 8 14 4 11 3 12 10 1 9 6 13 5 2
1 6 9 11 14 7 10 4 8 5 2 12 13 3
11 4 10 13 3 9 2 1 6 14 7 12 8 5
3 11 12 13 4 7 6 2 8 10 14 9 1 5
10 6 12 3 2 11 1 5 9 7 8 14 13 4
3 8 6 1 9 7 2 13 12 5 4 14 10 11
5 10 12 14 11 9 4 3 6 2 8 7 13 1
10 7 5 1 3 12 14 6 11 8 2 4 13 9
6 11 13 5 1 8 2 4 9 10 3 7 14 12
12 6 10 14 11 1 5 3 8 13 9 7 2 4
5 7 13 8 4 3 12 11 1 10 6 14 9 2
8 2 6 4 10 14 7 9 12 1 3 11 5 13
10 1 4 7 11 9 14 2 13 8 12 3 6 5
7 6 4 11 1 13 5 12 3 2 9 8 10 14
13 9 2 8 7 1 12 10 3 5 14 4 11 6
5 1 11 8 2 3 4 6 7 10 13 12 14 9
12 11 2 7 13 14 10 8 9 4 3 6 1 5
9 12 1 6 7 5 8 14 10 13 4 3 2 11
14 12 11 6 1 13 9 8 10 7 3 5 2 4
1 3 9 6 10 4 14 7 5 12 11 13 2 8
12 14 2 7 11 6 10 3 5 13 4 8 1 9
3 10 2 4 5 12 8 13 1 9 6 14 11 7
7 4 8 10 12 3 14 1 13 5 9 11 2 6
11 8 4 6 1 14 9 2 12 10 7 3 13 5
1 6 12 4 8 11 14 3 13 5 10 7 9 2
5 11 13 2 7 1 8 10 9 6 12 4 3 14

5
Becca Hartsock
Charity Lowe
Chris Viall
Ben Crawley
Ashley Young
3 2 4 5 1
1 4 2 3 5
3 5 2 1 4
2 3 4 5 1
2 3 4 5 1
1 5 3 2 4
2 1 4 3 5
2 3 4 1 5
3 4 5 1 2
3 2 5 4 1
1 4 3 5 2
1 5 2 3 4
4 5 1 3 2
2 1 4 5 3
5 3 4 1 2
2 4 1 3 5
3 5 1 4 2
1 2 3 5 4
5 2 1 4 3

8
Becca Graziadei
Charity Dorfman
Michelle Luyendyk
Michelle Adams
Clare Dorfman
Sean Higgins
Emily Brown
Nick Maynard
7 8 1 5 2 6 3 4
5 1 3 8 6 2 4 7
1 6 5 4 2 8 3 7
7 2 4 3 8 5 1 6
5 3 6 7 8 1 2 4
8 6 1 7 4 3 2 5
8 1 3 2 4 6 7 5
8 6 5 1 4 3 2 7
4 6 1 2 8 5 7 3
6 4 3 1 7 2 8 5
3 6 7 5 4 1 2 8
2 8 1 7 3 6 4 5
1 2 8 5 6 3 7 4

3
Clare Lowe
Desiree Flajnik
Clayton Hartsock
3 2 1
2 3 1
2 3 1
2 3 1
2 1 3
3 1 2
1 3 2
3 1 2
1 3 2
3 1 2
1 2 3
2 3 1
2 3 1
2 1 3
1 3 2
2 1 3
1 3 2
2 3 1
3 1 2
1 2 3
2 3 1
3 1 2
1 2 3
1 3 2
3 2 1
2 3 1
3 1 2
2 3 1
1 3 2
1 2 3
2 1 3
1 2 3
1 2 3
1 3 2
3 1 2
1 3 2
1 2 3
1 3 2
1 2 3
1 2 3
2 3 1
1 3 2
2 3 1
2 3 1
3 1 2
2 3 1
2 3 1
2 3 1
1 3 2
1 3 2
1 3 2
3 2 1
3 1 2

12
Clare Maynard
Zach Young
Rachel Adams
Jojo Weber
Michelle Graziadei
Jojo Underwood
Brad Hartsock
Rachel Bristowe
Tayshia Lowe
Ben Fletcher
Clare Maynard
Andi Young
1 5 2 7 11 4 6 3 8 10 12 9
6 11 1 4 12 8 5 7 3 2 10 9
6 8 9 4 3 11 10 1 12 5 7 2
3 6 8 7 11 12 10 2 1 5 9 4
12 7 9 10 11 6 2 5 8 3 1 4
12 7 4 8 5 1 2 10 6 9 11 3
3 11 12 1 4 5 2 6 9 8 7 10
7 5 4 1 12 2 10 8 11 6 3 9
4 12 6 11 9 1 3 5 10 7 8 2
10 1 4 2 11 5 3 7 6 8 9 12
5 7 1 9 11 3 2 12 6 8 4 10
5 1 4 12 6 10 7 2 3 8 9 11
10 12 3 9 11 7 1 6 2 4 8 5
6 9 1 10 4 7 12 11 8 5 2 3
1 7 4 6 12 10 11 8 5 9 3 2
1 7 11 9 8 5 4 2 10 3 12 6
12 4 8 1 2 11 3 6 9 7 5 10
8 2 9 5 7 1 11 10 3 6 4 12
8 10 7 4 3 1 9 12 11 6 2 5
6 8 2 7 1 11 12 10 9 3 4 5
8 1 4 6 12 11 10 9 7 2 3 5
6 4 2 8 11 10 1 7 3 5 9 12
6 9 8 12 1 4 11 5 10 3 7 2
4 8 5 3 10 1 11 7 12 9 6 2
10 8 4 7 2 11 3 12 1 9 5 6
6 2 10 5 9 1 11 12 7 3 8 4
7 3 12 2 9 8 1 11 5 4 10 6
7 5 3 6 2 8 4 12 1 10 11 9
5 1 2 12 8 4 6 10 3 7 11 9
12 9 2 4 11 6 10 5 8 7 1 3
10 4 11 9 2 8 3 1 7 6 12 5
3 4 10 1 11 6 9 2 12 5 7 8
2 3 9 8 11 7 10 4 1 12 6 5
9 1 10 4 11 12 6 7 8 5 2 3
2 1 7 12 3 5 9 6 10 11 4 8
3 6 8 10 5 9 12 1 2 4 7 11
8 9 4 5 12 3 10 6 11 7 2 1
5 6 4 1 7 2 3 12 11 9 8 10
12 4 1 9 2 7 10 5 11 6 8 3
8 7 3 10 4 12 1 5 6 2 11 9
5 4 2 8 9 10 6 3 7 1 12 11
11 5 4 3 6 12 9 1 7 8 10 2
4 8 2 1 9 3 10 5 12 11 6 7
12 4 2 11 6 9 7 5 3 10 8 1
6 7 3 8 1 9 10 12 5 11 4 2
7 2 4 1 8 10 5 11 9 3 6 12

20
Hannah Shallcross
Nick Recchia
Desiree Flajnik
Jojo Adams
Joey Lawson
Sean Maynard
Andi Shallcross
Michelle Hartsock
Arie Weber
Clare Underwood
Michelle Kufrin
Nick Luyendyk
Tayshia Crawley
Desiree Underwood
Becca Maynard
Brad Higgins
Gabby James
Brad Graziadei
Chris Lowe
Ashley Lawson
19 18 14 2 9 3 17 1 15 16 8 5 12 10 20 6 7 13 11 4
16 17 11 8 4 10 15 1 12 20 13 2 14 6 19 18 5 9 7 3
14 5 18 1 13 12 20 17 2 3 8 19 10 15 16 4 7 11 9 6
13 18 4 3 14 19 1 11 17 16 12 7 8 5 6 20 10 9 2 15

11
Desiree Dorfman
Clare Windey
Joey Adams
Andi Dorfman
Clare Underwood
Desiree Bristowe
Nick Higgins
Peter Kufrin
Nick Underwood
Colton Thurston
Zach Brown
5 3 6 1 8 2 10 9 11 7 4
7 10 2 11 3 4 1 8 5 9 6
5 9 11 2 10 4 8 7 1 3 6
4 8 9 11 7 3 1 5 10 2 6
7 1 3 10 4 2 5 8 11 6 9
6 1 10 8 9 7 3 5 11 4 2
10 5 6 7 1 9 4 11 2 8 3
9 8 4 10 2 3 1 6 7 11 5
2 10 1 6 9 4 11 7 5 3 8
4 1 11 2 10 9 3 8 5 7 6
7 8 6 1 2 3 9 5 10 11 4
1 3 8 7 2 11 4 9 5 10 6
3 4 6 7 9 2 11 8 10 1 5
4 2 6 10 7 3 8 5 1 9 11
2 7 3 5 1 9 6 8 11 10 4
2 7 6 1 4 10 8 9 5 3 11
3 7 11 2 6 5 8 4 10 1 9
1 5 3 2 8 7 9 11 4 10 6
4 6 2 7 8 9 11 10 5 1 3

14
Gabby Windey
Michelle Kufrin
Joey Recchia
Becca Viall
Ben Underwood
Charity Fletcher
Peter Hebert
Becca Underwood
Desiree Young
Michelle Thurston
Chris Hartsock
Desiree Underwood
Katie Crawley
Clayton Weber
13 1 2 6 9 8 7 10 11 14 5 4 12 3
1 13 4 10 6 3 5 14 7 12 2 8 9 11
10 11 9 6 12 5 14 3 7 4 13 1 8 2
8 1 5 14 9 12 4 2 10 11 13 6 7 3
4 11 14 2 3 12 8 5 9 7 6 10 1 13
10 8 5 3 9 14 4 12 7 11 2 1 6 13
4 6 1 10 5 14 12 9 8 11 7 2 3 13
9 14 5 12 3 10 2 7 6 4 11 8 1 13
2 1 3 10 9 12 7 6 8 5 14 4 11 13
12 14 4 5 9 8 2 7 10 1 11 13 3 6
5 9 12 6 3 4 7 8 10 13 14 1 11 2
2 8 10 11 4 12 14 5 9 13 6 3 7 1
8 5 13 9 10 11 7 6 3 4 1 12 2 14
9 13 11 6 1 3 4 7 8 14 2 12 5 10
9 7 1 14 5 10 4 2 3 11 12 8 6 13
2 3 9 4 8 6 10 14 12 7 1 11 5 13
11 10 12 5 13 6 7 4 3 2 14 1 9 8
9 13 14 10 3 7 2 12 11 1 8 6 4 5
9 1 14 8 4 11 7 13 6 2 12 3 10 5
2 9 8 1 14 6 11 13 10 7 12 5 3 4
14 12 5 11 2 4 9 1 10 7 8 6 13 3
9 8 1 13 11 2 3 14 5 4 7 10 6 12
9 1 14 5 12 8 3 2 6 4 7 13 10 11
8 6 3 4 14 5 1 2 10 9 11 13 12 7
10 3 1 7 5 11 14 13 8 9 6 4 12 2
9 1 12 2 14 8 6 5 10 7 3 11 4 13
9 1 4 11 8 10 12 5 6 13 7 2 3 14
7 10 14 8 11 9 6 3 1 12 5 2 4 13
13 6 8 4 9 10 7 14 5 1 2 11 12 3
2 7 1 8 13 6 14 3 11 5 9 12 10 4
5 3 4 13 14 8 11 7 12 6 2 1 10 9
4 8 3 14 10 12 11 2 9 7 6 5 13 1
13 3 9 10 8 12 1 6 4 14 11 7 5 2
2 12 5 9 14 13 3 10 8 11 1 4 6 7
4 2 6 12 14 1 9 11 3 5 8 13 10 7
7 11 6 10 13 8 3 14 2 12 5 1 9 4
5 11 7 2 8 6 14 3 13 4 1 12 9 10
9 2 10 3 5 13 6 1 12 7 8 14 4 11
5 9 3 11 4 1 10 7 14 6 13 8 12 2
2 5 10 7 6 4 1 11 3 12 9 8 14 13
5 1 12 11 9 3 7 8 13 2 14 6 10 4
5 11 9 1 7 10 14 2 6 13 12 8 3 4
1 12 10 9 2 8 4 14 3 13 6 11 5 7
3 6 1 4 8 13 10 7 11 9 12 5 2 14
1 11 13 7 10 12 8 3 2 4 14 9 6 5
6 2 14 9 7 12 8 1 5 10 3 13 4 11
7 2 4 9 12 13 11 14 6 1 10 8 3 5
6 1 14 12 10 7 13 4 2 11 9 5 3 8
9 3 14 6 2 7 13 11 8 5 10 4 12 1
2 8 13 9 5 4 6 3 7 11 10 1 12 14
14 11 5 3 4 13 7 10 6 9 8 12 1 2
12 6 4 8 7 9 14 2 5 11 10 13 1 3
12 9 14 2 8 6 11 3 4 13 7 1 5 10
3 4 1 14 8 10 12 5 6 7 13 11 2 9
9 12 8 2 14 5 10 1 11 7 6 13 4 3
6 3 1 10 2 14 4 8 5 13 7 12 9 11
3 2 8 1 6 9 5 4 11 10 7 12 14 13
2 8 10 5 3 9 1 12 7 13 11 6 14 4
14 5 4 10 8 1 6 12 13 11 9 2 3 7
1 9 10 2 14 4 7 8 3 6 12 11 13 5

1
Gabby Recchia
1
1
1
1
1
1
1
1
1
1
1
1
1
1
1
1
1
1
1
1
1
1
1
1
1
1
1
1
1
1
1
1
1
1
1
1
1
1
1

17
Becca Lindsay
Andi Maynard
Emily Lowe
Chris Brown
Arie Adams
Zach Lawson
Andi Dorfman
Arie Graziadei
Desiree Bristowe
Michelle Higgins
Ben Weber
Arie Luyendyk
Chris Lowe
Gabby Hebert
Tayshia Echard
Joey Weber
Katie Thurston
14 4 6 9 7 11 16 5 13 15 12 3 8 10 1 2 17
13 11 12 15 9 5 17 1 8 10 3 6 4 14 16 2 7
4 1 13 17 7 3 8 6 14 11 10 2 12 15 5 16 9
16 11 4 15 3 14 2 12 7 17 8 6 9 1 13 5 10
16 2 1 13 17 9 15 7 5 11 14 3 12 4 10 6 8
11 4 10 14 8 7 13 12 1 9 6 15 3 5 16 17 2
5 17 3 4 1 11 2 16 6 14 10 8 7 9 13 12 15
11 5 16 10 12 1 9 17 15 6 2 13 14 8 3 4 7
4 7 1 3 14 17 11 12 13 8 5 2 10 9 16 6 15
11 6 5 12 4 10 9 13 1 2 17 16 3 7 14 8 15
16 9 1 6 10 5 8 3 11 13 15 4 7 12 17 14 2
17 2 11 3 5 16 12 4 13 1 14 15 6 7 10 8 9
5 4 6 2 1 7 8 9 15 13 14 16 3 12 17 11 10
12 5 17 8 1 11 10 3 16 14 15 4 7 9 6 2 13
16 2 14 10 11 13 17 6 5 12 3 1 4 15 7 9 8
14 5 2 4 13 1 16 3 7 17 11 8 6 15 10 9 12
12 2 8 17 14 13 16 5 10 11 1 6 3 7 9 4 15
14 13 1 17 4 9 5 12 15 2 8 6 7 10 16 11 3
7 17 2 8 12 5 16 4 15 11 3 10 14 13 1 6 9
10 12 1 2 17 4 15 9 8 7 6 16 13 5 14 3 11
2 14 3 16 11 5 10 7 15 4 13 8 1 9 12 6 17
15 5 6 7 12 4 13 16 14 17 2 1 3 8 9 11 10
1 3 14 9 2 10 8 11 6 17 15 12 16 13 5 7 4
1 4 16 2 15 11 5 9 10 12 14 17 13 8 6 7 3
7 17 14 6 12 8 13 2 1 10 15 9 3 4 16 5 11
4 3 13 2 17 14 6 11 12 15 8 1 10 9 16 7 5
10 1 11 4 8 7 2 17 15 14 6 5 3 12 9 13 16
16 13 7 2 17 12 14 15 11 9 6 4 10 5 1 8 3
14 7 16 10 13 5 2 12 9 8 11 17 4 3 1 6 15
15 11 8 12 17 13 5 14 3 9 4 16 2 7 10 1 6
2 10 11 12 7 17 14 1 4 13 15 6 3 5 8 16 9
11 1 4 7 10 12 9 13 3 2 15 5 16 8 17 14 6
14 7 13 2 12 3 1 16 5 11 10 6 15 8 17 4 9
11 10 2 1 7 13 3 15 4 14 16 17 6 9 5 8 12
14 1 2 10 3 6 13 4 11 12 16 15 8 9 5 17 7
5 4 7 10 16 17 14 12 8 11 6 13 2 3 1 15 9
3 13 2 17 9 10 7 14 4 6 5 16 12 1 8 11 15
8 10 2 6 5 11 15 1 13 3 14 17 9 7 4 12 16
9 15 13 7 4 5 16 12 1 17 2 8 14 6 10 3 11
8 1 11 16 3 9 12 15 6 2 10 5 17 14 4 13 7
5 2 3 13 4 8 17 16 15 6 1 14 12 11 7 9 10
4 14 1 10 2 17 3 12 9 15 5 16 13 7 6 8 11
9 10 14 8 6 2 4 16 3 11 12 5 1 7 13 15 17
4 5 9 2 16 7 8 13 1 15 12 10 3 14 6 11 17
9 8 1 7 10 11 13 6 14 17 5 4 16 2 15 3 12
7 3 16 4 5 6 1 15 8 13 2 10 9 12 11 14 17
7 13 14 12 8 1 10 2 15 17 9 3 4 5 6 16 11
15 12 8 17 4 16 3 6 5 10 1 7 11 13 9 14 2
4 2 5 16 9 3 8 17 13 10 1 12 11 6 15 7 14
16 9 6 8 14 5 11 1 12 7 13 17 3 2 10 15 4
14 13 11 4 7 12 1 2 15 5 3 9 10 16 17 8 6
4 17 6 2 5 12 7 9 13 11 15 14 16 3 10 1 8
10 7 3 12 16 9 17 2 8 13 14 15 11 4 6 1 5
12 1 15 4 11 10 5 13 7 17 2 3 9 16 8 6 14

14
Desiree Dorfman
Chris Flajnik
Joey Thurston
Chris Weber
Charity Shallcross
Chris Recchia
Kaitlyn Shallcross
Clare Echard
Jojo Shallcross
Brad Luyendyk
Colton Echard
Ashley Lowe
Emily Kufrin
Arie Graziadei
7 6 8 11 13 3 1 9 14 2 5 12 4 10
2 14 6 3 13 10 11 1 9 8 7 4 12 5
4 11 1 7 13 12 10 2 5 6 9 8 3 14
2 3 11 5 12 1 6 14 10 13 9 7 8 4
2 11 5 4 13 1 9 10 8 6 14 3 12 7
6 9 14 11 4 12 10 2 7 13 3 8 1 5
13 5 11 3 9 1 2 7 12 8 4 6 10 14
3 14 9 10 1 4 5 8 12 7 6 13 2 11
12 5 2 1 14 10 13 3 11 9 7 4 8 6
3 14 8 10 5 6 9 13 4 7 1 11 2 12
7 14 11 13 1 2 8 12 5 3 9 6 4 10
9 7 13 10 2 1 6 14 4 3 12 5 11 8
8 12 7 5 2 14 6 13 3 9 10 11 4 1
6 7 1 12 3 14 2 10 9 5 13 11 4 8
7 14 2 8 3 6 4 5 10 1 9 13 11 12
1 7 2 13 4 9 11 3 6 5 12 8 14 10
11 3 14 13 2 9 8 10 4 7 5 12 1 6
12 11 1 6 13 10 7 2 3 5 8 14 9 4
14 11 9 5 10 12 7 1 8 6 13 3 4 2
14 8 10 12 6 2 4 11 1 5 13 9 3 7
1 11 5 4 14 13 3 7 8 2 12 6 9 10
14 10 7 8 12 1 11 9 13 4 6 3 2 5
2 6 8 9 10 7 5 4 11 13 12 1 14 3
14 5 3 2 12 9 10 7 6 1 8 4 13 11
13 5 11 8 1 2 7 4 6 14 12 10 9 3
7 4 12 9 8 10 14 1 5 2 6 11 3 13
7 11 13 5 14 10 6 1 8 9 3 12 2 4
3 7 10 13 6 14 2 9 12 8 5 1 11 4
7 10 8 12 11 4 3 6 5 1 9 13 2 14
9 3 4 8 5 1 11 14 13 2 6 10 12 7

17
Colton Weber
Zach Echard
Kaitlyn Recchia
Matt Brown
Zach Lawson
Andi Luyendyk
Ben Lindsay
Charity Soules
Peter James
Joey Adams
Kaitlyn Soules
Ben Recchia
Colton Bristowe
Peter Hartsock
Zach Weber
Hannah Adams
Chris Recchia
3 4 8 17 7 6 2 11 1 15 14 16 12 5 9 10 13
2 9 6 8 17 1 5 3 11 10 12 14 16 7 13 4 15
3 9 16 5 14 15 6 11 4 2 12 1 8 10 7 13 17
15 2 17 13 10 6 7 16 3 12 5 14 11 1 9 8 4
4 10 1 13 16 5 15 2 17 9 8 7 14 6 12 11 3
12 14 17 2 5 3 6 9 16 1 8 15 4 7 13 10 11
7 17 16 8 2 15 13 9 10 6 4 1 11 12 3 5 14
4 17 10 12 9 5 15 11 16 1 13 6 7 14 3 2 8
11 1 15 4 9 17 7 5 13 10 14 2 6 16 12 8 3
7 14 8 12 3 15 4 13 6 17 11 1 9 16 5 10 2
14 1 9 11 17 5 3 15 16 4 8 7 13 12 6 10 2
10 17 5 2 14 3 6 8 11 9 13 7 12 15 4 1 16
2 17 1 11 15 12 13 9 10 3 16 4 14 6 8 5 7
14 13 7 6 4 16 12 17 9 15 8 1 3 11 5 2 10
10 9 17 5 1 8 2 12 15 6 14 4 16 3 7 11 13
17 12 5 13 10 1 3 11 2 7 6 4 8 9 15 14 16
2 9 12 4 17 3 13 1 15 7 10 8 11 6 5 16 14
7 1 12 10 17 4 8 9 15 16 5 2 6 11 13 14 3
7 6 12 4 13 2 14 15 3 5 10 8 16 11 1 9 17
15 6 12 1 13 17 11 7 16 4 2 10 3 5 14 8 9
15 16 14 6 12 5 7 8 17 10 3 4 13 2 9 11 1
10 15 2 6 9 16 4 14 5 8 3 1 17 7 12 11 13
2 3 8 10 16 13 9 17 14 12 5 1 7 11 6 15 4
15 17 13 7 9 4 10 1 11 3 5 12 14 6 2 16 8
13 14 12 2 11 9 16 17 3 7 10 6 1 8 5 15 4
5 2 3 7 13 1 12 16 4 15 6 10 17 14 11 8 9
8 1 12 14 10 15 4 16 3 17 9 13 7 11 2 6 5
7 12 15 10 4 5 17 6 2 1 3 9 13 8 11 16 14
3 9 6 2 7 13 1 4 12 5 16 8 15 17 14 11 10
2 5 15 7 11 1 17 6 9 16 4 13 12 10 14 3 8
14 9 16 5 11 13 7 10 6 17 2 12 1 4 3 8 15
5 8 14 2 10 1 9 6 16 7 11 17 12 3 13 4 15
4 7 5 12 17 16 14 10 8 1 6 15 9 2 3 13 11
9 3 16 17 13 6 12 5 10 8 15 4 11 1 14 2 7
2 15 13 12 6 7 11 14 8 1 4 16 9 10 5 3 17
9 14 5 7 15 4 17 2 10 8 1 6 3 16 11 12 13
5 15 9 2 13 3 7 8 16 11 12 17 6 10 4 1 14
11 16 15 3 17 12 1 4 5 9 2 13 10 6 7 8 14
3 14 17 15 4 13 16 8 2 5 9 11 10 12 7 6 1
3 8 7 17 15 12 6 9 2 4 11 16 5 10 1 13 14
10 13 14 8 7 5 12 6 9 17 11 2 15 3 16 4 1
9 6 1 8 4 16 11 13 15 12 2 3 17 5 14 7 10
15 13 16 4 11 3 14 7 1 12 8 2 9 5 6 10 17
6 1 11 16 4 12 5 14 17 8 3 10 15 7 13 2 9
16 1 4 6 3 8 15 2 10 17 13 11 12 9 7 14 5
13 12 2 1 9 8 17 15 7 4 10 11 6 14 5 16 3
9 12 2 11 17 6 16 14 8 7 10 1 4 5 13 3 15
6 10 15 3 12 13 8 16 7 9 5 2 17 11 14 4 1
12 8 9 6 3 1 5 10 17 16 7 13 11 15 4 14 2
17 6 3 9 10 1 12 16 2 7 8 11 5 13 15 4 14
2 14 17 3 12 4 11 16 15 6 13 7 1 5 8 9 10
3 9 7 11 6 13 8 14 4 12 10 2 17 5 1 15 16
13 5 11 8 14 9 3 7 17 2 12 10 15 6 1 4 16
2 3 7 11 12 15 17 5 16 4 1 8 6 10 13 14 9
13 3 5 1 14 7 11 2 16 9 8 12 17 15 6 4 10

6
Matt Bristowe
Brad Bristowe
Becca Adams
Arie Lowe
Nick Dorfman
Ben Underwood
2 3 5 6 1 4
6 5 1 2 4 3
3 4 6 2 1 5
2 1 6 5 4 3
3 2 4 5 1 6
5 3 2 6 4 1
1 2 5 3 4 6
2 3 5 1 4 6
3 6 4 5 1 2
5 3 1 6 2 4
4 6 5 1 2 3
1 4 5 6 3 2
3 4 1 6 2 5
6 5 2 3 1 4
6 5 3 4 1 2
2 3 1 4 6 5
4 5 3 6 1 2
5 6 1 3 2 4
1 2 3 5 4 6
2 6 1 3 5 4
3 2 1 4 5 6
5 4 2 6 1 3
4 3 2 1 6 5
3 1 6 2 5 4
2 3 5 6 4 1
6 5 1 4 3 2
5 6 2 3 4 1
2 4 5 3 6 1
4 6 5 1 3 2
2 4 1 5 6 3
1 6 5 3 2 4
3 2 5 4 6 1
6 4 3 5 1 2
4 6 5 3 2 1
6 1 5 4 3 2
2 3 4 1 6 5
6 4 2 5 3 1
3 6 1 5 4 2
2 4 3 5 6 1
2 4 3 1 5 6
3 5 6 2 1 4
2 1 3 4 6 5
4 5 2 6 1 3
5 1 3 4 6 2
5 6 1 2 4 3
4 3 1 6 2 5
5 1 6 3 2 4
6 5 2 1 4 3
1 4 6 3 2 5
5 4 3 6 1 2
6 3 4 2 5 1
5 6 1 2 3 4
1 2 3 6 5 4
3 2 4 6 1 5
3 6 2 5 4 1

6
Clayton Shallcross
Sean Lawson
Tayshia Recchia
Colton Weber
Colton Weber
Rachel Weber
2 1 3 4 6 5
1 3 6 4 2 5
2 1 4 6 3 5
3 4 5 1 6 2
3 1 4 2 5 6
2 1 6 5 3 4
4 3 2 1 6 5
5 2 6 4 3 1
3 6 2 1 5 4
1 4 5 2 3 6
4 1 3 6 2 5
3 4 6 5 1 2
5 3 6 1 4 2
3 1 5 4 6 2
1 6 4 5 2 3
3 2 4 1 6 5
6 2 5 4 1 3
2 5 4 3 6 1
5 6 4 2 1 3
6 4 5 1 2 3
2 1 6 4 3 5
3 6 1 2 4 5
6 1 4 3 2 5
2 6 1 4 3 5
3 4 1 2 6 5
6 5 2 3 4 1
3 4 5 1 2 6

17
Brad Thurston
Clare Underwood
Rachel Hartsock
Ashley Lindsay
Tayshia Brown
Peter Windey
Desiree Young
Jojo Recchia
Emily Bristowe
Peter Shallcross
Emily Young
Arie Lindsay
Rachel James
Desiree Lowe
Tayshia Lindsay
Becca Brown
Hannah Soules
17 11 7 3 6 9 13 10 12 16 5 14 1 4 15 2 8
2 3 10 17 11 12 6 15 14 16 4 5 8 7 1 13 9
15 6 8 4 2 1 3 14 13 10 11 9 16 5 12 17 7
13 8 12 2 15 5 1 7 6 3 14 9 17 11 10 16 4
9 4 7 1 3 2 10 16 15 11 14 5 12 17 6 8 13
5 6 16 3 10 13 11 14 17 4 9 7 2 15 8 1 12
10 11 15 13 12 1 4 9 7 14 16 2 6 3 5 17 8
6 8 17 15 11 9 14 3 12 7 4 10 16 5 1 13 2
13 1 12 2 10 14 8 4 15 11 5 16 3 6 9 17 7
9 17 8 6 11 12 5 10 15 13 4 16 1 7 14 3 2
1 3 5 7 2 14 16 13 17 10 6 15 4 12 8 11 9
9 15 2 17 7 10 1 12 11 8 3 6 13 14 5 4 16
4 5 17 8 12 13 1 16 14 7 2 3 9 15 10 11 6
7 17 8 9 13 11 6 4 2 1 10 12 5 3 16 15 14
16 13 2 8 1 6 17 15 5 10 9 14 7 12 4 11 3
7 16 8 10 6 5 9 1 12 17 15 2 11 4 3 14 13
14 9 11 6 4 1 10 17 16 7 15 12 5 8 13 3 2
4 12 2 5 10 13 17 11 9 7 6 8 16 1 14 15 3
2 5 1 16 13 15 10 14 7 11 17 6 9 12 3 8 4
6 15 9 5 7 16 4 3 8 10 2 12 17 13 14 11 1
17 16 8 9 7 2 4 6 5 14 3 11 12 15 10 1 13
13 6 12 9 16 7 8 2 5 1 17 10 3 11 15 4 14
11 14 2 3 7 13 5 6 17 9 8 10 16 15 4 12 1
11 12 14 4 3 17 6 2 15 16 7 8 9 1 10 5 13
14 17 2 9 5 10 1 11 3 6 12 16 13 7 8 15 4
10 1 12 11 3 6 15 14 17 2 7 8 4 16 5 9 13
1 7 6 5 11 13 17 3 8 15 10 2 14 4 16 12 9
10 14 11 2 8 15 12 3 16 13 6 5 9 7 1 17 4
16 14 15 11 4 13 8 12 2 7 6 17 3 10 9 5 1
11 7 12 5 6 15 13 8 9 16 4 2 3 14 17 1 10
2 16 17 12 4 11 15 7 9 3 14 13 10 8 5 6 1
9 11 2 1 4 17 10 5 16 6 15 12 14 8 13 7 3
5 10 7 6 14 1 3 16 12 11 13 15 8 2 17 9 4
15 8 5 6 16 7 11 1 2 3 10 12 13 4 9 14 17
7 11 4 6 17 5 10 14 1 3 2 15 16 13 9 8 12
10 8 1 5 9 2 16 7 3 13 17 12 4 15 6 14 11
11 12 14 5 15 17 7 6 1 10 8 2 13 3 4 16 9
13 12 2 17 16 8 4 14 15 11 3 1 9 5 6 10 7
2 10 13 3 16 5 4 11 6 17 12 1 15 14 7 8 9
8 3 16 13 5 12 2 10 17 4 15 9 11 6 1 7 14
9 4 16 13 17 8 1 5 3 2 7 15 12 14 10 6 11
16 8 17 1 10 3 9 4 11 5 13 12 6 7 15 14 2
