<7I*IE=p 

S*c^'<5h

>1HkGiS

>N+-K;^

2BQ$`lQ

;+CQ\oonuz

|t>}+B8Y(L

1%8_

n1C8QV^

7N.zIW

4 3 2 1

-;u$x

ZT*P(

c_

(

sx-

fys$P

|\%$igt(

m-P2k0xi4

Yy\ymu
4hor3n-3r

q%@nTmOI

DJ{AYM

vuqk<'`c

u^5%M

|

cb#pvN0

XdM@/Fl9

S

9Zb6LZv+-^

z=ROyu;&Oo

sPog$
hq^\*/G4a9

<bHL

 0s

6
'`N

>

2"&wV#1}

".ZD

UYHA

i

;

T><

Apg:gT

z7G%

:|v{+
c8M Qr;
"s

)i&2yWQ&

v5dU0$

fV@mZ

!V"x

jT*^mN]
6h]

m{$zSr[0

$1

n'uz[:

4

uI5C3
$

2@tWZr
{[{&&3d[
SD?

8o
.jS

h5JHw{N%n

N)j]c %

v2SvwlG_aD

V|<"Ddc3C-

g

^Ow[

tuVY{];3

\*a)B[&u

uY

FA0H]

;aFm?yk

Ya

?.

v_!R&}vM{

)'ZGiis\!

Zy97S*

1t|L3e

l

S{3XF
&M>xO;Ycn
g

Q)A<u

V

R'zgM

!Y<D

\`.zW2)

<On$0$ni@@

(0$bv>

k.Lm@K
