86

19
Clinton Adams
Garfield Tyler
Truman Maynard
Bush Viall
Carter Washington
Cleveland Higgins
Truman Flajnik
Reagan Madison
Grant Bristowe
Taft Tyler
Roosevelt Hebert
Truman Fletcher
Biden Flajnik
Obama Tyler
Cleveland Lincoln
Eisenhower Lincoln
Jackson Buchannan
Jackson Lindsay
Bush Adams
18 11 9 1 10 4 6 7 2 3 17 8 19 5 13 14 15 12 16
1 18 15 8 14 6 7 4 16 12 2 11 9 10 13 19 17 3 5
2 9 7 3 17 13 16 4 14 12 10 6 1 19 5 11 18 8 15
13 12 14 3 10 18 4 8 2 5 11 1 19 7 17 15 9 6 16
7 8 10 17 1 4 16 13 12 2 19 3 11 9 14 18 5 6 15
18 14 5 3 10 17 12 4 7 13 2 8 11 9 19 16 1 15 6
8 9 17 3 5 2 12 1 15 13 7 10 16 19 4 14 6 11 18
13 9 10 8 11 1 17 19 12 5 7 15 14 16 6 4 3 2 18
5 17 14 16 8 19 4 9 2 15 10 12 7 11 6 18 1 3 13
17 5 6 12 19 11 10 2 4 3 13 1 16 8 14 9 7 18 15
2 7 12 14 9 8 13 4 10 15 18 17 3 16 5 19 11 1 6
18 17 9 6 3 4 8 2 12 19 11 15 7 1 14 16 5 10 13
9 3 10 2 13 17 6 12 15 18 16 11 8 7 14 1 19 4 5
17 1 16 3 18 7 4 9 10 19 11 6 15 5 13 8 2 12 14
5 8 12 15 11 7 2 9 13 4 14 10 17 3 6 16 1 18 19
10 13 12 9 7 16 18 5 11 1 15 14 19 3 4 17 8 2 6
9 14 2 8 17 11 12 6 19 3 1 7 15 18 5 13 10 16 4
16 13 9 18 11 4 2 8 3 15 5 1 10 12 6 14 19 17 7
3 13 2 8 5 6 11 16 17 10 14 15 12 7 9 18 4 1 19
6 2 13 5 12 17 11 7 18 1 19 10 3 16 9 8 14 4 15
14 10 6 13 12 4 11 3 9 5 16 2 18 17 7 1 8 19 15
6 3 8 5 10 12 17 18 13 9 15 14 1 11 7 2 19 4 16
13 18 17 12 6 1 8 19 10 7 16 5 11 14 9 2 4 15 3
14 15 16 5 9 7 4 18 11 10 2 6 8 12 3 1 19 17 13
6 13 12 1 11 5 16 17 7 2 15 9 3 19 18 4 10 8 14
18 11 5 19 1 15 10 9 16 3 6 14 8 2 13 7 17 4 12
6 7 4 11 5 10 8 15 19 1 16 17 12 2 9 18 14 3 13
18 19 4 6 9 14 12 1 17 11 10 15 3 2 7 13 5 16 8
14 11 9 7 5 3 8 19 18 17 15 6 16 4 12 2 1 10 13
6 11 17 9 1 15 7 18 3 2 14 4 13 8 10 19 5 16 12
17 15 5 4 8 6 7 14 18 19 11 2 1 10 3 16 9 12 13
8 15 9 7 13 16 1 12 19 4 14 5 2 18 3 10 17 6 11
16 15 5 7 18 19 14 6 10 17 9 4 3 12 11 2 13 8 1
19 9 6 15 17 7 11 3 14 5 1 2 4 12 10 13 8 18 16
1 8 16 9 14 18 4 5 7 15 19 10 2 3 17 13 11 12 6
2 3 14 15 18 19 13 9 7 4 10 5 11 12 8 6 1 16 17
7 13 18 9 12 10 8 11 14 19 5 4 16 6 15 17 1 3 2
9 1 17 3 7 15 12 14 19 5 18 16 8 4 10 13 2 11 6
13 1 7 4 12 18 8 16 17 15 6 3 11 2 19 14 5 10 9
17 2 12 4 3 5 14 1 13 8 6 9 18 11 10 19 15 7 16
11 12 1 16 10 19 7 4 18 6 14 17 3 15 13 5 8 2 9
10 1 9 15 8 6 11 12 18 16 5 4 13 14 17 2 7 3 19
12 9 14 7 19 15 16 6 8 17 11 10 5 2 13 3 1 4 18
12 13 10 3 14 5 9 11 15 2 4 6 18 19 8 1 16 7 17
8 17 15 10 7 9 16 18 4 14 13 12 19 6 3 2 1 11 5
10 8 5 3 12 16 7 19 18 15 4 2 13 11 6 9 17 1 14
2 15 3 6 5 11 12 16 8 17 4 1 9 13 14 19 18 7 10

15
Carter Madison
Carter Madison
Johnson Kufrin
Hoover Hartsock
Harrison Dorfman
Bush Underwood
Johnson Pierce
Harding Lindsay
Bush Adams
Cleveland Jefferson
Taft Luyendyk
Kennedy Adams
Obama Brown
Reagan Madison
Obama Polk
14 11 10 12 9 1 15 6 4 7 5 13 2 8 3
5 2 1 6 9 12 10 15 13 3 7 11 14 4 8
12 9 5 11 8 6 2 7 3 1 4 13 10 15 14
11 13 5 1 3 10 2 12 15 8 6 7 9 4 14
2 7 6 14 10 13 11 8 5 15 12 9 1 3 4
8 1 9 5 14 12 15 3 4 7 2 6 13 11 10
7 5 3 8 15 2 10 14 11 6 12 9 1 4 13
9 13 5 10 2 15 6 3 7 14 1 8 12 11 4
10 2 5 14 7 9 15 8 3 6 4 11 12 13 1
12 8 15 2 14 10 1 13 5 11 4 7 6 9 3
13 4 6 8 15 7 10 2 9 5 12 1 3 11 14
13 6 8 1 12 7 15 11 10 4 3 2 5 14 9
14 7 10 5 4 6 1 12 8 11 13 3 9 2 15
8 1 10 7 9 6 13 5 4 3 2 11 14 12 15
15 11 12 4 3 6 1 8 9 10 13 7 14 5 2
7 2 3 14 12 4 1 10 8 5 13 15 11 6 9
3 5 11 4 8 9 14 15 2 13 12 7 10 6 1
11 2 5 1 6 3 9 13 8 14 15 12 10 7 4
14 10 11 9 8 13 2 5 12 7 15 6 4 3 1
8 11 12 6 15 9 3 7 4 2 14 13 5 1 10
7 3 5 2 10 13 4 9 6 14 12 8 1 15 11
7 12 1 13 5 10 9 14 11 2 4 3 8 6 15
12 6 14 5 3 4 13 8 1 15 10 2 7 9 11
2 11 14 1 9 7 8 15 12 3 5 13 4 10 6
11 14 6 13 4 15 8 7 1 5 10 3 12 2 9
10 4 7 3 12 15 11 5 14 2 6 1 9 13 8
11 6 10 9 1 8 14 5 2 3 4 12 15 13 7
3 12 10 2 1 4 5 15 11 6 9 13 8 14 7
11 10 9 1 5 4 15 13 6 2 3 8 7 14 12
14 3 4 12 6 2 9 11 5 15 8 13 10 7 1
11 4 1 14 3 2 12 9 13 10 7 5 8 15 6
8 1 13 12 9 11 5 2 4 15 14 10 3 6 7
2 1 8 7 10 3 15 4 14 12 13 11 6 9 5
14 5 1 3 13 9 4 11 15 7 2 8 10 12 6
8 6 10 12 9 11 13 7 14 2 4 5 3 1 15
14 12 4 11 5 9 6 15 7 10 1 2 3 8 13
8 11 12 15 13 7 6 3 9 10 2 5 4 14 1
13 8 9 12 6 2 15 3 14 10 11 1 4 5 7
2 13 1 6 10 9 5 3 14 15 11 8 7 4 12
10 7 9 6 8 1 11 2 15 14 12 5 13 4 3
11 9 2 7 14 4 13 10 1 12 15 3 6 8 5
3 2 11 4 13 9 15 8 14 7 6 12 1 5 10
1 7 3 5 4 10 12 6 13 8 9 14 2 15 11
11 3 10 1 14 8 5 9 7 12 4 2 13 6 15
1 6 13 5 11 8 15 10 2 7 9 4 14 12 3
3 9 1 10 15 7 14 5 8 13 4 12 11 6 2
8 3 5 1 15 13 11 10 6 4 9 12 14 7 2
13 3 14 2 15 1 10 8 6 11 12 4 9 5 7
10 5 9 14 6 11 4 2 12 3 7 15 1 13 8
7 2 15 8 14 11 5 12 3 9 4 10 6 13 1
11 3 5 2 6 13 12 15 1 4 7 8 10 14 9
2 15 11 9 1 12 4 3 7 6 10 5 8 13 14
3 12 11 4 9 6 5 1 10 15 8 2 7 14 13
6 1 12 8 14 2 7 4 15 5 3 11 9 13 10
15 7 4 6 12 1 2 10 13 8 5 11 14 9 3

14
Roosevelt Viall
Jackson Madison
Ford Washington
Eisenhower Monroe
Harrison Polk
Hayes Monroe
McKinley Soules
Jackson Dorfman
Nixon Lowe
Roosevelt Soules
Jackson Viall
Reagan Lowe
Cleveland Viall
Carter Lindsay
13 5 11 14 2 12 1 10 9 6 3 8 4 7
12 2 1 11 6 13 7 5 3 8 4 9 10 14
2 7 3 13 6 5 1 12 8 14 4 9 11 10
11 5 3 1 9 14 12 13 8 6 7 4 2 10
2 1 6 4 11 3 7 12 10 9 13 8 14 5
11 5 12 8 14 13 10 2 7 3 4 1 9 6
6 3 2 9 14 1 10 4 5 7 8 11 12 13
3 10 13 5 2 8 4 9 7 12 11 6 14 1
7 12 11 2 9 3 6 1 10 8 13 14 4 5
5 13 12 11 8 14 10 3 4 6 7 2 9 1
10 5 13 12 4 11 2 7 3 14 8 9 1 6
9 11 12 7 10 8 2 4 14 3 6 1 13 5
6 7 9 14 11 10 3 4 13 2 1 12 8 5
4 11 3 2 9 8 13 7 12 10 5 6 1 14
6 7 8 3 1 12 9 14 2 4 10 13 11 5
12 9 7 8 4 11 5 13 3 2 10 14 1 6
11 8 5 6 14 7 9 1 4 13 2 12 3 10
9 6 1 14 13 11 12 3 4 10 5 2 7 8
3 10 4 1 13 12 6 9 14 5 2 11 7 8
8 10 3 13 12 7 2 11 5 4 14 1 9 6
11 5 4 6 3 1 7 10 8 2 14 13 9 12
4 10 13 14 12 2 1 5 6 3 7 9 8 11
3 6 4 10 12 8 11 14 2 9 13 1 5 7
8 1 11 5 10 7 2 6 9 14 3 13 12 4
10 13 3 5 8 1 7 11 2 6 12 9 4 14
8 2 13 4 10 6 14 9 11 3 5 12 1 7
10 9 6 8 3 11 7 14 5 2 12 1 13 4
9 5 1 14 6 13 10 11 8 3 4 12 7 2
4 6 3 9 11 2 7 5 10 12 8 13 14 1
14 6 7 3 5 8 11 4 10 2 1 9 13 12
1 7 5 11 9 6 4 13 12 2 10 8 3 14
1 12 7 6 4 3 5 10 11 13 14 8 9 2
13 6 10 1 7 12 9 3 8 5 14 4 2 11
14 8 12 10 3 11 1 13 5 2 7 6 9 4
6 7 9 5 14 1 2 12 10 13 8 11 3 4
8 6 12 11 4 13 14 9 2 3 1 10 7 5
4 6 9 3 2 1 13 12 8 10 7 14 5 11
3 14 4 13 7 6 11 2 12 5 10 8 9 1
7 6 1 2 8 11 14 3 12 13 4 9 5 10
9 12 8 11 14 5 4 13 3 2 10 1 7 6
10 12 9 8 11 3 4 2 6 1 14 7 5 13
13 10 5 8 14 4 7 1 9 2 6 3 12 11
4 1 3 12 13 9 6 14 7 11 8 5 10 2

8
Biden Buchannan
Jackson Viall
Bush Viall
Harding Adams
Carter Luyendyk
Carter Pierce
Clinton Buchannan
Biden Fillmore
3 6 1 5 2 7 4 8
2 1 5 4 6 3 8 7
3 5 2 8 7 6 1 4
3 7 2 4 6 5 1 8
4 7 6 3 1 5 8 2
2 6 3 7 4 8 1 5
7 6 8 4 1 5 3 2
7 2 8 1 3 4 6 5
3 4 5 8 1 2 6 7
7 3 8 6 4 1 5 2
5 3 1 8 2 6 7 4
2 5 6 3 8 4 7 1
2 6 1 5 7 3 4 8
4 3 5 8 1 7 6 2
4 7 1 3 2 8 5 6
5 4 2 7 1 6 8 3
7 4 3 8 5 6 1 2
5 2 6 7 4 3 8 1
1 4 7 5 6 8 2 3
2 5 4 3 8 6 7 1
2 6 7 4 3 1 5 8
3 8 2 7 1 4 6 5
6 3 2 5 8 1 7 4
5 6 2 4 8 3 7 1
4 7 8 6 1 2 5 3
2 1 7 5 6 3 4 8
5 8 1 3 4 6 2 7
6 1 7 5 4 8 3 2
7 2 1 6 8 5 4 3
2 4 5 8 6 3 7 1
4 6 5 3 7 1 8 2
6 8 2 7 1 5 3 4

20
Grant Washington
Arthur Underwood
Eisenhower Brown
Taft Kufrin
Garfield Washington
Hayes Monroe
Biden Lindsay
Bush Buchannan
Nixon Higgins
Coolidge Fillmore
Roosevelt Maynard
Hoover Flajnik
Hoover Lowe
Reagan Madison
Hayes Washington
Wilson Soules
Biden Adams
Taft Viall
Jackson Maynard
Nixon Fletcher
2 11 17 18 5 7 14 10 9 12 13 4 16 3 1 15 19 20 8 6
2 4 6 5 18 11 16 1 3 17 12 8 9 20 7 14 19 10 15 13
18 16 12 19 3 14 11 13 1 8 5 17 4 6 15 9 20 2 7 10
1 11 5 13 4 18 14 19 9 8 2 16 6 20 3 17 10 12 7 15
17 10 4 3 19 13 18 7 12 14 9 15 20 5 16 6 11 1 2 8
17 10 16 3 4 2 19 9 14 18 6 11 8 7 5 15 20 13 1 12
2 14 19 3 1 12 15 13 11 17 6 4 8 9 20 18 5 7 10 16
2 6 18 17 1 12 8 3 10 4 5 16 19 13 11 7 14 15 9 20
20 9 12 19 1 18 8 14 16 6 5 3 2 7 11 4 15 13 17 10
19 9 15 18 12 13 16 8 3 10 11 6 2 5 20 1 7 17 14 4
6 20 10 16 5 19 8 15 2 12 9 3 14 4 7 17 11 1 13 18
7 14 12 19 2 11 20 5 1 8 3 15 10 13 18 17 4 6 16 9
19 8 7 3 1 9 5 2 13 11 14 18 4 12 16 17 10 15 6 20
2 14 20 19 15 9 5 12 1 6 10 16 3 4 18 17 13 11 8 7
12 13 10 17 16 18 3 15 9 1 6 5 20 19 7 2 8 4 14 11
9 19 13 18 12 10 3 16 11 20 2 1 6 8 14 4 17 15 7 5
1 3 6 15 16 18 8 20 4 5 7 11 19 12 17 13 14 2 10 9
1 20 10 12 18 9 6 3 16 19 17 4 13 8 7 15 11 14 5 2
1 13 15 3 18 2 9 10 6 17 19 7 11 4 14 12 20 16 8 5
5 10 9 2 11 15 20 17 14 7 4 6 12 3 13 1 18 8 19 16
5 15 4 12 13 19 18 3 17 9 14 11 7 6 10 20 2 16 8 1
17 3 12 5 4 14 1 15 2 13 11 8 18 19 9 6 7 20 10 16
12 3 9 1 17 6 10 14 7 8 16 5 18 20 4 19 11 15 2 13
14 18 3 4 13 20 1 5 15 10 6 7 17 11 12 8 16 19 9 2

17
Truman Dorfman
Arthur Higgins
Johnson Tyler
Grant Lincoln
Clinton Underwood
Cleveland Lindsay
Clinton Lindsay
Kennedy Brown
Biden Maynard
Eisenhower Washington
Wilson Bristowe
Biden Brown
Reagan Fillmore
McKinley Hebert
Jackson Jefferson
Johnson Taylor
Ford Buchannan
1 8 2 16 7 5 11 14 4 13 10 15 3 6 17 9 12
6 11 14 5 7 8 9 4 2 15 3 17 1 16 10 12 13
8 1 3 5 6 9 15 17 14 12 10 13 7 16 2 4 11
10 6 9 5 14 11 3 4 16 8 1 7 15 12 17 2 13
3 4 7 15 17 2 16 1 14 6 10 9 8 11 5 13 12
6 17 14 11 12 3 8 1 7 5 4 15 16 13 2 10 9
14 6 11 12 1 5 9 3 15 10 8 4 16 7 13 2 17
12 10 5 13 6 7 11 16 1 4 8 14 2 9 15 3 17
1 12 8 3 2 6 13 10 5 9 14 16 11 17 7 4 15
8 10 16 3 2 4 17 12 9 1 11 5 14 15 13 6 7
17 6 8 4 5 3 2 1 9 7 15 12 13 11 14 10 16
2 5 4 16 11 9 13 8 7 3 15 14 17 1 12 6 10
16 7 11 9 13 14 17 4 15 12 2 6 8 3 10 1 5
3 7 1 10 11 6 8 5 17 9 2 12 13 15 4 16 14
15 17 10 4 3 7 9 5 8 12 1 13 6 16 14 2 11
7 2 10 3 12 13 1 17 8 9 5 11 14 4 15 6 16
14 10 16 3 8 13 1 5 4 7 9 2 17 11 15 6 12
12 17 15 9 11 8 1 4 10 7 13 6 16 5 2 3 14
10 14 12 6 13 16 11 3 2 5 17 8 4 15 1 9 7
10 17 12 11 1 13 7 2 14 8 6 4 15 16 5 3 9
15 13 1 10 3 4 7 11 16 6 2 5 17 9 8 14 12
12 1 6 15 17 16 3 4 11 2 10 9 14 13 7 8 5
13 7 5 6 12 9 4 2 16 15 11 1 8 10 17 3 14
5 17 9 14 3 7 16 1 4 10 2 13 11 12 8 15 6
2 13 9 10 1 7 6 3 17 8 4 11 5 12 16 15 14
2 4 1 13 12 3 16 7 5 14 9 11 8 17 15 6 10
1 4 10 2 16 17 11 12 15 7 9 5 14 6 13 8 3

10
Harding Hebert
Roosevelt Underwood
Kennedy Brown
Wilson Buchannan
Clinton Polk
Wilson Hebert
Harding Lowe
Hayes Higgins
Taft Flajnik
Hoover Adams
1 6 5 2 3 8 7 9 10 4
8 3 7 5 9 4 1 10 2 6
9 2 7 3 4 10 6 5 8 1
2 5 3 4 1 7 10 8 9 6
6 8 9 7 5 3 10 1 2 4
5 3 4 6 1 7 9 8 10 2
4 1 5 3 2 6 7 9 8 10
7 1 4 6 3 2 9 8 10 5
7 1 6 9 3 2 4 5 8 10
10 8 9 3 7 4 2 6 1 5
7 3 8 6 9 4 2 1 5 10
4 6 1 10 2 9 8 5 3 7
8 9 10 4 7 5 1 6 2 3
9 10 8 1 5 3 4 7 2 6
1 10 4 6 2 3 5 8 7 9
2 4 9 8 7 3 6 5 1 10
1 7 9 6 5 3 10 8 4 2
1 6 5 7 4 9 3 2 8 10
4 10 7 5 1 8 6 9 3 2
9 10 5 7 8 2 3 4 1 6
9 10 8 5 6 3 2 7 1 4
2 3 5 7 9 4 10 1 6 8
4 2 8 5 3 7 9 10 6 1
7 3 5 10 6 2 4 1 9 8
10 4 7 8 5 1 6 2 9 3
2 9 1 5 4 7 8 6 10 3
8 6 1 10 7 4 2 3 5 9
7 10 2 8 9 6 5 1 3 4
6 3 1 7 8 2 10 9 4 5
4 6 2 1 9 5 3 8 10 7
1 9 10 8 2 6 4 3 5 7
6 4 8 2 9 3 5 1 10 7
6 7 2 10 5 1 8 9 3 4
9 4 5 10 3 6 7 8 2 1
8 7 1 10 9 2 5 3 4 6
5 3 1 7 10 9 4 6 2 8
3 7 5 10 1 9 2 6 4 8
8 1 5 3 2 7 6 4 10 9
6 1 7 10 8 4 2 9 3 5
10 1 4 8 9 3 2 5 6 7
1 7 8 5 4 10 3 9 6 2

12
Carter Lowe
Coolidge Madison
Eisenhower Flajnik
Johnson Buchannan
Grant Hartsock
Harrison Kufrin
Jackson Lowe
Wilson Lowe
Reagan Fillmore
Obama Lindsay
Ford Taylor
Cleveland Buchannan
6 4 1 7 10 2 8 9 3 5 11 12
12 1 11 9 2 5 7 10 4 3 8 6
12 5 3 2 8 6 7 9 11 4 10 1
9 6 7 10 2 8 5 1 12 4 3 11
7 4 9 1 6 3 2 5 10 11 12 8
7 1 3 8 12 6 11 10 2 9 4 5
6 5 2 9 4 8 11 7 10 3 12 1
4 12 8 1 2 11 7 5 6 10 3 9
8 6 4 9 3 2 1 12 10 11 5 7
7 2 12 11 5 3 1 4 6 9 8 10
5 4 8 12 3 10 7 6 2 1 9 11
3 9 1 8 2 11 7 12 6 10 5 4
7 2 9 11 12 5 8 3 6 1 4 10
10 11 6 2 3 5 1 8 4 9 7 12
3 6 5 8 11 12 10 4 9 1 7 2
6 2 7 9 10 8 3 1 12 5 4 11
3 7 4 2 5 1 6 11 10 9 8 12
3 5 9 2 8 12 11 10 7 6 1 4
3 10 2 7 4 1 5 11 6 8 12 9
1 10 12 9 8 6 11 2 5 3 7 4
10 12 6 1 4 5 2 8 3 11 9 7
8 6 9 7 4 1 12 3 2 11 10 5
10 2 3 1 12 4 5 7 9 8 11 6
3 8 5 6 1 11 9 10 7 2 4 12
5 12 10 11 9 2 6 1 3 7 8 4
4 11 12 3 10 1 8 2 5 6 9 7
10 1 9 5 6 4 3 7 2 12 11 8
4 9 8 1 11 10 5 12 6 3 7 2
6 10 8 11 4 3 7 2 9 1 12 5
9 2 12 5 8 4 1 11 7 10 3 6
1 12 8 5 2 4 7 9 10 6 11 3
3 12 5 10 11 6 7 4 9 1 2 8
2 12 9 10 6 3 1 5 11 8 4 7

5
Clinton Soules
Hayes Fillmore
Jackson Maynard
Garfield Lowe
Reagan Taylor
5 4 2 3 1
1 4 3 5 2
2 3 1 5 4
3 5 1 2 4
2 1 5 4 3
4 3 5 1 2
1 4 5 2 3
5 4 1 2 3
1 3 4 5 2
3 2 1 5 4
2 1 4 3 5
3 4 5 1 2
2 5 1 4 3
3 2 1 4 5
4 1 3 5 2
4 3 5 1 2
5 4 2 1 3
2 4 5 3 1
5 4 1 2 3
3 5 1 4 2
3 2 1 4 5
4 2 1 5 3
5 2 1 4 3
3 1 5 4 2
5 4 2 3 1
4 2 1 5 3
1 4 2 5 3
4 2 3 1 5
1 2 5 4 3
4 2 5 3 1
3 5 2 4 1
5 4 3 1 2
1 3 4 5 2
1 2 3 4 5
4 1 3 2 5
2 4 5 1 3
3 5 2 4 1
2 1 4 5 3
4 2 3 5 1
2 5 3 4 1
4 5 1 3 2
2 4 1 3 5
4 1 2 5 3
1 2 4 5 3
2 1 4 3 5
2 1 4 5 3
1 4 3 2 5
4 5 3 2 1
2 1 3 5 4
3 4 5 2 1
3 5 2 1 4
4 2 5 1 3
4 2 3 5 1
5 3 2 4 1
3 5 1 2 4
3 5 2 4 1
1 2 4 3 5

17
Grant Brown
Ford Luyendyk
Grant Madison
Truman Hebert
Carter Pierce
Coolidge Jefferson
Jackson Buchannan
Clinton Viall
Nixon Tyler
Eisenhower Bristowe
Trump Jefferson
Kennedy Fletcher
Biden Adams
Carter Viall
Johnson Soules
Truman Fletcher
Kennedy Madison
2 16 17 15 11 8 9 6 5 13 3 10 12 14 1 4 7
10 14 5 4 13 16 11 15 9 8 6 3 2 1 17 12 7
13 16 6 1 9 8 11 12 2 4 17 7 5 15 10 14 3
17 16 10 13 8 9 7 4 6 2 15 12 3 5 11 1 14
11 15 14 2 7 13 5 6 1 9 10 16 4 12 8 17 3
9 6 12 10 2 17 15 7 11 1 4 3 5 14 16 13 8
14 3 10 1 4 11 15 5 16 2 17 6 12 9 13 8 7
4 2 10 6 13 16 7 17 8 15 12 11 5 1 9 3 14
4 12 8 13 1 10 3 15 16 6 14 5 11 7 17 2 9
4 5 10 12 1 11 2 6 7 14 3 16 9 8 15 17 13
17 14 6 16 15 8 1 10 11 3 9 4 2 7 12 13 5
9 14 17 7 16 2 12 3 5 15 8 13 1 11 4 10 6
10 14 11 3 5 4 12 13 2 7 17 15 16 9 1 6 8
15 14 8 3 12 5 4 2 17 16 11 10 13 1 9 6 7
6 11 3 13 8 4 1 10 17 15 16 9 14 5 7 2 12
5 11 9 13 17 14 3 16 6 4 7 2 8 15 10 1 12
12 5 7 3 2 17 11 14 6 1 8 4 10 16 15 13 9
9 5 14 16 1 17 10 3 2 13 6 12 8 11 15 7 4
8 7 13 11 1 5 15 10 2 3 9 17 4 14 12 16 6
17 5 10 14 9 11 1 2 12 7 6 3 8 4 13 16 15
10 9 15 8 2 5 16 6 1 13 11 7 17 14 12 4 3
1 4 11 12 9 13 3 10 16 14 17 8 5 2 7 6 15
17 12 15 7 1 11 6 4 9 3 13 5 16 2 10 8 14
12 1 5 3 13 2 17 6 9 10 7 15 8 11 4 16 14
6 11 1 2 13 5 9 15 17 4 14 16 12 3 10 7 8
11 3 1 6 5 12 16 17 14 4 8 15 9 10 7 13 2
11 2 5 6 13 12 1 14 10 17 16 15 4 7 3 9 8
9 12 17 6 7 5 4 15 10 16 11 3 8 2 14 13 1
10 6 14 8 2 9 16 13 11 5 15 17 4 1 7 12 3
17 5 1 15 7 13 10 8 11 6 3 2 12 16 9 4 14
10 3 14 17 15 6 13 1 7 9 12 5 8 16 4 11 2
1 3 12 17 4 8 16 15 13 6 9 2 10 11 14 7 5
2 6 7 11 4 15 8 5 10 16 3 13 1 12 14 9 17
7 14 11 12 13 16 15 6 3 2 4 10 17 8 9 5 1
6 4 12 10 5 17 8 15 11 7 16 2 1 13 3 9 14
4 9 16 15 17 1 8 11 5 14 7 3 10 6 2 12 13
3 15 13 6 2 14 5 10 4 8 11 12 9 7 1 16 17
5 12 11 10 16 3 9 6 1 17 15 7 8 14 4 2 13
6 9 2 16 7 3 8 12 10 15 14 5 1 11 4 17 13
9 17 15 11 16 3 12 7 8 4 5 2 6 10 1 13 14
5 6 3 1 12 9 7 11 17 8 2 16 10 13 4 14 15
10 15 17 2 6 13 3 9 7 14 12 11 4 8 5 1 16
2 11 17 16 7 14 5 12 13 4 1 10 9 15 8 3 6
5 3 11 14 9 13 8 4 17 10 2 15 6 7 12 16 1
11 15 17 14 9 16 12 5 1 3 8 2 10 13 7 4 6
15 17 16 7 10 6 9 2 1 5 4 13 14 8 12 11 3
2 11 15 7 5 14 16 1 13 3 17 8 4 10 9 12 6
2 16 11 13 5 4 9 17 14 7 10 1 12 6 15 3 8
9 7 3 10 15 17 6 5 11 16 2 8 14 4 1 13 12

16
Truman Maynard
Wilson Soules
Hayes Buchannan
Truman Jefferson
Bush Pierce
Obama Lindsay
Hayes Hartsock
Johnson Higgins
Taft Lindsay
Grant Luyendyk
McKinley Underwood
Eisenhower Pierce
Taft Bristowe
Coolidge Madison
Grant Fillmore
Kennedy Tyler
7 8 10 6 3 13 1 14 4 12 2 5 16 11 15 9
3 10 6 13 15 5 14 16 2 12 11 8 4 1 9 7
10 12 2 9 8 15 7 1 3 6 4 11 5 16 13 14
16 2 8 15 13 3 9 14 6 4 10 11 1 7 5 12
10 16 11 14 5 6 1 4 3 9 12 8 2 13 15 7
12 5 9 1 11 6 3 13 8 7 2 10 16 4 15 14
6 10 1 2 9 4 7 5 14 8 12 16 11 3 13 15
13 3 5 14 8 12 10 7 9 6 15 1 11 16 4 2
14 10 13 5 3 16 7 4 6 11 9 8 1 2 15 12
6 9 12 13 11 10 16 14 3 15 2 4 1 8 5 7
8 14 2 12 15 1 10 16 9 7 6 5 3 11 4 13
12 13 14 8 6 11 15 2 7 1 10 9 16 3 5 4
15 4 11 2 9 12 13 8 5 14 6 10 1 7 3 16
5 14 7 8 16 11 13 2 9 10 3 15 12 6 4 1
9 12 16 6 3 1 15 5 7 11 4 2 10 14 8 13
10 9 11 2 1 8 5 12 15 7 14 16 13 6 4 3
11 3 16 13 1 14 6 9 2 4 5 7 12 15 10 8

11
Obama Maynard
Trump Luyendyk
Johnson Luyendyk
Roosevelt Bristowe
Kennedy Underwood
Obama Washington
Bush Polk
Garfield Viall
McKinley Kufrin
Cleveland Madison
Coolidge Higgins
1 5 7 6 4 11 8 9 10 3 2
10 2 5 4 6 3 11 9 7 8 1
3 4 7 9 8 2 6 5 1 10 11
8 9 5 11 3 1 7 2 4 10 6
5 3 10 1 11 7 4 2 6 8 9
1 6 9 8 11 2 5 10 4 3 7
2 8 3 11 5 7 10 4 9 1 6
10 7 8 3 9 2 6 1 4 11 5
7 5 10 4 1 11 3 2 6 9 8
9 7 6 8 10 3 4 2 1 5 11
7 4 10 1 8 11 2 3 6 5 9
9 11 1 3 4 5 2 6 8 10 7
7 5 11 8 2 4 10 1 9 6 3
3 2 11 6 5 7 10 1 9 4 8
11 1 9 5 8 10 7 3 6 4 2
8 1 9 7 4 2 3 10 11 6 5
4 8 11 2 7 3 6 10 9 1 5
4 7 10 2 5 1 3 9 8 11 6
8 5 1 4 2 11 3 10 9 7 6
2 10 9 7 6 11 3 5 4 8 1
2 7 6 9 1 5 8 4 3 11 10
1 5 10 11 4 9 2 8 7 3 6
7 8 3 9 6 4 1 2 5 11 10
5 3 7 2 11 1 9 4 10 8 6
8 2 6 1 4 9 3 10 11 7 5
2 7 8 4 11 10 1 6 5 9 3
8 3 7 11 10 2 1 5 6 4 9
10 3 1 7 2 9 4 11 6 8 5
8 4 7 5 2 9 11 10 1 3 6
6 5 4 3 11 7 8 1 9 2 10
5 8 4 10 3 1 6 9 11 2 7
2 6 9 5 8 1 4 3 10 11 7
8 4 9 1 11 3 5 2 6 10 7
7 3 11 6 2 1 4 10 8 5 9
2 9 8 3 5 11 10 1 6 7 4
3 2 4 11 7 10 5 6 9 8 1
2 11 8 10 4 6 7 1 3 9 5
5 2 3 4 10 1 7 11 8 6 9
6 2 11 9 8 10 4 5 3 1 7
5 7 6 4 1 10 11 8 3 2 9
3 11 9 7 1 6 10 4 8 2 5
5 6 7 8 1 3 9 11 4 2 10
4 6 10 1 3 7 11 8 9 5 2
8 5 11 2 1 6 7 9 4 10 3
1 6 2 5 10 7 8 4 11 9 3

11
Hoover Hebert
Garfield Lindsay
Nixon Viall
Arthur Viall
Arthur Lindsay
Truman Taylor
Kennedy Viall
Obama Flajnik
Harrison Monroe
Coolidge Viall
Carter Monroe
5 7 3 9 2 10 11 1 4 8 6
5 8 3 1 2 6 11 7 9 10 4
11 10 4 5 3 1 6 7 8 2 9
7 8 11 9 10 2 3 1 6 5 4
5 9 10 1 7 11 8 3 6 2 4
6 7 8 1 10 3 9 4 2 5 11
4 8 3 7 5 1 10 11 2 6 9
6 11 8 3 4 5 7 1 2 9 10
11 9 7 10 4 8 3 5 6 1 2
7 10 9 11 4 6 8 5 1 3 2
4 8 9 7 10 6 5 3 2 1 11
11 3 6 4 7 5 1 10 2 9 8

7
Hoover Maynard
Kennedy Jefferson
Truman Lindsay
Taft Flajnik
Grant Buchannan
Garfield Pierce
Hayes Lincoln
7 4 3 5 2 6 1
4 2 3 6 5 1 7
4 7 3 5 2 6 1
3 5 7 4 2 6 1
4 2 1 3 5 6 7
7 1 5 2 4 6 3
1 7 2 6 5 4 3
7 3 5 4 6 1 2
7 5 4 6 2 1 3
6 7 2 3 5 1 4
6 4 7 2 3 5 1
1 5 2 4 6 7 3
6 2 7 1 5 3 4
7 5 2 6 3 1 4
2 1 6 4 5 7 3
6 3 5 7 4 2 1
5 4 7 1 3 2 6
7 3 1 5 6 2 4
6 7 3 2 1 5 4
4 2 7 5 1 3 6
2 5 6 3 1 7 4
5 6 7 2 1 3 4
3 1 5 6 2 7 4
1 2 4 6 7 3 5
4 6 2 1 7 3 5
7 1 6 5 2 4 3
4 7 5 2 3 1 6
2 7 3 6 5 1 4
7 5 4 3 6 1 2
7 1 4 3 2 6 5
4 6 3 7 2 5 1
4 7 6 5 3 2 1
7 1 5 3 2 6 4
5 2 7 3 6 4 1
5 4 7 6 3 1 2
3 2 7 1 4 5 6
1 7 3 2 5 6 4
7 6 2 3 5 1 4
3 6 7 5 4 2 1
3 5 4 6 1 7 2
3 4 6 7 5 2 1
1 5 7 4 3 6 2
6 1 4 7 3 2 5
3 5 7 4 6 1 2
7 3 4 6 1 2 5
7 5 4 1 6 3 2
3 5 6 2 1 7 4
5 4 6 3 2 1 7
1 6 7 3 2 5 4

14
Clinton Higgins
Biden Buchannan
Obama Pierce
Harrison Fletcher
Wilson Pierce
Harding Kufrin
Biden Pierce
Clinton Monroe
Wilson Fletcher
Johnson Kufrin
Nixon Hebert
Cleveland Taylor
Bush Lowe
Carter Maynard
1 9 14 13 4 10 12 7 11 8 6 3 5 2
3 4 11 9 1 12 2 6 10 5 8 7 13 14
5 8 9 4 7 10 1 6 11 3 13 14 2 12
5 8 11 2 6 12 13 9 14 1 10 3 7 4
9 12 10 3 2 6 8 7 14 4 11 1 13 5
8 3 13 7 5 2 12 14 11 6 10 9 1 4
11 7 5 1 14 3 13 2 10 6 4 12 9 8
10 7 14 12 8 13 3 11 2 5 6 1 9 4
12 13 5 6 14 8 9 1 7 4 10 11 2 3
9 7 3 1 13 14 2 6 10 8 5 12 4 11
3 12 5 6 9 1 8 10 4 11 14 13 2 7
13 10 5 9 7 4 12 8 2 14 3 11 1 6
2 11 8 13 14 12 3 1 5 7 6 4 10 9
9 11 12 14 4 6 3 7 10 8 13 2 1 5
2 3 10 9 5 12 11 7 8 14 1 4 6 13

8
Jackson Flajnik
Wilson Higgins
Kennedy Lindsay
Trump Higgins
Bush Pierce
McKinley Lindsay
Carter Brown
Bush Buchannan
7 2 8 1 4 3 6 5
5 7 2 4 6 1 8 3
5 3 2 1 4 7 8 6
5 2 4 3 8 6 7 1
8 6 4 1 5 3 2 7
1 6 5 4 8 2 7 3
1 5 4 6 3 7 8 2
1 3 2 6 7 4 5 8
8 7 4 3 5 6 1 2
5 6 4 8 7 3 1 2
3 8 6 4 1 7 2 5
8 2 6 4 1 3 7 5
3 6 5 2 7 4 8 1
2 4 1 7 5 8 6 3
3 1 2 4 8 5 7 6
8 4 6 5 7 2 1 3
1 8 2 6 4 3 7 5
4 6 1 7 2 8 5 3
4 7 5 6 3 1 2 8
4 8 2 6 1 7 3 5
6 1 4 3 7 5 2 8
6 8 7 4 2 1 3 5
7 1 2 4 6 5 8 3
8 4 5 1 6 3 7 2
3 6 4 5 1 2 7 8
2 8 3 4 7 6 1 5
5 3 1 6 2 8 4 7
7 5 2 1 3 8 4 6
4 1 2 7 5 6 3 8
7 8 5 4 3 1 2 6
2 5 6 4 1 3 7 8
1 8 2 4 6 3 7 5
5 2 1 4 7 8 6 3
7 3 1 6 5 8 4 2
2 5 7 1 8 3 4 6
1 5 3 4 8 6 7 2
5 1 4 3 6 7 2 8
5 6 1 3 7 2 4 8
4 8 6 3 5 2 7 1
7 2 5 1 4 3 8 6
8 7 1 5 3 2 4 6
8 7 2 6 5 3 1 4
7 6 8 5 3 2 4 1
2 7 3 5 6 4 8 1

6
Truman Fillmore
Obama Bristowe
Clinton Maynard
McKinley Higgins
Harrison Lindsay
Obama Taylor
5 1 4 2 3 6
3 6 1 2 5 4
1 2 5 6 3 4
1 2 4 6 5 3
2 5 4 6 3 1
3 6 5 1 4 2
3 2 4 5 6 1
3 2 4 1 5 6
4 1 6 3 2 5
2 3 6 4 5 1
2 5 3 4 1 6
5 6 4 1 3 2
5 3 1 6 4 2
1 5 3 6 2 4
4 1 3 6 5 2
2 6 3 1 5 4
2 6 3 5 1 4
4 5 3 6 1 2
4 3 2 5 6 1
3 5 6 1 4 2

5
Eisenhower Kufrin
Johnson Buchannan
Biden Bristowe
Johnson Soules
Bush Underwood
2 5 1 4 3
3 2 1 4 5
3 2 4 1 5
2 4 3 1 5
5 1 3 4 2
3 5 2 4 1
1 5 3 4 2

10
Harding Dorfman
Ford Lowe
Bush Fletcher
Wilson Bristowe
Coolidge Underwood
Grant Taylor
Trump Polk
Garfield Dorfman
Taft Kufrin
Johnson Brown
5 8 2 1 4 3 6 7 10 9
10 1 5 4 2 9 8 6 7 3
7 1 6 5 3 9 4 8 2 10
1 8 4 10 2 6 5 7 9 3
9 2 5 8 3 6 1 4 10 7
6 3 7 10 9 2 4 1 5 8
10 9 2 1 3 8 7 5 4 6
2 3 4 7 1 5 6 10 8 9
1 6 2 4 3 9 8 7 10 5
6 2 1 10 8 9 3 5 7 4
4 5 6 2 1 9 8 7 10 3
3 4 10 1 8 5 2 6 7 9
8 7 5 2 9 1 4 10 3 6
3 4 10 1 6 8 7 5 9 2
7 9 6 1 8 5 2 3 4 10
6 8 5 4 1 3 2 9 7 10
5 9 2 6 3 10 7 8 1 4
3 5 8 4 6 7 9 10 1 2
10 9 7 8 4 2 3 1 6 5
2 8 6 7 1 5 9 10 3 4
5 8 3 6 2 4 1 7 10 9
4 1 2 9 7 10 6 3 5 8
5 2 1 7 6 10 4 8 9 3
10 2 8 4 9 6 3 7 1 5
10 4 9 8 7 3 5 6 2 1
7 5 8 2 9 10 1 4 3 6
5 8 2 10 7 1 6 9 4 3
3 2 7 8 1 6 10 9 4 5
10 7 2 9 6 3 8 4 5 1
9 8 3 4 10 7 6 1 2 5
3 2 9 10 4 8 5 7 1 6
1 6 9 7 3 10 2 5 8 4

10
Harrison Soules
Clinton Hartsock
Garfield Taylor
Jackson Lowe
Obama Jefferson
Arthur Dorfman
Arthur Maynard
Truman Lincoln
Coolidge Washington
Obama Dorfman
1 9 10 2 7 3 4 5 6 8
6 10 2 9 4 7 1 8 5 3
6 4 1 3 5 2 7 8 10 9
8 6 2 7 10 4 5 9 1 3
8 2 4 5 1 6 10 9 3 7
6 8 4 3 5 7 9 10 2 1
1 2 10 4 7 8 5 9 6 3
5 3 10 7 1 9 4 2 6 8
1 2 6 10 9 8 5 3 7 4
3 10 1 6 5 2 7 9 8 4
3 9 10 5 4 6 7 2 8 1
8 4 10 2 6 9 1 7 3 5
3 9 7 4 5 8 1 10 2 6
7 1 5 8 9 3 2 6 4 10
3 4 5 9 2 7 1 8 10 6
1 7 6 4 3 10 8 5 2 9
10 2 1 9 6 4 8 5 7 3
8 3 9 10 7 6 2 1 4 5
6 3 1 5 8 4 7 9 2 10
1 7 10 5 8 2 9 3 4 6
1 6 7 10 9 5 4 8 2 3
4 5 3 7 9 8 6 10 1 2
10 2 5 7 6 8 9 1 3 4
2 8 1 6 9 7 10 4 5 3
5 8 1 2 7 6 3 9 10 4
10 1 2 9 4 8 3 7 6 5
2 9 3 8 5 6 1 7 4 10
8 7 6 10 3 4 2 5 9 1
10 2 4 8 7 3 5 6 9 1
3 1 10 2 5 9 8 4 6 7
2 6 8 1 5 9 7 4 10 3

18
Taft Viall
Carter Maynard
Arthur Madison
Reagan Higgins
Clinton Brown
Eisenhower Kufrin
McKinley Jefferson
Johnson Viall
Kennedy Adams
Bush Luyendyk
Taft Monroe
Ford Monroe
Cleveland Viall
Arthur Underwood
Jackson Taylor
Carter Adams
Trump Washington
McKinley Viall
7 13 1 12 8 11 15 14 18 4 10 5 2 6 9 3 16 17
1 6 7 13 2 8 10 12 14 15 4 5 3 9 16 17 11 18
3 13 14 9 16 5 8 7 2 4 11 17 18 15 6 10 1 12
10 17 5 16 1 3 8 9 15 2 14 13 11 12 18 7 6 4
17 7 16 18 9 13 5 2 11 10 4 8 3 15 12 1 6 14
13 1 15 9 18 7 14 17 2 4 3 6 8 16 10 5 11 12
18 11 5 13 9 17 6 14 10 4 7 8 3 16 15 2 12 1
15 14 2 18 3 8 5 10 12 11 7 16 13 9 4 1 17 6
11 10 2 6 15 16 9 12 18 8 3 17 14 7 5 1 4 13
6 11 9 14 4 1 10 16 13 3 7 2 5 12 15 18 17 8
12 16 8 3 14 18 1 9 10 13 17 4 2 6 15 5 7 11
8 4 3 17 12 14 5 13 1 15 11 2 6 10 7 16 18 9
4 10 16 13 7 3 6 2 12 1 15 17 5 11 8 18 9 14
14 18 13 11 1 17 15 2 12 8 9 7 4 3 10 6 16 5
5 8 12 2 18 11 1 14 6 7 13 3 15 4 16 9 17 10
15 9 14 16 7 3 11 8 17 4 1 2 6 5 10 12 18 13
10 13 3 6 18 4 12 9 11 15 17 1 14 5 2 16 8 7
2 12 17 6 14 4 16 10 3 1 7 13 8 11 15 5 9 18
11 18 10 12 3 2 7 1 6 5 15 17 13 14 9 4 16 8
15 5 8 13 4 6 11 12 1 16 3 7 14 9 10 18 17 2
16 2 9 5 7 4 14 1 8 6 10 3 13 12 18 17 15 11
8 4 3 9 13 6 5 10 2 1 14 15 18 16 12 17 11 7
2 11 1 4 16 14 13 12 18 5 15 7 10 3 9 8 17 6
4 8 13 5 6 1 14 12 2 18 3 9 7 15 17 10 16 11
12 11 1 16 15 14 4 7 17 10 9 13 18 5 8 2 6 3
15 18 4 9 1 6 13 12 14 16 2 8 3 11 7 17 10 5
2 4 13 1 8 18 6 16 7 9 10 14 11 5 12 17 3 15
7 3 16 4 12 11 6 15 8 17 9 1 10 5 14 13 2 18
13 12 15 14 11 6 4 10 5 2 1 18 17 3 9 8 7 16
10 3 8 12 9 18 5 16 11 15 2 4 1 17 14 6 13 7
3 16 6 15 1 5 2 7 9 8 18 14 13 4 10 12 17 11
16 4 6 7 14 15 8 1 13 3 18 10 11 2 12 9 17 5
10 15 5 9 12 6 7 2 4 11 16 8 1 3 14 13 17 18
7 9 11 5 14 16 10 6 12 4 8 3 15 13 1 2 18 17
8 16 10 18 17 13 15 12 5 9 1 2 11 4 7 6 3 14
6 11 4 3 1 2 12 13 18 15 14 10 17 7 9 8 5 16
10 9 8 3 1 6 13 14 12 15 17 2 5 18 7 16 11 4
6 4 12 8 13 16 3 10 9 7 14 5 18 2 15 1 17 11
14 6 8 4 13 11 5 10 12 3 18 1 15 2 9 7 17 16
7 13 18 9 3 6 5 16 8 15 10 1 12 17 2 4 11 14
8 2 11 12 4 10 5 9 3 1 15 14 16 7 6 17 18 13
14 15 9 3 7 10 5 18 12 17 8 1 6 16 2 13 4 11
5 2 18 9 8 10 17 4 13 7 11 12 3 15 14 1 6 16
15 10 13 12 9 2 16 1 3 17 8 11 7 18 4 14 5 6
12 2 14 15 5 10 1 6 18 11 9 16 13 3 4 8 7 17
7 13 14 9 10 18 1 5 4 2 12 15 8 17 11 3 6 16
14 9 10 4 15 11 8 7 6 2 1 12 18 3 16 5 13 17
1 18 9 13 5 16 2 3 7 17 4 10 14 6 8 11 15 12
11 18 16 2 7 6 3 15 9 5 14 12 13 8 1 4 10 17
16 5 14 9 18 8 3 7 17 2 13 4 15 6 1 11 12 10
1 16 8 18 11 3 15 17 5 13 7 14 4 6 12 2 10 9
9 8 17 5 13 3 14 6 10 15 1 2 16 4 12 18 7 11
5 2 6 9 1 8 13 16 3 4 18 11 12 17 14 7 10 15
9 13 5 16 10 8 2 1 7 3 6 15 17 11 12 14 18 4

14
McKinley Tyler
Hoover Fillmore
Cleveland Tyler
Arthur Soules
Kennedy Tyler
Clinton Dorfman
Reagan Jefferson
Reagan Lowe
Bush Pierce
Cleveland Madison
Ford Hebert
Eisenhower Fletcher
Biden Luyendyk
Johnson Soules
12 11 2 4 13 1 3 7 8 9 6 14 10 5
4 10 3 9 14 6 1 5 12 2 11 8 13 7
11 4 10 9 12 2 13 7 3 5 14 6 8 1
3 12 13 9 7 14 11 6 10 8 2 1 5 4
8 11 2 1 5 7 9 10 3 13 6 4 14 12
12 5 6 8 4 9 2 11 13 3 1 14 10 7
3 10 5 11 12 13 4 1 8 2 14 9 7 6
1 11 12 13 10 8 7 4 5 3 6 9 2 14
9 8 6 12 3 10 7 5 11 4 13 1 14 2
14 5 11 7 4 8 1 6 13 2 3 12 10 9
6 11 8 7 9 4 10 13 12 14 5 1 2 3
1 9 8 13 6 3 2 5 7 10 4 12 11 14
6 10 9 11 2 14 3 12 1 4 13 8 5 7
12 8 7 9 3 1 11 13 2 6 14 10 5 4
7 12 13 8 3 4 14 6 9 10 1 2 5 11
6 13 11 8 5 10 7 9 4 12 3 2 1 14
6 8 14 12 11 4 9 5 2 3 7 1 13 10
8 4 13 3 10 2 5 6 12 11 7 14 1 9
1 14 9 4 3 6 2 10 5 8 12 7 13 11
4 14 10 13 6 8 11 2 5 7 9 12 3 1
3 1 8 5 10 7 4 11 2 6 13 9 12 14
2 9 12 7 13 14 11 3 6 1 4 8 5 10
7 14 2 13 12 10 11 6 1 9 5 3 8 4
11 3 2 9 5 6 7 14 10 1 4 12 8 13
10 1 9 11 7 12 5 6 4 2 3 13 8 14
4 12 1 9 7 13 10 5 3 11 8 2 14 6
5 1 11 14 8 6 9 7 10 2 3 13 4 12
7 2 9 12 8 3 10 11 4 5 6 13 1 14
8 7 10 2 1 5 3 6 12 9 14 11 4 13
12 6 5 10 1 3 8 2 4 7 13 9 14 11
13 3 14 11 5 4 2 6 10 8 9 1 12 7
7 2 11 1 10 4 9 5 13 12 14 3 6 8
10 1 5 6 3 9 13 8 4 14 12 2 11 7
12 1 8 14 6 7 13 4 5 10 11 3 2 9
4 13 1 2 9 10 6 11 8 7 3 5 14 12
8 6 4 1 7 5 2 13 11 12 14 10 9 3
13 2 6 5 3 12 10 9 11 14 1 7 8 4
8 4 13 3 9 6 10 7 2 12 14 11 1 5
11 14 12 3 9 4 10 6 8 13 7 1 2 5
3 4 7 1 2 12 11 14 8 9 6 13 10 5
4 8 3 1 14 2 10 11 9 5 7 6 13 12
8 5 9 13 1 2 3 4 14 10 6 7 12 11
3 8 11 1 6 12 10 5 13 7 2 4 9 14
11 5 4 1 3 8 2 14 6 12 10 9 7 13
11 1 9 13 6 5 7 2 12 3 4 10 8 14
6 4 7 11 9 5 12 8 14 13 10 2 1 3
1 9 8 12 3 10 5 4 11 6 13 14 2 7
5 8 3 6 14 7 1 9 2 10 12 11 13 4
13 12 14 5 6 4 11 1 2 3 10 7 8 9

19
Biden Hebert
Grant Lowe
Carter Taylor
Jackson Lincoln
Obama Kufrin
Reagan Soules
Nixon Lincoln
Roosevelt Viall
Carter Polk
Grant Washington
Garfield Hebert
Clinton Pierce
Reagan Washington
Bush Fillmore
Eisenhower Adams
McKinley Fletcher
Bush Hebert
Eisenhower Maynard
Harrison Hartsock
11 10 16 13 6 12 5 9 14 3 1 15 4 8 17 19 2 18 7
13 8 5 17 16 11 9 10 4 7 19 3 6 12 1 14 18 2 15
5 12 13 9 4 15 8 11 1 3 14 16 17 2 10 6 7 18 19
11 7 8 12 13 10 9 17 14 2 19 4 3 6 1 15 18 5 16
9 2 1 19 3 16 17 13 6 11 5 10 7 14 18 15 4 8 12
12 13 8 9 4 16 1 2 5 15 7 18 19 3 10 6 14 17 11
1 13 14 19 5 2 10 8 6 9 15 16 12 17 3 11 18 7 4
4 11 6 8 13 18 7 15 12 9 3 5 17 2 10 1 19 16 14
6 12 17 1 14 18 4 19 13 15 16 7 8 3 2 10 5 11 9
8 12 19 13 5 18 9 14 10 11 6 1 15 16 2 3 7 4 17
16 5 18 6 4 10 9 12 1 15 8 7 11 3 14 2 19 13 17
3 13 12 17 8 5 19 15 4 18 9 6 14 11 16 1 2 7 10

14
Hayes Underwood
Hayes Tyler
Hoover Soules
Roosevelt Jefferson
Biden Monroe
Hayes Higgins
Obama Adams
Truman Viall
Biden Lincoln
Grant Kufrin
Garfield Lowe
Kennedy Fletcher
Truman Pierce
Hayes Tyler
7 9 2 11 10 12 3 5 1 8 14 13 6 4
1 12 7 10 4 6 2 14 8 11 5 9 3 13
7 1 8 10 11 4 14 12 3 9 5 6 2 13
12 9 13 10 14 3 7 8 5 4 2 6 11 1
5 4 3 2 8 6 10 13 9 7 1 12 11 14
1 13 5 6 9 10 2 7 11 3 4 8 14 12
2 4 3 9 5 12 14 1 11 10 8 6 7 13
10 9 11 14 13 8 2 6 5 4 12 3 1 7
6 5 4 10 14 12 2 3 9 13 7 8 11 1
5 7 2 4 6 1 10 14 3 12 8 11 9 13
5 8 14 3 12 1 13 9 10 7 2 11 6 4
10 11 4 1 3 9 2 12 14 7 13 5 6 8

19
Cleveland Hartsock
Hayes Buchannan
Reagan Adams
McKinley Polk
Carter Madison
Hayes Bristowe
Grant Washington
Coolidge Taylor
Roosevelt Kufrin
Bush Fillmore
Trump Washington
Ford Taylor
Trump Maynard
Coolidge Brown
Nixon Buchannan
Clinton Flajnik
Trump Kufrin
Roosevelt Fletcher
Arthur Luyendyk
6 14 1 16 10 15 5 4 19 17 2 13 7 3 18 8 9 12 11
8 6 15 4 7 14 3 18 5 11 16 17 1 19 12 13 10 2 9
11 19 5 4 7 12 13 16 1 3 15 2 8 9 17 10 6 18 14
4 1 3 12 17 7 2 19 9 8 5 18 15 16 6 14 11 10 13
5 6 1 4 7 16 3 14 18 9 2 15 8 19 12 11 13 10 17
10 3 7 9 19 4 6 2 17 8 18 1 13 16 11 15 14 12 5
6 8 17 4 10 15 13 14 19 16 5 12 11 9 18 1 7 2 3
15 1 5 6 12 13 8 2 11 17 3 10 7 14 9 4 18 19 16
1 16 19 9 15 17 8 3 7 13 5 6 11 14 18 12 2 10 4
13 8 17 7 10 16 5 1 4 2 14 6 3 18 15 12 19 9 11
16 3 13 2 9 5 19 18 12 7 8 6 15 14 4 10 17 11 1
12 11 15 13 8 10 18 5 6 9 16 1 2 3 17 14 4 7 19
10 4 11 19 12 14 9 6 17 8 3 2 1 5 18 13 16 7 15
16 17 3 18 12 10 5 7 11 9 2 6 8 14 15 4 13 1 19
10 7 17 1 16 9 5 8 12 11 3 15 4 13 18 19 2 6 14
13 16 14 15 5 11 10 2 9 3 6 4 17 19 12 7 8 18 1
15 14 2 17 6 11 5 9 4 1 13 12 18 3 10 8 19 16 7
12 2 11 18 16 4 15 19 10 1 8 7 14 6 13 5 3 9 17
2 13 17 10 19 9 11 5 18 12 3 15 8 7 14 1 6 16 4
18 6 13 10 16 19 8 14 3 11 15 12 5 7 2 17 9 4 1
3 1 10 19 16 14 6 4 7 13 8 5 17 18 15 9 12 11 2

12
Clinton Lowe
Bush Hartsock
Hayes Taylor
Harding Lincoln
Nixon Tyler
Cleveland Flajnik
Johnson Maynard
Harrison Buchannan
Johnson Lindsay
Eisenhower Dorfman
McKinley Luyendyk
Jackson Hartsock
7 8 3 10 6 4 1 12 2 9 11 5
2 8 1 10 11 3 12 6 5 4 7 9
3 1 4 8 9 5 12 2 10 11 6 7
7 6 8 9 3 2 4 12 5 1 10 11
9 1 10 4 2 12 11 6 8 3 7 5
4 12 3 8 5 7 6 10 2 9 11 1
11 4 5 2 6 3 8 12 10 1 9 7
5 12 3 8 2 4 11 6 1 7 9 10
11 8 10 9 6 7 3 12 4 2 1 5
12 10 9 4 5 8 7 2 3 1 11 6
5 11 8 3 10 2 12 7 1 9 6 4
8 4 12 2 9 1 10 11 6 3 5 7
1 8 4 10 7 2 12 9 5 6 3 11
8 4 7 9 2 11 1 6 5 10 3 12
3 5 6 1 12 7 11 4 10 9 8 2
10 4 8 1 7 6 3 5 11 2 9 12
1 11 8 7 12 2 4 5 6 3 10 9
1 9 11 2 7 10 5 3 4 6 8 12
1 11 4 6 10 2 8 7 3 12 5 9
2 12 5 3 9 1 6 4 7 8 11 10
1 2 8 7 5 9 10 3 11 12 4 6
3 1 10 6 4 12 5 7 11 8 9 2
11 3 6 12 1 5 8 7 2 4 9 10
8 4 7 6 3 11 5 2 10 1 9 12
8 10 12 3 4 2 6 9 5 11 1 7
8 11 12 1 2 4 10 6 7 9 3 5
8 4 3 2 6 12 5 11 9 1 10 7
8 4 11 6 7 2 1 5 3 12 9 10
1 2 10 7 4 12 3 6 5 11 9 8
10 8 1 2 9 4 6 11 12 5 7 3
7 2 11 9 8 10 5 6 4 1 3 12
7 9 2 11 3 12 1 10 8 6 5 4
7 3 8 2 11 6 10 4 12 9 5 1
1 9 4 8 2 12 7 3 5 10 6 11
3 12 2 5 11 6 9 7 4 8 10 1
5 2 6 9 4 1 3 10 7 12 8 11
6 1 3 12 5 2 4 10 8 11 9 7
11 10 8 1 5 4 9 2 7 6 12 3
11 10 3 9 8 2 1 7 5 6 4 12
12 1 4 10 5 3 6 8 7 9 2 11
6 1 8 12 11 2 7 4 10 5 9 3
9 5 2 4 3 10 12 7 11 6 8 1
6 11 12 7 2 3 1 4 10 8 5 9
10 1 5 7 4 2 9 11 3 12 6 8
10 7 1 2 12 9 4 11 5 3 8 6
9 3 2 10 1 5 8 11 12 6 4 7
11 1 7 4 5 6 12 9 8 2 3 10
11 10 7 6 12 1 5 4 2 3 8 9
9 2 10 4 1 12 7 6 8 11 5 3
7 6 4 9 12 3 2 11 8 10 5 1
7 8 9 10 3 11 6 1 2 12 5 4
8 7 3 6 5 10 2 9 12 4 11 1
10 2 6 4 9 5 8 7 12 11 1 3
6 3 12 4 5 1 9 7 2 11 10 8
11 10 6 2 4 9 5 1 7 8 3 12
9 2 11 7 6 12 1 8 3 10 5 4
6 4 10 2 12 8 1 11 9 5 3 7
12 2 9 7 10 6 8 5 3 4 1 11
3 4 11 9 10 12 6 1 2 5 8 7

3
Arthur Hartsock
Carter Polk
Harding Monroe
2 3 1
2 3 1
2 3 1
3 2 1
3 1 2
3 1 2
3 2 1
1 3 2
2 3 1
3 2 1
3 2 1
1 3 2

15
Coolidge Fillmore
Eisenhower Buchannan
Carter Bristowe
Garfield Lowe
Trump Hartsock
Garfield Lincoln
Harrison Bristowe
Kennedy Hebert
Trump Brown
Hoover Polk
Jackson Buchannan
Trump Bristowe
Taft Viall
Obama Maynard
Harding Luyendyk
6 1 7 4 5 10 14 11 2 15 8 9 13 12 3
6 12 14 5 3 9 2 7 13 1 15 8 10 4 11
11 5 12 7 15 14 6 10 3 1 9 8 13 4 2
4 2 10 15 7 5 9 14 11 1 8 13 6 3 12
3 8 15 4 5 14 2 1 10 6 12 13 9 11 7
3 13 1 5 11 15 2 12 4 7 14 8 10 9 6
9 2 12 8 5 13 11 14 4 7 10 6 15 3 1

9
Garfield Dorfman
Bush Luyendyk
Hoover Monroe
Garfield Underwood
Biden Flajnik
McKinley Buchannan
Taft Washington
Hoover Lowe
Arthur Lindsay
5 2 8 9 1 3 6 4 7
9 2 4 7 5 1 8 3 6
3 9 6 8 7 5 1 4 2
2 6 7 3 9 5 8 4 1
7 4 2 6 8 5 9 3 1
9 4 8 7 3 1 5 2 6
7 6 9 4 5 8 3 1 2
4 9 8 1 5 6 3 2 7
4 2 3 1 7 6 9 8 5
3 4 5 1 8 2 6 7 9
8 3 2 7 4 9 1 6 5
1 4 5 3 2 6 8 7 9
3 7 2 5 4 1 6 8 9
5 9 7 1 8 3 6 2 4
5 1 7 6 2 9 8 4 3
4 5 2 1 3 6 7 9 8
9 8 5 7 6 3 1 2 4
5 8 2 4 6 1 9 7 3
5 9 1 4 3 8 7 2 6
4 7 5 8 1 9 3 2 6
2 3 9 4 1 6 5 7 8
3 8 4 2 7 1 5 9 6
2 4 8 6 5 7 1 3 9
5 3 8 2 7 4 6 1 9
3 9 4 8 2 6 7 5 1
5 3 8 7 1 6 2 9 4
6 4 9 7 5 2 8 3 1
7 2 9 8 1 3 5 6 4
5 6 2 7 4 8 3 9 1
2 7 9 8 1 4 5 6 3
4 8 1 5 2 7 6 3 9
4 7 6 5 3 2 9 8 1
9 5 4 7 1 2 8 6 3
6 5 3 4 2 8 1 7 9
6 7 4 2 8 3 1 5 9
8 1 7 3 9 2 6 4 5
1 7 8 3 9 2 5 4 6
3 1 9 6 4 5 2 8 7
3 8 4 7 1 5 2 6 9
9 2 8 5 3 4 7 1 6
4 2 7 8 3 6 9 5 1
4 8 5 3 2 1 9 7 6
2 7 3 8 6 4 5 9 1
8 5 7 1 3 4 9 6 2
9 7 2 8 5 6 4 1 3
3 9 6 4 7 8 5 2 1
2 1 4 7 5 8 9 6 3
4 1 8 3 7 9 2 5 6
6 9 4 5 1 7 3 2 8
7 3 8 9 5 1 6 2 4

15
Trump Adams
Jackson Viall
Jackson Fillmore
Grant Higgins
Clinton Viall
Coolidge Dorfman
Roosevelt Tyler
Hayes Brown
Hayes Monroe
Wilson Higgins
Roosevelt Pierce
Carter Higgins
Arthur Soules
Biden Underwood
Bush Underwood
2 8 9 12 4 5 13 14 1 7 10 3 11 6 15
12 1 9 4 11 13 7 14 15 6 10 2 8 3 5
13 5 7 3 2 14 12 1 8 15 4 10 11 6 9
15 9 12 13 10 1 5 2 14 11 7 6 3 4 8
9 12 1 2 8 7 14 13 15 6 4 5 11 10 3
3 10 15 7 8 12 4 5 1 13 14 11 6 2 9
4 11 13 10 6 9 1 2 7 5 14 12 3 8 15
15 8 6 1 5 3 4 10 11 12 13 2 7 9 14
2 3 8 1 11 12 9 5 7 4 6 14 10 13 15
1 10 6 13 9 15 12 11 8 3 7 5 4 2 14
8 5 14 12 7 9 3 1 11 2 10 4 6 15 13
11 10 12 14 6 2 15 13 5 4 9 1 8 7 3
7 13 8 6 1 15 9 11 2 14 12 4 3 10 5
10 14 6 12 4 5 1 9 11 8 13 2 3 7 15
11 6 15 3 8 10 12 1 7 9 5 4 2 13 14
13 2 6 9 15 4 1 14 5 8 7 10 11 12 3
15 12 14 2 4 3 13 1 6 10 7 11 5 8 9
8 15 13 1 9 12 11 7 6 2 10 5 14 3 4
10 3 8 15 14 2 1 9 4 6 5 11 7 12 13
14 6 2 1 5 7 9 11 13 15 12 4 10 8 3
12 8 5 6 3 13 4 10 9 15 11 1 14 7 2
13 3 6 12 8 15 14 5 4 2 7 11 10 9 1
8 13 5 1 6 2 3 9 4 7 11 15 12 10 14
4 8 10 5 2 11 1 9 12 3 13 15 14 6 7
2 10 11 7 4 5 15 9 14 13 12 3 8 1 6
8 7 9 11 1 10 12 4 2 13 6 15 14 3 5
13 4 1 10 14 7 11 15 12 5 3 2 8 6 9
5 2 12 10 15 7 8 11 9 6 4 14 1 3 13
9 2 14 1 4 3 10 13 15 12 8 6 11 7 5
3 4 8 13 10 14 6 7 12 15 1 9 5 2 11
7 15 1 4 9 8 13 2 11 6 14 3 12 5 10
4 6 9 8 7 11 1 12 5 10 3 15 14 13 2
7 15 1 5 14 10 2 9 6 3 8 12 11 13 4
13 5 14 1 15 11 9 12 7 8 10 6 4 2 3
12 14 13 9 11 15 3 8 10 4 7 2 5 1 6
14 3 15 2 12 4 10 13 11 9 7 6 8 1 5
15 8 3 5 14 12 6 4 1 2 13 9 10 11 7
14 11 3 13 8 1 12 6 2 7 15 4 10 9 5
6 4 14 3 10 9 13 8 15 1 7 5 11 2 12
1 13 10 15 4 12 5 8 9 6 7 2 11 3 14
14 6 15 13 12 9 3 7 5 11 10 4 2 8 1
13 1 10 7 8 5 12 11 4 2 6 14 15 3 9
2 11 7 1 3 9 14 13 4 15 6 8 12 10 5
1 2 5 13 7 9 14 10 11 6 4 8 3 12 15
9 7 3 15 1 6 13 4 11 12 5 14 8 2 10
9 14 5 3 15 6 8 12 10 4 1 7 11 2 13
11 13 9 12 4 10 14 1 8 15 2 5 6 3 7
2 11 3 6 8 9 12 14 5 10 1 7 15 4 13
13 14 9 10 8 1 5 15 11 7 12 2 3 4 6
12 3 13 10 9 1 2 4 15 8 11 5 6 14 7
15 4 13 10 8 1 6 2 11 5 12 7 14 3 9
6 9 15 12 4 10 2 1 13 8 14 11 7 3 5
8 15 12 10 5 3 6 14 2 4 11 13 9 1 7
12 9 4 15 3 6 1 2 8 14 10 7 13 5 11
12 14 6 8 7 15 2 9 13 11 10 4 5 3 1
2 9 4 15 13 5 1 7 10 14 12 8 6 11 3

5
Roosevelt Luyendyk
Truman Lowe
Coolidge Fillmore
Reagan Fletcher
Reagan Monroe
4 1 5 2 3
4 1 2 3 5
1 4 5 2 3
1 2 5 4 3
4 5 2 3 1
2 4 1 3 5
4 3 1 5 2
2 1 3 5 4
4 2 5 3 1
1 4 5 3 2
2 3 4 5 1
1 5 4 2 3
5 1 4 3 2
2 3 1 5 4
3 4 1 5 2
3 5 2 4 1
4 1 5 2 3
3 5 2 1 4
3 1 5 4 2
1 4 5 3 2
1 2 4 3 5
3 2 5 4 1
3 1 2 5 4
1 5 2 3 4
2 1 3 4 5
5 2 3 1 4
2 4 1 5 3
2 1 5 3 4
1 4 3 2 5
3 1 2 5 4
1 4 2 3 5
2 4 3 5 1
3 2 5 4 1
1 5 2 3 4
1 5 4 3 2
5 3 2 4 1
5 2 1 4 3
2 4 5 1 3
5 4 2 1 3
3 2 4 1 5
4 2 5 1 3
2 3 4 1 5
2 3 1 4 5
5 1 4 2 3
3 4 1 2 5
1 5 4 2 3
4 2 1 5 3
3 2 1 4 5
2 4 3 5 1
5 1 4 3 2
1 2 4 5 3
2 3 1 4 5
4 1 2 3 5
1 4 5 2 3
3 1 4 2 5
4 1 2 3 5

2
Arthur Buchannan
Taft Lindsay
2 1
2 1
2 1
1 2
1 2
2 1
1 2
1 2
2 1
1 2

12
Kennedy Taylor
Carter Buchannan
Garfield Brown
Hoover Dorfman
Roosevelt Hartsock
Cleveland Underwood
McKinley Viall
Truman Pierce
Harrison Dorfman
Biden Adams
Bush Flajnik
Carter Monroe
9 7 11 12 10 2 4 3 5 8 1 6
9 7 3 5 4 2 6 12 8 1 10 11
10 5 2 4 11 1 6 3 12 9 7 8
2 5 11 10 9 6 3 7 8 4 1 12
2 12 7 5 8 10 9 1 11 4 6 3
6 7 4 3 10 8 2 12 9 1 11 5
5 12 10 2 11 7 1 6 8 4 3 9
11 6 7 12 5 4 10 1 9 8 2 3
1 12 6 3 8 9 10 4 2 5 7 11
1 6 11 2 9 8 4 5 12 10 3 7
8 3 10 6 5 7 11 1 4 12 9 2
5 4 10 9 7 12 11 2 1 8 6 3
4 6 5 10 2 8 1 12 7 3 9 11
9 4 6 3 2 5 1 10 12 8 11 7
2 1 11 12 7 3 6 9 4 10 5 8
4 7 6 12 1 8 2 9 10 5 11 3
5 8 4 6 12 1 11 2 7 9 3 10
8 3 5 1 4 9 6 12 10 11 2 7
10 12 5 4 3 11 7 2 6 8 9 1
12 1 8 10 6 9 4 11 3 7 5 2
8 9 10 4 5 3 2 6 11 1 12 7
3 11 2 8 9 5 6 7 12 1 4 10
9 3 12 1 2 10 4 7 8 5 6 11
5 1 2 8 10 7 11 12 3 4 9 6
11 10 6 7 3 8 5 9 2 1 4 12

9
Trump Bristowe
Wilson Monroe
Clinton Jefferson
Obama Fillmore
Obama Washington
Taft Lindsay
Clinton Adams
Arthur Washington
Ford Taylor
3 7 2 6 1 9 4 5 8
5 4 8 3 9 2 6 1 7
2 1 5 6 4 8 7 9 3
5 1 8 2 3 9 7 4 6
2 4 6 8 5 1 9 3 7
7 8 6 2 3 1 9 4 5
1 3 8 5 4 7 2 9 6
4 5 9 8 3 1 6 2 7
6 5 7 9 4 1 2 8 3
9 6 1 8 4 2 3 7 5
9 4 1 2 7 8 3 6 5
3 9 4 5 6 2 8 7 1
3 7 8 2 9 6 1 4 5
7 8 2 5 3 1 4 9 6
5 2 1 3 9 4 7 6 8
1 5 6 3 8 7 4 2 9
8 7 2 4 5 1 9 3 6
7 5 1 3 9 2 8 6 4
7 9 4 6 3 2 8 5 1
5 2 8 9 7 1 3 6 4
8 4 6 2 9 1 7 3 5
3 7 2 8 1 9 6 5 4
2 8 1 4 9 5 3 7 6
1 9 2 5 8 3 4 7 6
2 4 1 8 6 3 5 7 9
2 9 4 7 6 3 1 8 5
9 4 8 2 3 6 5 1 7
6 7 9 5 1 2 3 4 8
1 3 7 9 4 8 6 2 5
4 6 7 2 9 3 5 1 8
3 5 6 2 9 1 7 4 8
1 2 8 5 7 3 6 4 9
9 1 7 6 5 8 4 3 2
5 7 9 6 4 1 8 2 3
6 4 1 8 7 5 3 9 2
3 7 2 6 8 1 5 9 4
7 5 1 3 9 2 8 6 4
2 4 6 8 3 5 7 9 1
3 9 7 6 2 1 5 4 8
3 4 6 2 7 1 9 8 5
2 3 9 4 1 8 5 6 7
9 6 8 7 4 5 3 1 2
5 2 8 3 1 9 6 4 7

20
Carter Madison
Biden Washington
Hoover Polk
Roosevelt Washington
Wilson Lincoln
Grant Underwood
Bush Brown
Hayes Viall
Harrison Lindsay
Reagan Polk
Nixon Higgins
Obama Jefferson
Bush Lincoln
Hoover Monroe
Hayes Monroe
Grant Fletcher
Carter Viall
Hoover Bristowe
McKinley Adams
McKinley Viall
10 1 15 6 16 11 20 17 5 14 3 19 13 7 9 4 12 2 18 8
15 2 12 5 10 20 6 13 11 17 18 4 9 19 16 8 14 1 7 3
16 14 9 5 19 20 7 13 18 17 6 11 12 4 10 3 1 8 15 2
3 18 6 19 14 15 16 5 9 4 1 12 7 10 11 17 20 8 2 13
13 2 3 11 18 19 9 14 17 4 6 12 20 7 5 1 15 16 8 10
10 14 8 18 19 13 2 5 4 16 11 9 20 17 15 6 12 1 7 3
2 13 4 14 16 1 11 19 18 7 9 3 6 12 17 15 8 5 10 20
1 12 20 7 9 8 18 19 13 14 15 16 5 17 3 2 11 4 6 10
15 8 12 18 3 6 16 17 14 13 11 5 7 9 10 4 2 20 1 19
12 17 11 7 4 6 15 2 14 16 18 19 8 9 13 20 10 3 1 5

17
Grant Maynard
Harding Maynard
McKinley Soules
McKinley Brown
Hoover Hebert
McKinley Pierce
Garfield Hebert
Kennedy Monroe
Reagan Luyendyk
Reagan Taylor
Roosevelt Madison
Wilson Lowe
Carter Tyler
Coolidge Luyendyk
Harrison Lincoln
Coolidge Hartsock
Harding Polk
7 14 10 9 12 11 6 4 16 3 13 15 17 8 2 5 1
11 15 2 3 13 12 7 17 5 9 6 4 10 14 1 16 8
12 11 9 17 7 16 6 10 2 8 4 3 5 14 15 13 1
17 1 5 11 9 3 13 10 12 15 4 6 8 7 16 14 2
5 6 11 3 14 9 13 2 7 17 10 15 16 12 1 8 4
10 15 2 11 3 12 7 17 9 14 16 8 1 6 13 5 4
11 14 8 5 2 9 6 3 16 1 17 15 13 4 12 7 10

10
Reagan Kufrin
Kennedy Luyendyk
Hoover Hartsock
Harrison Adams
Ford Fillmore
Trump Viall
Kennedy Soules
Taft Kufrin
Grant Higgins
Trump Lincoln
3 9 1 2 10 8 5 4 6 7
9 6 10 7 8 5 1 2 3 4
3 5 2 9 10 7 4 6 1 8
9 5 8 4 10 7 6 3 2 1
4 3 1 2 6 5 9 10 8 7
5 6 2 8 3 1 7 9 10 4
4 6 9 10 7 3 8 5 2 1
3 7 1 4 6 8 9 10 2 5
9 7 3 4 2 8 10 6 1 5
8 10 6 3 4 7 5 1 2 9
7 8 3 1 9 4 5 10 6 2
2 7 4 5 1 6 10 9 3 8
6 3 4 1 9 7 5 10 8 2
6 8 1 7 10 2 4 3 9 5
9 2 7 6 1 5 10 3 8 4
10 8 7 5 4 2 9 1 3 6
8 6 10 2 1 4 3 5 9 7
10 1 5 3 8 2 7 4 9 6
9 4 7 10 1 5 8 3 6 2
1 8 4 3 10 2 5 6 7 9
6 5 4 3 8 2 10 9 1 7
5 2 3 7 9 8 10 4 1 6
4 6 2 7 5 10 3 8 1 9
6 9 1 5 7 2 3 10 4 8
2 1 5 7 9 6 10 4 8 3
2 9 6 4 10 1 5 8 7 3
2 8 5 3 7 10 1 6 9 4
6 7 3 9 2 1 5 10 4 8
8 2 9 5 1 7 6 3 4 10
9 3 8 2 5 6 7 4 10 1
6 8 2 5 3 10 7 1 9 4
5 2 6 9 10 1 7 3 8 4
6 1 10 9 4 3 2 5 7 8
7 2 10 6 1 8 9 5 4 3
1 6 4 7 3 8 9 10 5 2
3 5 1 10 9 2 8 6 7 4
5 6 4 8 10 3 7 1 9 2
5 9 2 4 6 8 1 10 7 3
2 4 5 1 7 10 6 8 9 3
8 4 9 10 3 5 7 6 2 1
8 7 5 1 2 4 9 10 3 6
7 3 10 4 6 1 5 8 2 9
6 7 8 4 2 1 3 10 5 9
8 6 1 9 4 7 10 5 3 2
8 3 4 1 7 5 6 10 9 2
1 10 4 7 9 8 2 3 6 5
10 7 4 5 8 9 1 2 3 6
8 3 2 9 1 7 5 4 6 10
1 4 9 3 2 10 5 6 8 7
6 3 7 4 10 8 9 1 5 2
3 4 1 2 10 5 8 9 6 7
6 2 4 9 5 1 10 8 7 3
6 8 2 9 7 3 5 10 4 1
4 3 7 6 8 2 10 5 1 9
1 3 7 2 10 4 6 5 8 9
1 7 3 10 8 2 4 9 5 6

3
Trump Monroe
Nixon Monroe
Johnson Lowe
3 1 2
2 3 1
2 1 3
3 1 2
2 1 3
1 3 2
2 3 1
1 3 2
1 2 3
3 2 1
2 1 3
1 3 2
2 1 3
2 3 1
2 3 1
2 3 1
2 3 1
2 1 3
3 2 1
2 3 1
1 2 3
1 2 3
2 1 3
1 2 3
3 2 1
1 2 3
1 2 3
3 2 1
1 2 3
2 3 1
3 2 1
1 3 2
1 2 3
3 2 1
1 3 2
1 3 2
2 3 1
2 1 3
1 3 2
3 2 1
3 1 2
1 3 2
2 1 3

19
Trump Higgins
McKinley Washington
Johnson Madison
Truman Monroe
Clinton Jefferson
Cleveland Hartsock
Harding Tyler
Johnson Adams
Carter Fletcher
Trump Tyler
Arthur Buchannan
Carter Luyendyk
Trump Kufrin
Wilson Luyendyk
Coolidge Brown
Jackson Lincoln
Clinton Luyendyk
Johnson Hartsock
Hayes Fletcher
7 11 10 8 13 18 5 17 2 3 12 15 16 1 9 14 6 4 19
9 16 7 6 3 10 14 15 18 2 13 17 1 5 8 11 19 4 12
5 11 9 17 4 2 7 16 12 6 3 13 19 14 18 8 1 15 10
9 17 16 13 3 4 19 8 18 7 1 6 15 14 10 5 2 12 11
12 5 15 13 11 2 19 1 8 4 18 7 10 9 14 17 16 3 6
11 10 9 13 12 4 15 3 5 18 7 6 8 16 14 17 19 1 2
5 19 16 8 2 3 14 18 17 15 6 12 13 10 1 9 7 11 4
8 15 1 5 10 11 13 14 17 9 7 3 12 19 16 4 18 6 2

11
Jackson Polk
Grant Fletcher
Taft Tyler
Clinton Brown
Harding Buchannan
Grant Buchannan
Carter Jefferson
Eisenhower Lincoln
Obama Lowe
Kennedy Washington
Harrison Jefferson
5 10 1 4 7 6 3 2 9 8 11
2 6 3 10 7 8 4 5 9 1 11
4 1 2 10 3 9 11 6 8 7 5
11 7 4 6 3 1 10 9 5 2 8
10 6 1 4 8 3 9 2 7 5 11
2 5 10 7 11 9 6 1 4 8 3
9 10 7 5 11 6 3 8 1 4 2
9 1 4 5 7 10 3 6 2 11 8
4 10 3 9 8 6 7 2 1 11 5
1 8 6 10 11 9 3 4 2 7 5
8 9 5 1 4 7 2 10 11 3 6
11 5 2 7 10 1 9 8 4 3 6
5 2 1 10 11 8 4 9 7 6 3
9 4 6 3 10 11 1 5 2 8 7
7 8 10 4 11 2 5 3 1 9 6
3 8 5 2 1 11 6 10 7 9 4
8 9 3 2 7 5 1 11 6 10 4

1
Ford Fillmore
1
1
1
1
1
1
1
1
1
1
1
1
1
1
1
1
1
1
1
1
1
1
1
1
1
1
1
1
1
1
1
1
1
1
1
1
1
1
1
1
1
1
1
1
1
1
1
1
1
1
1
1

7
Jackson Lindsay
Bush Pierce
Clinton Soules
Johnson Soules
Taft Bristowe
Kennedy Brown
Hayes Pierce
2 1 4 7 6 5 3
1 3 4 6 2 5 7
3 5 2 7 6 4 1
7 2 4 5 1 3 6
7 5 3 2 4 6 1
2 7 1 3 4 6 5
6 7 4 1 5 3 2
2 6 5 4 3 7 1
4 1 6 7 2 5 3
2 1 5 6 7 4 3
5 1 4 3 7 2 6
4 2 1 7 6 5 3
1 7 3 2 4 5 6
5 2 3 7 6 1 4
5 1 3 2 6 4 7
4 1 6 3 5 7 2
4 5 1 6 7 3 2
2 3 5 7 1 6 4
4 5 2 3 6 1 7
1 4 5 7 2 6 3
7 6 1 2 5 4 3
3 5 6 7 2 1 4
3 4 5 7 2 1 6
7 5 4 3 2 1 6
6 7 4 1 3 5 2
5 2 7 1 6 4 3
5 1 3 2 4 7 6
7 3 1 4 2 5 6
6 3 5 4 2 7 1
5 1 3 2 7 6 4
6 2 3 7 5 4 1
2 4 6 1 3 5 7
4 2 5 6 1 7 3
3 1 6 7 5 4 2
6 1 3 4 5 2 7
7 5 2 4 1 6 3
1 6 3 4 2 5 7
1 5 4 2 7 3 6
3 6 5 4 2 1 7
5 3 4 2 1 6 7
7 4 6 3 5 2 1
7 2 6 3 1 5 4
2 6 1 4 3 7 5
3 2 7 6 4 5 1
2 6 1 5 4 3 7
7 2 3 4 5 6 1
2 4 7 3 5 1 6
4 3 1 5 6 2 7
3 1 2 4 5 7 6
7 1 2 4 6 5 3
5 6 1 2 4 3 7
2 3 7 4 1 6 5
5 6 1 7 4 2 3
2 3 4 1 5 6 7
6 1 2 4 3 5 7
6 7 1 2 3 4 5
6 1 2 5 7 3 4

8
Clinton Flajnik
Roosevelt Hebert
Jackson Lincoln
Coolidge Adams
Jackson Tyler
Hayes Fletcher
Obama Luyendyk
McKinley Lowe
3 4 2 6 1 7 8 5
2 6 4 5 8 1 7 3
5 7 1 3 8 4 2 6
7 6 5 4 3 1 2 8
7 4 2 5 1 6 3 8
6 5 1 3 7 4 2 8
4 8 2 1 6 7 3 5
7 8 4 3 2 6 5 1
3 4 7 5 1 2 6 8
3 7 6 1 4 5 8 2
6 3 7 5 4 8 1 2
2 1 5 3 8 4 7 6
6 2 8 5 4 7 1 3
5 3 2 4 6 8 1 7
2 7 4 8 3 5 6 1
3 7 2 5 8 1 6 4
4 2 6 5 8 7 1 3
1 5 3 6 4 7 2 8
1 4 6 3 5 8 7 2
7 4 3 5 2 6 1 8
4 2 5 1 3 6 8 7
6 2 7 8 5 3 1 4
2 6 5 8 4 3 7 1
8 7 3 6 1 4 5 2
6 3 4 5 8 2 7 1
6 5 3 7 4 2 8 1
4 7 8 3 6 2 1 5
3 7 2 1 5 8 4 6
6 3 5 1 7 8 2 4
5 4 3 2 1 6 8 7
8 3 5 7 4 6 2 1
4 2 5 7 3 8 1 6
3 5 4 1 6 8 7 2
5 2 7 8 6 3 4 1
1 8 6 2 4 7 5 3
4 7 2 3 8 5 1 6
5 3 6 1 7 4 8 2
1 5 7 6 8 3 4 2
8 7 2 4 6 5 3 1
2 6 5 1 7 3 4 8
8 3 1 4 6 7 2 5
8 1 5 3 6 2 4 7

7
Hoover Kufrin
Truman Hartsock
Obama Lindsay
Hayes Washington
Harrison Taylor
Truman Fillmore
Carter Viall
1 7 3 2 4 6 5
2 1 6 3 5 4 7
5 2 1 7 6 4 3
5 7 6 3 2 1 4
2 1 5 3 7 6 4
5 7 6 1 4 3 2
6 3 5 7 1 2 4
3 6 7 1 4 2 5
4 2 1 6 7 3 5
2 1 4 6 5 7 3
1 2 3 5 7 4 6
3 7 6 4 1 5 2
1 4 5 6 2 3 7
2 5 7 6 1 4 3
6 5 2 7 1 3 4
2 5 7 4 6 1 3
3 5 6 7 4 2 1
7 1 6 2 5 4 3
3 6 5 1 4 7 2
5 4 6 3 7 1 2
4 2 1 3 5 7 6
3 6 7 5 1 2 4
3 1 4 7 5 6 2
4 6 7 5 1 3 2
6 4 3 2 7 5 1
1 4 7 6 2 3 5
2 6 3 4 7 1 5
7 4 3 5 2 6 1
1 3 6 7 4 2 5
5 6 4 2 3 7 1
5 2 1 6 7 3 4
3 4 2 1 6 5 7
5 4 7 1 3 6 2
2 6 1 4 3 5 7
6 7 1 4 2 5 3
6 2 4 1 5 3 7
5 2 4 7 1 3 6
7 6 5 1 4 2 3
6 1 4 7 5 3 2
7 5 2 4 1 3 6
5 7 2 3 1 6 4
7 4 1 6 3 5 2
1 5 2 7 3 6 4
7 3 1 6 2 4 5
7 1 3 2 5 4 6
1 7 6 3 2 4 5
2 5 1 3 6 4 7
7 1 5 3 6 2 4

4
Jackson Polk
Kennedy Taylor
Kennedy Soules
Coolidge Lowe
4 2 3 1
2 3 1 4
2 1 4 3
1 4 3 2
4 3 1 2
3 2 4 1
3 4 2 1
3 1 2 4
2 1 4 3
1 4 2 3
1 3 4 2
2 3 4 1
1 3 2 4
1 4 3 2
1 2 4 3

14
Garfield Polk
Roosevelt Buchannan
Hayes Madison
Biden Lincoln
Garfield Bristowe
Eisenhower Dorfman
McKinley Lindsay
Bush Buchannan
Trump Hartsock
Coolidge Underwood
Harrison Taylor
Biden Lindsay
Trump Fillmore
Garfield Brown
13 7 9 10 3 1 5 6 2 4 11 12 8 14
7 1 12 4 10 5 11 2 9 3 6 8 14 13
7 3 8 5 14 10 11 12 9 2 1 4 13 6
7 14 11 3 1 10 8 12 2 4 6 5 13 9
4 2 5 3 14 6 12 13 1 9 8 10 11 7
3 14 7 11 4 1 13 12 10 6 2 5 8 9
10 13 11 14 4 1 2 9 6 7 12 8 5 3
2 10 14 7 12 1 5 8 13 3 4 11 6 9
6 12 13 8 9 5 14 3 10 4 11 2 7 1
5 11 3 12 6 7 1 4 14 13 9 8 10 2
5 2 7 1 8 12 13 14 4 9 3 10 11 6
2 13 12 1 11 8 6 5 10 14 7 9 4 3
9 2 3 5 14 8 12 11 10 1 13 7 6 4
8 6 12 3 14 4 7 5 1 11 10 9 2 13
1 2 3 11 7 9 8 6 10 12 14 4 5 13
7 4 9 3 14 12 10 1 2 13 8 5 11 6
2 1 7 14 8 6 3 10 11 12 4 13 9 5
1 4 13 8 5 2 11 3 14 6 12 10 9 7
14 9 2 1 12 4 10 3 6 7 11 13 5 8
3 8 5 1 6 13 12 9 4 2 11 10 7 14
2 1 11 8 7 10 3 5 12 6 9 13 4 14
13 4 6 14 11 3 2 5 7 8 12 1 9 10
1 9 11 7 4 3 14 10 2 8 6 12 13 5
1 2 8 12 5 13 6 14 10 4 3 11 7 9
10 3 11 2 13 6 1 5 4 12 14 8 7 9
10 5 7 9 11 4 2 14 13 3 12 8 1 6
13 5 8 10 2 4 14 11 6 9 1 12 3 7
10 12 9 4 8 13 3 6 5 14 11 2 1 7
7 8 5 1 14 6 11 4 13 12 3 2 10 9
8 4 14 3 5 2 6 11 9 7 1 12 13 10
8 10 14 9 4 11 13 3 1 2 5 12 6 7
10 8 4 9 12 7 5 2 13 14 3 11 6 1
3 11 5 4 2 8 10 6 9 7 1 12 14 13
1 3 10 5 8 9 14 7 13 6 12 2 11 4
2 13 3 1 7 12 9 6 14 11 5 10 8 4
13 2 1 14 9 10 7 11 4 5 6 3 12 8

14
Coolidge Higgins
Ford Brown
Arthur Tyler
McKinley Adams
Hayes Luyendyk
Roosevelt Fillmore
Grant Dorfman
Trump Hebert
Harrison Madison
Coolidge Brown
Johnson Madison
Hayes Madison
McKinley Hartsock
Clinton Higgins
7 2 4 13 10 14 5 6 11 1 9 12 8 3
8 12 9 10 11 4 14 7 5 6 3 13 2 1
3 13 12 10 1 14 7 9 2 6 4 5 11 8
5 9 12 14 2 13 4 10 8 11 3 7 6 1
4 13 7 10 9 2 11 3 14 6 1 5 12 8
9 12 11 2 13 14 10 5 6 1 3 4 7 8
8 1 4 7 12 5 10 11 9 14 13 6 2 3
7 6 8 5 14 10 3 2 11 12 9 1 13 4
14 13 10 1 7 12 4 9 8 11 3 6 2 5
1 4 5 2 8 9 10 12 13 11 6 14 7 3
12 10 4 9 1 5 8 13 7 6 3 11 14 2
9 5 2 13 1 4 3 11 6 8 10 14 7 12
2 1 9 3 12 8 13 6 10 14 4 7 5 11
8 1 6 12 4 10 9 7 5 11 14 3 2 13
3 1 2 7 10 11 13 6 12 4 9 8 14 5
13 9 2 6 4 1 7 3 11 8 14 12 5 10
13 3 8 10 2 9 14 4 11 7 1 12 5 6
2 3 7 6 12 14 9 4 11 5 10 13 1 8
5 11 12 9 3 1 10 14 7 13 2 4 8 6
11 1 10 7 4 9 14 8 5 12 6 3 2 13
5 6 9 1 3 2 10 8 13 14 12 11 4 7
9 13 1 7 8 2 11 14 3 4 12 6 5 10
6 5 12 3 9 4 7 2 10 8 14 11 13 1
11 2 8 13 6 3 14 1 7 10 4 5 9 12
5 12 1 14 2 6 10 9 8 4 11 3 7 13
9 11 2 1 6 14 10 5 4 8 3 13 7 12
5 14 4 2 10 11 8 9 7 3 13 1 6 12
8 3 13 7 5 12 9 10 11 14 6 1 4 2
14 1 9 3 10 8 11 13 7 4 12 6 5 2
8 14 9 4 2 3 1 6 5 12 10 7 13 11
4 11 12 8 6 3 10 13 14 5 9 7 1 2

12
Biden Flajnik
Trump Buchannan
Ford Flajnik
Biden Buchannan
Grant Underwood
Jackson Luyendyk
Roosevelt Brown
Hoover Polk
Obama Lincoln
Wilson Lowe
Clinton Madison
Grant Maynard
7 2 3 1 12 10 4 9 11 5 8 6
5 1 9 11 2 4 7 12 3 6 8 10
4 7 9 5 6 10 1 2 8 3 12 11
2 9 12 1 3 6 5 4 8 11 7 10
4 7 5 6 1 3 2 9 12 8 10 11
4 11 3 6 12 9 10 2 7 1 8 5
7 3 12 5 8 11 9 10 6 4 2 1
4 5 9 3 1 7 11 8 12 6 10 2
7 4 6 12 10 2 3 9 5 8 11 1
3 7 10 9 5 6 11 12 2 1 8 4
4 2 1 9 5 7 11 6 3 10 12 8
8 1 7 9 2 6 3 4 10 5 12 11
8 2 11 7 12 5 3 10 9 6 1 4
5 12 10 11 7 4 1 9 6 2 3 8
4 12 3 6 5 9 10 8 11 1 7 2
6 4 2 11 1 7 5 12 3 8 9 10
8 4 9 3 7 6 11 10 2 12 5 1
8 2 11 10 7 9 6 4 12 3 1 5
2 8 11 4 1 12 9 10 3 7 6 5
11 9 7 4 6 2 1 5 10 8 12 3
8 9 6 12 4 10 3 2 11 5 1 7
8 4 11 3 6 12 5 9 7 2 10 1
8 2 7 11 4 9 10 6 12 5 3 1

10
Obama Dorfman
Coolidge Washington
Kennedy Higgins
Nixon Higgins
Obama Pierce
Coolidge Madison
Ford Flajnik
Johnson Lincoln
Wilson Soules
Nixon Soules
7 8 6 3 9 1 2 5 10 4
9 6 7 10 5 2 8 1 3 4
1 6 4 3 2 8 10 5 7 9
7 6 5 2 1 9 10 4 3 8
5 8 10 7 9 4 6 1 2 3
9 3 5 2 8 10 7 6 1 4
9 8 7 4 5 10 6 1 3 2
8 4 6 5 10 1 2 3 7 9
4 6 3 1 2 7 10 9 8 5
1 5 6 8 3 7 9 10 4 2
1 3 8 5 7 4 6 9 10 2
8 1 2 3 10 7 4 6 9 5
8 6 10 1 4 3 5 7 9 2
2 3 4 10 9 5 7 6 8 1
1 10 2 6 3 7 5 8 9 4
2 9 6 8 3 1 7 10 4 5
1 2 7 5 10 3 9 4 6 8
5 6 9 10 7 2 3 1 4 8
9 8 7 10 6 2 1 3 5 4
9 10 2 8 5 4 3 7 1 6
2 3 4 5 10 6 9 7 8 1
3 6 2 7 10 8 9 5 1 4
3 6 7 2 5 9 10 1 8 4
5 2 10 3 8 4 6 9 7 1
7 4 3 8 10 5 6 1 9 2
6 9 2 4 3 5 8 10 1 7
8 4 10 1 9 5 6 3 2 7
5 7 3 9 8 2 10 1 4 6
5 10 3 1 6 9 7 2 4 8
3 1 9 10 7 4 2 6 8 5
7 5 6 8 4 1 3 10 9 2
8 1 4 6 9 7 3 5 2 10

17
Obama Adams
Nixon Bristowe
Hayes Fillmore
Jackson Lindsay
Coolidge Jefferson
Clinton Pierce
Ford Adams
Hayes Bristowe
Biden Kufrin
Roosevelt Fillmore
Jackson Taylor
Trump Bristowe
Taft Viall
Garfield Dorfman
Roosevelt Madison
Grant Adams
Trump Adams
1 7 14 16 15 4 5 17 12 8 13 9 11 6 2 3 10
16 17 1 10 9 5 13 7 14 11 2 15 6 8 4 12 3
1 6 11 3 17 8 14 10 2 12 15 5 13 9 16 7 4
9 16 14 1 8 2 6 7 4 13 15 10 17 12 11 3 5
14 3 1 10 13 12 5 15 4 17 11 16 8 6 7 9 2
4 5 15 10 14 9 17 13 2 16 3 6 1 11 7 8 12
13 4 3 16 5 10 7 9 14 17 15 8 6 12 2 11 1
3 15 1 9 11 17 16 6 12 10 5 14 13 2 4 7 8

18
Obama Fletcher
Roosevelt Adams
Harrison Higgins
Obama Adams
Nixon Higgins
Trump Kufrin
Harding Tyler
Wilson Dorfman
Hoover Soules
Harding Kufrin
Arthur Higgins
Hoover Tyler
Obama Adams
Wilson Polk
Obama Hebert
Obama Madison
Biden Kufrin
Reagan Hartsock
8 3 18 4 1 13 6 16 15 10 11 5 14 2 9 12 17 7
9 17 6 15 4 8 5 14 11 7 3 18 2 16 13 12 1 10
7 10 1 2 13 3 5 11 15 17 14 6 9 4 12 18 16 8
15 5 8 7 4 6 2 16 11 9 12 18 3 14 1 13 17 10
6 8 17 5 18 14 10 16 1 12 3 15 11 13 7 4 9 2
2 18 3 13 10 4 14 9 16 5 15 8 12 7 6 11 1 17
3 5 6 7 16 9 8 13 17 12 11 15 2 14 10 1 18 4
4 14 16 7 10 18 1 5 9 3 15 13 17 6 8 11 12 2
7 5 8 18 9 10 13 17 1 4 11 16 12 6 3 14 15 2
5 14 12 16 2 15 17 7 11 9 10 18 6 1 13 3 4 8
3 11 15 9 5 6 14 1 10 8 18 7 4 17 12 13 2 16
15 3 10 2 8 5 1 17 11 16 12 18 7 14 13 6 4 9
8 6 9 14 7 13 15 4 12 16 3 18 17 2 10 11 1 5
11 4 13 7 5 16 14 12 17 1 18 10 3 15 2 9 6 8
5 13 7 2 10 16 8 14 6 9 17 18 11 3 4 1 12 15
16 9 13 17 15 11 8 14 2 5 7 18 12 6 1 4 3 10
13 17 18 7 5 15 6 4 2 10 1 3 16 11 9 12 14 8
17 2 6 1 9 7 4 13 16 15 3 5 12 8 18 14 10 11
3 8 14 9 16 12 15 4 1 5 2 6 18 17 7 13 10 11
14 16 15 13 9 10 1 8 6 11 12 3 7 4 18 2 17 5
8 14 4 5 3 9 1 2 17 12 13 11 16 10 6 7 15 18
16 2 13 6 17 15 14 12 4 18 5 9 1 3 11 8 7 10
17 2 16 3 9 10 14 7 18 5 15 8 13 1 11 6 12 4

13
Cleveland Adams
Obama Hebert
Truman Dorfman
Carter Jefferson
Hoover Hartsock
Harrison Lowe
Roosevelt Kufrin
Kennedy Monroe
Biden Hebert
Eisenhower Pierce
Hayes Fillmore
Clinton Polk
Carter Fletcher
1 4 5 11 8 9 2 3 7 13 10 12 6
7 12 9 11 2 4 5 1 6 10 13 8 3
5 1 7 10 3 4 2 8 6 11 9 12 13
12 6 1 10 4 13 9 11 3 7 8 5 2
4 6 7 2 10 9 8 13 3 1 5 11 12
7 12 8 4 9 6 13 5 10 3 2 11 1
13 6 5 4 12 10 1 8 7 2 11 9 3
9 8 12 4 13 6 7 5 2 1 3 11 10
6 10 11 9 13 2 1 4 5 8 3 12 7
11 10 1 2 3 13 12 4 8 6 7 5 9
4 9 1 10 5 3 13 11 6 12 8 2 7
8 5 1 11 3 7 6 9 13 4 10 12 2
8 4 2 13 1 3 11 7 12 10 6 5 9
13 11 2 10 6 12 9 8 5 4 3 1 7
10 8 5 4 6 3 2 13 12 1 9 7 11
8 9 3 4 5 12 7 11 10 1 6 2 13
11 3 1 13 4 2 7 9 8 6 5 10 12
6 8 2 9 1 11 5 4 13 12 7 3 10
5 13 4 8 6 12 3 7 11 9 1 10 2
5 2 7 3 13 11 1 4 12 8 9 10 6
11 8 1 10 6 7 4 2 3 5 13 12 9
12 1 13 11 10 3 4 6 8 7 9 5 2
12 10 4 7 11 1 8 13 9 6 5 2 3
9 4 8 11 10 12 13 7 2 5 1 6 3
1 11 3 13 12 10 8 4 6 2 7 9 5
10 1 8 4 6 3 2 9 5 12 7 11 13
13 5 12 2 9 11 6 10 3 8 7 1 4
6 1 3 13 12 4 11 5 9 7 8 10 2
9 13 3 1 7 11 8 10 12 4 5 6 2
8 3 2 7 4 6 9 1 5 13 10 12 11
11 7 9 5 8 12 2 10 1 13 4 3 6
11 9 12 8 10 1 13 4 2 3 6 7 5
12 11 9 3 13 5 8 7 10 4 1 2 6
6 7 8 5 1 3 13 4 9 11 10 12 2

1
Arthur Jefferson
1
1
1
1
1
1
1
1
1
1
1
1
1
1
1
1
1
1
1
1
1
1
1
1
1
1
1
1
1
1
1
1
1

8
Truman Pierce
Arthur Underwood
Eisenhower Lowe
Roosevelt Taylor
Taft Bristowe
Nixon Hebert
Roosevelt Monroe
Taft Soules
8 5 4 3 6 1 2 7
6 4 8 7 3 5 2 1
5 8 2 4 6 3 1 7
1 7 6 4 3 8 5 2
6 2 7 3 4 8 1 5
6 4 2 5 3 1 7 8

11
Grant Fillmore
Obama Pierce
Roosevelt Fillmore
Truman Dorfman
Cleveland Monroe
Ford Fletcher
Biden Higgins
Johnson Jefferson
Harding Monroe
Harrison Madison
Eisenhower Lowe
11 9 5 7 4 1 10 2 3 6 8
5 4 7 3 2 10 6 11 9 1 8
10 1 6 4 8 5 11 7 9 2 3
3 9 4 10 5 7 6 1 2 11 8
1 9 10 7 2 5 11 3 8 4 6
7 10 4 2 6 8 9 11 1 3 5
2 4 7 8 1 3 6 5 9 10 11
8 2 4 3 11 9 6 7 10 5 1
11 7 8 2 5 9 10 4 3 1 6
8 9 1 5 10 6 2 3 7 11 4
1 3 9 11 10 6 4 2 7 8 5
5 3 1 11 9 2 6 4 10 8 7
11 10 9 8 2 5 6 1 7 4 3
3 4 9 7 1 10 2 5 6 11 8
10 8 1 5 11 3 2 4 7 6 9
8 7 6 2 10 1 5 11 3 4 9

1
Bush Brown
1
1
1
1
1
1
1
1
1
1
1
1
1
1
1
1
1
1
1
1
1
1
1
1
1
1
1
1
1
1
1
1
1
1
1
1
1

17
Kennedy Monroe
Harding Kufrin
Jackson Jefferson
Harding Flajnik
Hoover Soules
Coolidge Lincoln
Carter Pierce
Roosevelt Washington
Wilson Lindsay
McKinley Madison
Arthur Tyler
Taft Taylor
Harding Kufrin
Grant Buchannan
Grant Pierce
Harrison Viall
Hayes Washington
3 13 5 1 4 7 12 11 8 16 15 6 10 9 2 14 17
7 14 6 11 15 9 1 12 4 3 5 2 10 13 17 8 16
12 17 7 13 1 3 2 15 5 6 14 9 8 4 11 10 16
15 4 17 14 12 7 16 11 1 8 2 13 10 9 3 6 5
4 13 14 8 2 7 3 6 15 16 17 11 12 10 9 5 1
4 5 2 17 1 7 8 10 9 13 16 15 14 6 3 11 12
10 16 17 3 6 4 15 1 8 14 9 2 5 13 12 7 11
2 3 7 12 9 16 14 10 11 8 6 15 4 17 13 1 5
7 8 16 13 9 1 2 10 4 12 6 3 15 14 11 5 17
5 4 11 2 15 7 17 10 6 14 12 8 9 3 13 16 1
6 9 4 13 16 14 5 10 2 11 1 12 8 7 17 3 15
9 6 15 16 10 14 12 8 4 1 13 5 11 3 17 2 7
6 13 12 14 4 10 7 2 16 3 11 9 5 1 15 17 8
4 14 3 17 1 5 8 6 15 2 16 10 13 11 7 12 9
6 1 11 4 3 14 15 13 9 5 16 8 12 2 7 10 17
14 11 17 2 3 15 6 8 9 5 10 7 1 13 12 4 16
15 4 6 9 13 14 11 1 7 16 12 10 17 8 5 2 3

8
Eisenhower Flajnik
Jackson Kufrin
Trump Soules
Trump Fletcher
Harding Lowe
Harrison Bristowe
Arthur Soules
Jackson Maynard
4 3 7 1 8 6 2 5
7 8 5 3 1 4 6 2
3 2 6 1 8 7 5 4
4 8 6 7 1 3 2 5
3 6 2 7 4 1 8 5
1 2 7 4 5 8 6 3
1 3 2 5 4 8 7 6
6 2 4 3 7 1 8 5
2 7 5 4 8 1 3 6
8 2 4 3 6 5 7 1
7 6 2 5 4 8 3 1
1 3 6 8 5 2 4 7
2 8 5 3 6 7 4 1
7 4 5 8 1 3 6 2
2 1 6 4 7 5 3 8
5 6 1 3 4 2 7 8
4 7 8 3 5 2 1 6
8 2 3 1 4 7 6 5
7 6 4 5 3 2 8 1
3 5 8 2 1 7 4 6
7 5 8 6 2 1 4 3
4 5 2 8 3 1 6 7
2 3 1 7 8 6 4 5
6 3 7 8 5 4 2 1
4 3 7 2 8 1 6 5
2 1 7 3 4 8 5 6
5 8 6 1 3 4 7 2
3 7 4 2 5 6 1 8
1 8 7 2 4 6 3 5
5 6 8 1 3 2 4 7
1 3 4 8 5 7 6 2
4 5 1 7 3 2 6 8
1 3 2 4 8 7 5 6
7 8 4 5 1 3 6 2
1 2 6 5 4 7 8 3
5 6 3 8 7 2 1 4
3 6 8 5 4 7 2 1
1 5 3 2 6 8 7 4
7 2 5 1 3 8 6 4
6 3 4 2 8 7 5 1
4 6 5 2 8 3 7 1
3 1 6 8 5 7 2 4
5 4 3 6 1 7 2 8
5 3 8 2 4 7 1 6
5 2 6 7 4 1 8 3
1 2 8 5 3 4 7 6
5 4 1 7 8 3 6 2
5 4 7 8 6 2 1 3
1 4 3 8 5 6 2 7
1 5 2 7 8 3 6 4
4 7 8 6 1 5 2 3
5 8 4 7 3 2 6 1
6 3 1 4 2 8 5 7
2 4 3 7 6 5 1 8
3 2 6 5 8 1 7 4
3 1 6 7 2 5 4 8
7 4 8 6 1 2 3 5

4
Ford Buchannan
Hoover Bristowe
Hoover Luyendyk
Carter Higgins
1 3 4 2
1 2 4 3
1 3 4 2
2 3 1 4
1 4 3 2
3 2 4 1
2 4 3 1
3 1 2 4
1 2 4 3
4 3 1 2
2 4 3 1
3 4 1 2
2 3 1 4
3 1 4 2
3 1 2 4
3 2 1 4
2 4 1 3
4 3 2 1
4 2 1 3
3 4 2 1
4 1 2 3
4 2 1 3
2 4 1 3
4 2 1 3
3 4 1 2
4 1 3 2
2 1 3 4
4 3 2 1
2 1 4 3
4 1 2 3
3 2 4 1
3 4 1 2
2 4 1 3
3 1 2 4
2 1 4 3
4 1 2 3
4 3 1 2
2 4 1 3
1 2 3 4
2 4 1 3
1 4 3 2
3 4 2 1
1 3 4 2
1 3 4 2
3 2 4 1
3 2 1 4
2 1 3 4
3 2 4 1
2 3 1 4
2 3 4 1
1 2 4 3
4 3 1 2
3 4 2 1
2 4 1 3
3 4 1 2
4 2 1 3
4 1 3 2
4 3 1 2

1
Harding Hebert
1
1
1
1
1
1
1
1
1
1
1
1
1
1
1
1
1
1
1
1
1
1
1
1
1
1
1
1
1
1
1
1
1
1
1
1
1
1
1
1
1
1
1
1
1
1
1
1
1
1

10
Arthur Viall
Harrison Brown
Arthur Luyendyk
Ford Lincoln
Carter Viall
Jackson Lowe
Roosevelt Brown
Carter Adams
Bush Higgins
Obama Pierce
2 10 3 1 5 6 7 9 8 4
1 6 5 8 2 10 4 3 7 9
1 5 4 6 10 9 2 3 7 8
9 8 1 3 4 2 7 10 6 5
4 8 9 6 1 3 2 10 5 7
5 7 4 3 1 9 8 6 2 10
1 2 4 8 10 9 5 6 3 7
8 6 3 1 10 9 2 4 7 5
9 5 8 1 7 6 4 3 2 10
3 9 7 6 4 8 10 5 1 2

20
Ford Lowe
Harrison Washington
Hoover Luyendyk
Garfield Lindsay
Garfield Taylor
Garfield Pierce
Trump Bristowe
Coolidge Bristowe
Nixon Washington
Wilson Viall
Cleveland Jefferson
Eisenhower Lindsay
Kennedy Monroe
Reagan Jefferson
Eisenhower Soules
Reagan Adams
Truman Taylor
Hoover Taylor
Carter Kufrin
Obama Lindsay
13 11 10 14 3 5 2 12 7 18 1 20 9 4 8 6 16 15 17 19
19 6 12 4 13 8 16 5 15 17 2 10 20 1 7 14 9 18 3 11
4 19 18 12 5 9 13 16 8 20 15 1 17 10 14 2 6 3 7 11
16 3 8 18 10 19 15 14 4 20 9 7 13 2 6 12 11 17 5 1
7 11 5 17 13 8 9 20 1 16 12 3 2 4 6 19 18 10 15 14
17 14 4 15 10 11 8 19 3 6 5 7 1 18 13 2 12 9 16 20
12 8 2 5 3 13 1 10 11 14 17 6 4 20 18 9 19 16 7 15
17 2 15 8 3 18 19 1 4 11 7 6 20 12 10 16 9 5 14 13
17 13 14 5 1 20 18 3 9 10 16 12 2 6 7 4 15 8 11 19
15 16 12 4 14 8 3 10 13 5 9 2 17 6 19 7 20 1 11 18
20 3 9 7 8 16 18 5 14 2 17 6 19 1 15 10 11 13 12 4
5 12 13 1 19 15 8 14 17 11 20 18 2 3 16 4 10 9 7 6
20 17 6 4 5 14 11 19 13 10 9 16 12 18 3 2 8 15 1 7
14 10 7 20 19 3 16 12 8 9 4 6 13 2 11 18 15 17 1 5
8 7 17 14 18 5 3 20 2 4 1 15 12 6 9 19 11 16 10 13
3 6 17 7 10 11 4 16 19 8 14 13 12 5 1 18 15 20 2 9
19 11 6 14 9 7 16 20 1 4 8 2 10 3 5 17 13 12 18 15
2 5 4 10 19 12 13 8 9 16 3 18 7 15 17 11 14 1 20 6
19 15 2 11 9 7 5 10 3 8 14 16 17 18 13 6 20 12 4 1
11 9 19 10 7 1 3 8 15 17 20 18 4 2 5 14 6 12 16 13
11 8 1 20 3 9 19 15 17 18 6 2 13 10 7 16 4 5 12 14
8 11 18 16 17 9 1 15 20 10 13 7 3 2 19 6 4 5 12 14
14 16 1 2 15 9 12 5 18 3 8 10 7 6 4 11 13 19 20 17
1 15 6 8 5 13 20 11 18 10 14 4 19 12 9 17 16 7 2 3
17 13 12 10 14 11 8 1 19 3 16 15 2 4 20 7 9 6 18 5
9 20 17 6 10 7 3 15 16 5 8 2 13 14 4 19 12 11 18 1
3 8 7 11 17 16 10 5 18 14 15 20 2 13 12 1 6 19 9 4
14 19 17 15 8 20 5 3 6 7 1 2 12 16 4 9 18 11 13 10
13 8 5 17 18 14 7 11 15 3 10 6 19 16 2 20 1 12 4 9
1 3 20 2 11 19 10 5 18 17 13 12 15 8 16 7 9 14 6 4
16 4 6 2 13 5 7 18 20 12 15 3 10 1 9 19 8 11 17 14
19 13 10 18 20 5 4 1 14 16 2 11 7 3 12 8 17 6 15 9
15 13 9 16 14 19 8 5 1 2 7 3 4 6 17 10 12 20 18 11
19 11 14 2 20 9 3 17 1 8 6 4 18 5 15 7 12 13 16 10
7 8 18 20 13 10 6 2 17 19 1 4 3 14 9 16 11 5 12 15
10 3 17 6 20 16 2 8 7 9 11 4 15 1 12 13 5 18 19 14
8 1 20 11 9 16 7 10 13 18 6 4 5 12 17 15 2 19 3 14
2 10 6 11 13 4 3 7 15 17 14 5 12 8 20 1 18 9 16 19
18 19 14 13 1 20 8 9 11 17 15 16 2 6 4 12 5 10 7 3
14 7 13 20 19 10 3 8 16 9 12 4 6 18 1 11 15 2 5 17
19 9 16 15 11 13 17 20 2 6 10 14 8 4 18 1 3 12 5 7

11
Harrison Viall
Hayes Fletcher
McKinley Soules
Reagan Soules
Cleveland Polk
Jackson Buchannan
Hayes Polk
Taft Dorfman
Taft Monroe
Obama Bristowe
Hoover Madison
3 9 2 8 5 1 10 11 7 6 4
11 10 8 4 6 7 1 3 9 5 2
4 5 2 8 9 7 1 3 6 11 10
5 1 4 9 6 7 2 3 8 11 10
11 5 3 4 8 10 7 2 9 6 1
2 11 8 5 9 7 6 3 10 4 1
10 1 7 11 6 2 4 5 9 3 8
5 1 6 9 11 4 10 2 7 8 3
7 5 6 10 2 1 3 4 8 9 11
1 4 9 7 10 2 3 5 11 6 8
3 5 11 4 6 1 8 7 9 10 2
10 1 3 9 8 6 4 11 2 7 5
2 7 1 8 11 5 9 10 4 6 3
8 6 4 10 3 5 2 7 9 11 1
11 7 3 1 10 4 6 9 2 8 5
3 2 11 6 1 7 10 5 8 9 4
2 7 3 8 1 6 10 5 11 9 4
11 6 7 3 9 2 10 5 1 4 8
6 11 2 4 5 7 9 3 8 10 1
1 5 2 6 4 11 3 10 8 7 9
8 1 5 6 7 11 10 3 4 9 2
9 6 5 10 8 3 1 11 7 4 2
4 11 6 8 3 2 9 5 7 10 1
6 2 10 7 4 11 8 1 9 3 5
1 10 9 7 11 3 5 6 2 4 8
2 6 11 7 10 1 4 3 5 8 9
8 3 7 6 10 5 11 2 1 4 9
7 11 6 3 1 8 9 5 4 10 2
6 7 9 10 3 4 5 2 1 11 8
2 5 10 8 4 3 11 1 9 7 6
4 1 2 7 6 3 8 10 11 9 5
11 5 7 8 3 6 2 10 1 4 9
7 11 8 9 6 1 3 2 4 10 5
6 1 8 2 7 5 3 11 10 4 9
3 9 6 1 11 7 10 5 2 4 8
1 5 2 6 10 4 11 8 3 9 7
2 4 6 11 5 1 3 10 8 7 9
6 1 5 8 7 10 3 2 11 4 9
3 4 7 6 9 5 1 11 8 2 10
10 5 9 8 2 11 1 3 7 4 6
5 7 2 6 3 9 1 11 8 4 10
9 8 4 10 2 11 1 6 7 3 5
5 10 6 4 8 2 1 7 11 3 9
9 2 3 10 8 11 4 1 5 6 7
8 10 6 2 1 9 5 7 4 3 11
10 6 8 1 7 4 2 5 3 9 11
7 8 10 4 9 5 1 2 3 6 11
9 10 7 8 11 5 4 2 6 1 3
1 3 7 10 9 11 2 8 4 6 5
11 6 9 3 4 10 5 7 1 8 2
5 3 11 4 8 2 6 9 10 1 7
11 3 7 4 6 10 9 8 1 5 2
4 6 10 11 5 9 8 2 3 1 7
10 7 5 9 3 1 6 8 11 2 4
10 11 2 8 7 3 1 4 9 5 6
3 9 1 4 8 11 2 6 7 10 5
4 5 6 8 7 11 10 3 1 2 9
4 5 2 6 8 7 9 3 11 1 10

4
Johnson Lindsay
Grant Luyendyk
Coolidge Maynard
Grant Fillmore
4 1 3 2
3 1 2 4
1 4 3 2
2 3 4 1
1 3 2 4
4 1 3 2
2 1 3 4
4 3 2 1
3 2 4 1
3 4 2 1
1 4 2 3
4 2 3 1
4 3 2 1
3 4 1 2

15
Taft Fletcher
Clinton Lowe
Truman Bristowe
Coolidge Lindsay
Kennedy Soules
Wilson Brown
Hoover Soules
Carter Fletcher
Cleveland Brown
Bush Lindsay
Wilson Jefferson
Taft Buchannan
Roosevelt Washington
Cleveland Dorfman
Harrison Hartsock
11 7 8 14 4 2 13 3 5 15 12 1 10 9 6
13 3 15 9 2 5 14 11 4 10 6 12 8 7 1
9 5 6 3 14 2 1 10 4 15 7 11 12 8 13
13 9 1 6 12 7 15 2 5 14 4 3 8 11 10
11 5 14 7 2 9 3 8 4 15 13 6 12 1 10
13 2 11 6 12 1 8 3 9 15 14 4 7 10 5
3 7 14 2 9 11 5 4 10 1 6 15 12 13 8
1 15 4 9 11 6 2 3 12 10 13 5 7 14 8
3 10 8 1 15 5 13 7 9 14 12 4 6 11 2
12 2 10 14 7 8 11 6 13 15 3 1 5 9 4
7 8 13 4 15 3 6 14 5 11 2 12 9 10 1
9 3 1 15 7 13 4 10 12 2 14 8 6 11 5
14 5 4 1 12 2 10 11 6 7 3 8 15 13 9
12 6 7 9 1 10 11 14 2 5 13 4 3 15 8
12 10 11 5 4 3 14 6 2 15 7 9 1 8 13
2 8 11 5 14 9 1 4 7 13 15 6 3 10 12
13 10 11 8 4 2 9 1 15 14 6 5 12 7 3
14 2 11 10 1 13 4 8 6 9 7 5 3 15 12
8 2 10 11 7 1 5 15 6 12 14 4 9 13 3
9 2 15 5 1 7 6 4 8 13 3 12 10 11 14
14 2 7 9 6 1 11 12 5 13 8 3 4 15 10
12 4 1 5 13 3 11 14 8 9 10 15 7 2 6
10 3 6 1 12 5 13 7 14 2 15 8 11 9 4
12 10 14 2 1 6 4 9 8 7 13 11 15 3 5

1
Hayes Luyendyk
1
1
1
1
1
1
1
1
1
1
1
1
1
1
1
1
1
1
1
1
1
1
1
1

9
Truman Taylor
Reagan Taylor
Carter Lowe
Johnson Higgins
Cleveland Dorfman
McKinley Pierce
Kennedy Lincoln
Grant Polk
Trump Flajnik
5 9 3 2 6 1 8 7 4
9 6 4 3 7 1 5 8 2
4 7 3 8 5 6 2 9 1
8 9 3 1 5 7 6 2 4
9 6 3 8 2 5 1 7 4
2 4 5 9 8 1 3 7 6
4 9 6 2 7 8 1 3 5
6 1 4 7 8 5 2 3 9
3 4 2 1 6 7 5 8 9
2 1 4 3 6 5 9 7 8
1 4 6 2 3 7 9 8 5
9 4 2 1 8 3 7 5 6
9 2 7 4 6 3 8 5 1
5 9 3 4 2 1 8 7 6
4 3 8 7 2 1 5 9 6
4 3 5 7 8 9 2 1 6
5 6 2 3 1 9 7 4 8
5 7 1 3 9 8 6 4 2
5 3 1 6 9 4 2 7 8
2 7 4 9 3 5 8 1 6
4 6 7 8 2 9 3 1 5
6 1 5 4 8 9 7 2 3
4 6 3 7 1 9 2 8 5
5 7 4 6 8 1 2 9 3
8 5 4 2 3 6 9 7 1
2 1 4 6 9 5 8 7 3
7 3 6 4 2 5 8 1 9
5 2 7 9 6 1 4 8 3
4 7 3 9 1 5 2 8 6
6 3 7 1 9 4 2 5 8
5 6 8 9 2 1 3 7 4
5 3 6 4 7 8 1 2 9
2 3 5 8 1 9 7 6 4
3 8 9 5 4 1 7 2 6
3 9 8 7 2 6 4 1 5
2 1 6 3 9 4 8 7 5
5 8 4 6 3 9 1 7 2
3 2 6 9 8 7 5 4 1
2 6 5 9 7 4 8 1 3
6 7 8 1 2 3 4 9 5
6 3 5 9 8 1 2 7 4
9 4 5 6 2 1 8 7 3
7 5 4 6 1 2 3 9 8
7 9 4 3 2 8 6 5 1
6 1 8 3 4 7 5 2 9
5 7 9 2 8 1 3 4 6
8 6 2 7 5 3 1 4 9
1 8 5 9 3 2 6 7 4
2 9 7 6 1 8 4 3 5

20
Harrison Luyendyk
Wilson Lincoln
Reagan Buchannan
Wilson Maynard
Clinton Underwood
Eisenhower Bristowe
Biden Lincoln
Hoover Monroe
Nixon Soules
Clinton Viall
Eisenhower Lindsay
Garfield Lindsay
Roosevelt Luyendyk
Ford Lindsay
Eisenhower Dorfman
Wilson Lincoln
Harrison Taylor
Reagan Washington
Kennedy Lindsay
Obama Lindsay
13 3 6 10 5 8 4 15 1 16 19 12 20 14 18 9 2 11 7 17
18 14 4 17 16 13 5 10 7 3 20 12 11 9 2 6 15 8 1 19
10 5 12 17 7 2 16 9 13 3 4 19 18 14 20 6 8 15 11 1
16 5 14 15 6 9 11 18 1 19 20 7 2 13 8 4 17 12 10 3
10 15 1 4 19 9 5 17 11 3 13 6 12 8 20 14 2 18 16 7
16 18 5 13 14 1 12 17 2 9 8 20 10 7 15 6 19 4 11 3
2 8 11 13 9 18 19 20 14 16 5 6 4 1 15 3 17 10 12 7
16 19 1 13 17 8 10 4 7 11 12 6 18 9 14 5 2 15 20 3
10 15 7 18 9 17 13 11 6 2 3 19 4 20 16 12 8 14 1 5
18 3 6 7 13 5 2 19 9 1 11 20 8 14 10 4 16 12 17 15
17 15 6 11 20 14 2 4 16 13 3 19 18 12 7 5 8 10 1 9
19 2 11 17 9 12 1 20 4 13 5 18 3 14 6 10 7 8 15 16
16 8 20 12 14 5 19 3 11 1 9 7 10 2 6 17 15 18 13 4
3 1 18 6 12 13 16 14 15 17 20 7 5 11 10 8 19 2 4 9
8 6 14 15 13 12 5 7 11 18 2 1 3 10 4 16 20 9 17 19
18 13 16 15 10 6 19 2 7 17 14 20 4 5 1 11 12 3 8 9
14 4 3 10 16 11 20 19 7 6 2 18 17 12 5 1 9 15 8 13
4 11 5 13 7 18 8 10 1 12 9 3 17 14 6 20 19 16 2 15
15 12 18 20 11 6 5 8 2 13 9 14 10 4 19 7 3 17 1 16
9 16 18 14 13 2 20 1 11 10 12 5 17 3 19 15 6 7 8 4
20 9 10 16 19 6 3 12 4 2 18 14 7 5 15 1 11 17 8 13
2 5 4 10 3 14 1 18 15 20 13 8 12 17 9 6 7 19 16 11
19 3 4 9 16 18 7 2 12 15 11 6 17 14 13 5 8 1 10 20
4 13 17 3 8 18 12 11 19 2 7 9 5 20 1 6 16 15 14 10
1 17 5 2 4 10 13 15 20 18 3 9 6 11 19 16 12 14 8 7
10 8 12 6 19 16 15 1 14 5 3 4 17 11 9 20 13 7 2 18

17
Jackson Washington
Hoover Underwood
Jackson Higgins
Arthur Buchannan
Grant Hartsock
Carter Flajnik
Reagan Dorfman
McKinley Monroe
Trump Jefferson
Roosevelt Fillmore
Hayes Buchannan
Trump Brown
Kennedy Flajnik
Garfield Maynard
Taft Higgins
Nixon Washington
Roosevelt Adams
6 2 14 11 5 7 12 15 8 1 10 9 17 4 13 16 3
4 15 8 10 2 17 6 16 13 7 1 3 9 12 11 14 5
6 2 10 14 16 5 11 4 12 15 3 8 17 13 7 1 9
8 4 5 3 6 17 2 16 10 9 14 13 15 12 11 7 1
6 16 14 4 7 2 1 3 9 8 15 5 13 17 10 11 12
3 12 11 1 8 2 6 5 9 16 17 14 4 13 7 15 10
8 7 14 10 1 16 17 3 12 6 5 2 15 11 4 9 13
2 16 3 15 13 4 5 12 1 11 7 6 17 14 10 9 8
2 13 6 17 9 5 7 3 14 12 4 10 11 16 1 8 15
6 16 4 12 7 8 15 17 5 2 10 13 9 3 11 14 1
14 5 11 13 3 12 6 16 9 10 2 15 4 7 1 17 8
13 1 9 12 11 2 17 5 4 6 8 14 3 15 16 7 10
6 12 17 2 13 16 11 3 9 14 8 10 4 5 7 15 1
8 17 1 14 10 11 3 9 13 6 16 2 4 15 5 7 12
8 3 4 13 11 7 2 1 17 9 5 6 16 12 15 14 10
13 1 14 7 15 2 4 12 5 16 8 17 11 10 9 3 6
6 17 4 15 10 7 11 1 13 3 8 16 14 12 2 9 5
6 1 2 14 17 11 5 4 15 10 7 16 13 9 8 12 3

4
Grant Lindsay
Hoover Soules
Hayes Maynard
McKinley Maynard
1 3 2 4
2 3 1 4
1 2 3 4
2 3 4 1
2 4 3 1
3 1 4 2
2 4 3 1
1 3 4 2
1 3 4 2
1 3 2 4
1 4 3 2
2 4 1 3
4 1 2 3
2 3 1 4
1 3 2 4
4 2 1 3
3 2 4 1
1 4 3 2
1 4 2 3
3 1 4 2
4 1 2 3
3 4 2 1
2 4 3 1
2 1 3 4
2 3 1 4
4 2 3 1
1 2 4 3
1 4 3 2
4 3 2 1
1 3 4 2

17
McKinley Luyendyk
Carter Hartsock
Arthur Bristowe
Coolidge Madison
Truman Brown
Roosevelt Adams
Harding Lincoln
Jackson Fillmore
Hoover Washington
Biden Monroe
Clinton Dorfman
Roosevelt Dorfman
Grant Madison
Hoover Kufrin
Harding Monroe
Obama Polk
Arthur Hartsock
3 1 7 10 6 5 12 2 15 9 11 4 16 17 13 14 8
15 12 10 3 14 9 13 4 17 7 11 1 2 8 16 5 6
3 7 16 14 15 1 6 17 10 13 8 2 4 12 11 9 5
3 17 14 2 4 9 8 5 15 10 13 12 16 7 1 11 6
3 11 1 5 6 7 12 17 4 13 2 14 9 8 15 10 16
17 10 9 13 5 7 16 6 8 2 12 11 4 1 15 3 14
6 10 11 17 8 3 2 7 9 15 12 4 5 16 14 13 1
1 9 2 4 6 3 13 5 16 11 14 17 10 7 8 12 15
12 3 7 2 16 5 14 15 17 13 10 1 11 4 8 6 9
9 16 15 5 13 8 10 12 4 7 3 14 1 2 11 17 6
3 5 1 10 15 16 6 9 13 8 17 7 12 4 14 2 11
4 12 14 5 10 6 9 16 1 15 11 13 2 17 7 8 3
3 15 9 11 14 4 1 16 8 10 7 12 2 5 13 6 17
15 16 8 2 9 7 17 6 10 1 11 12 3 14 5 13 4
16 1 4 6 17 2 14 12 10 9 3 7 8 15 5 11 13
15 8 10 5 7 6 9 12 11 1 4 16 2 13 17 3 14
1 16 13 8 3 2 17 12 6 10 7 5 14 9 11 4 15
13 5 17 16 4 6 10 15 1 8 12 7 2 11 9 14 3
3 17 11 4 13 2 16 14 15 8 10 12 5 1 7 6 9
13 3 14 10 15 7 1 2 8 9 16 12 11 17 5 4 6
8 12 3 6 10 9 1 13 11 15 4 7 2 5 16 14 17
7 10 16 3 17 13 6 8 11 2 12 1 14 15 4 9 5
6 3 2 16 9 5 13 14 7 1 8 10 4 12 11 17 15

14
Hoover Higgins
Taft Hebert
McKinley Viall
Bush Fletcher
Kennedy Fletcher
Garfield Flajnik
Carter Lindsay
Biden Hebert
Cleveland Fillmore
Wilson Madison
Carter Lowe
Wilson Dorfman
Jackson Buchannan
Ford Fletcher
6 10 12 2 5 1 7 4 14 13 11 3 9 8
3 7 4 11 2 9 8 1 12 6 14 5 13 10
4 7 1 2 9 6 11 12 10 13 3 8 14 5
4 11 14 1 10 12 6 2 5 3 13 8 7 9
5 9 12 10 14 8 6 7 4 13 3 2 11 1
13 3 4 8 5 2 7 9 1 10 6 11 12 14
5 9 7 10 11 13 12 6 3 8 1 2 14 4
1 11 6 12 10 2 9 5 7 4 13 8 14 3
7 8 1 14 11 5 9 2 12 6 3 4 10 13
4 7 3 14 6 5 9 13 8 1 2 12 10 11
7 5 2 10 11 13 3 9 12 1 4 6 14 8
4 10 6 2 8 9 5 13 11 1 3 14 7 12
8 11 7 9 1 12 2 14 5 4 13 3 6 10
4 5 10 14 11 9 2 13 12 6 3 8 1 7

14
Ford Hartsock
Harrison Maynard
Coolidge Hebert
Biden Maynard
Kennedy Hebert
Truman Brown
Biden Tyler
Johnson Tyler
Nixon Lincoln
Taft Soules
Garfield Lowe
Coolidge Madison
Hoover Polk
Reagan Lowe
7 14 1 10 9 6 4 8 5 2 12 11 13 3
8 2 3 13 7 14 4 11 1 10 6 5 12 9
10 2 14 9 4 8 6 1 7 12 11 3 13 5
12 5 4 14 13 7 2 11 10 3 6 1 9 8
4 1 8 11 13 12 10 6 14 2 3 5 7 9
8 2 13 6 14 10 4 3 7 5 12 11 9 1
8 14 5 13 3 9 10 4 7 1 12 6 2 11
12 7 1 3 2 14 8 10 6 9 4 13 11 5
13 14 7 5 12 9 6 2 10 11 4 3 8 1
9 2 5 11 7 8 3 10 12 6 1 13 14 4
8 1 3 12 13 9 14 7 10 2 6 11 4 5
4 1 8 6 3 7 5 9 14 10 13 2 12 11
6 11 12 2 9 7 5 10 1 14 13 4 3 8

17
Carter Kufrin
Hayes Madison
Wilson Dorfman
Hayes Taylor
Coolidge Underwood
Hoover Jefferson
Wilson Buchannan
Ford Hartsock
Reagan Brown
Harding Tyler
Grant Monroe
McKinley Tyler
Bush Polk
Harding Kufrin
Ford Bristowe
Truman Monroe
Eisenhower Hebert
9 3 10 13 17 6 12 2 4 11 7 1 16 5 15 8 14
3 5 8 13 17 12 10 2 15 7 6 1 16 9 11 4 14
13 7 1 5 12 11 10 9 15 14 4 8 16 6 3 2 17
12 9 3 7 16 15 11 1 14 8 13 6 2 17 4 10 5
14 8 10 3 9 4 12 13 5 11 1 16 15 6 17 2 7
10 2 13 15 4 3 1 5 14 9 11 16 12 17 6 8 7
8 15 16 13 14 5 17 10 3 1 7 2 11 12 9 4 6
8 12 6 16 14 4 5 2 1 11 15 13 3 9 7 10 17
15 13 2 8 14 7 4 17 10 9 6 11 16 3 5 1 12
6 16 8 17 3 5 12 7 4 1 15 9 10 2 11 13 14
15 16 12 7 3 1 8 5 9 14 2 17 4 11 6 10 13
17 15 3 16 2 13 1 9 8 14 5 7 10 12 4 11 6
10 12 9 3 4 7 8 2 17 5 16 14 15 13 11 6 1
5 17 4 3 1 14 11 2 10 9 12 13 7 6 16 15 8
9 11 1 2 16 13 17 8 4 5 10 14 6 3 7 12 15
16 17 10 3 8 12 14 1 2 15 11 7 13 6 9 5 4
4 9 13 10 11 5 6 16 12 7 14 17 1 2 8 3 15
5 12 13 3 10 17 11 6 1 7 2 4 8 14 15 9 16
1 11 17 13 15 12 9 7 8 16 4 10 14 5 6 3 2
17 12 11 15 7 2 4 3 10 8 14 5 1 6 13 9 16
14 12 17 5 1 8 3 10 13 15 2 7 11 16 4 9 6
9 15 8 10 5 11 7 2 12 6 1 17 4 13 14 3 16
11 2 3 16 8 12 13 9 15 7 1 10 5 6 14 4 17
7 9 17 5 15 2 12 4 6 14 16 11 8 10 3 1 13
2 12 10 7 5 11 16 3 6 9 13 17 8 4 15 14 1
15 2 5 13 8 17 3 7 11 1 6 9 12 4 14 16 10
15 8 7 11 1 14 9 5 17 12 10 4 13 16 3 2 6
12 14 13 5 6 1 2 4 8 9 15 10 16 17 7 11 3
3 17 1 14 16 5 10 15 8 7 11 9 6 2 4 13 12
5 7 8 17 10 12 6 15 9 13 3 2 14 1 4 16 11
15 17 8 9 11 14 7 13 5 2 16 10 6 3 1 4 12
8 12 15 3 6 9 17 7 2 4 1 5 11 14 13 10 16
6 3 16 1 9 4 5 7 17 12 2 8 14 11 15 13 10
11 12 1 3 2 6 8 13 7 15 10 16 5 4 9 17 14
14 10 4 5 7 6 2 12 13 17 15 8 16 11 1 3 9
8 9 17 12 16 1 4 7 11 2 3 13 15 10 14 6 5
6 15 4 16 8 9 3 13 17 14 7 2 5 11 1 12 10
8 11 10 17 2 3 1 9 15 5 4 7 12 16 6 13 14
11 3 10 7 16 17 9 1 4 14 12 15 2 5 13 6 8
8 9 17 15 1 4 7 14 2 5 13 16 10 12 11 3 6
14 7 10 3 16 17 15 5 1 9 11 4 6 2 8 12 13
13 16 17 4 9 8 2 14 15 11 3 7 10 1 12 6 5

17
Kennedy Higgins
Cleveland Hartsock
Harding Fletcher
Truman Madison
Harrison Lindsay
Ford Soules
Johnson Lowe
Kennedy Brown
McKinley Fletcher
Taft Lindsay
Harrison Jefferson
Hoover Maynard
Grant Monroe
Kennedy Monroe
Ford Lowe
Kennedy Jefferson
Grant Hartsock
4 11 6 14 1 3 10 12 15 2 5 13 17 7 8 16 9
9 8 6 7 11 17 1 5 16 3 12 14 13 10 4 15 2
9 16 10 11 7 12 8 5 6 17 13 3 14 2 4 1 15
14 11 15 1 10 2 3 5 13 7 8 16 17 12 9 6 4
16 13 7 17 15 11 9 12 6 3 10 14 5 8 2 1 4
3 7 11 14 16 8 15 12 13 2 5 10 1 17 4 9 6
13 11 7 3 14 2 9 16 15 12 10 6 17 5 4 1 8
10 4 5 14 6 8 9 7 13 15 11 1 17 16 3 2 12
2 6 1 11 8 4 13 15 3 10 16 17 5 9 7 14 12
6 14 13 3 7 10 2 12 1 15 17 8 11 5 16 9 4
6 9 14 8 12 15 1 3 11 17 13 16 5 2 4 10 7
9 2 16 17 1 11 10 5 13 12 8 7 6 15 3 4 14
10 5 14 16 11 2 1 12 6 17 8 9 4 15 3 13 7
17 2 14 6 8 15 11 1 13 4 10 16 9 7 5 3 12
6 1 11 9 7 17 13 16 5 2 10 15 8 12 14 4 3
10 5 4 7 15 6 11 16 2 8 12 13 14 17 1 3 9
16 9 5 4 3 10 7 6 2 17 14 1 11 13 15 8 12
10 7 16 1 12 5 13 4 6 2 8 17 3 11 9 15 14
2 13 1 9 6 12 10 11 14 5 7 4 17 3 8 16 15
10 16 4 13 12 5 1 9 17 15 7 3 11 2 14 6 8
8 9 10 6 11 13 3 4 14 16 1 12 5 7 2 17 15
6 13 15 9 5 17 14 10 4 16 8 2 1 12 11 3 7
10 5 9 12 1 14 13 17 2 16 15 11 8 3 7 4 6

16
McKinley Monroe
Cleveland Underwood
Biden Adams
Reagan Lowe
Harrison Lincoln
Nixon Jefferson
Nixon Buchannan
Obama Adams
Biden Polk
Garfield Flajnik
Johnson Brown
Ford Brown
Trump Monroe
Jackson Pierce
Roosevelt Pierce
Taft Taylor
12 15 4 9 13 16 11 14 1 5 8 10 2 7 6 3
12 8 7 6 14 2 3 13 9 4 11 5 15 1 16 10
8 4 14 6 12 11 1 13 10 7 15 9 5 2 3 16
1 11 6 16 9 14 10 7 5 2 3 4 8 15 13 12
7 5 2 10 4 14 11 1 15 13 6 8 9 16 3 12
8 16 7 15 6 1 12 14 3 4 2 13 9 11 10 5
1 15 8 14 3 4 12 11 9 2 7 6 13 16 10 5
14 13 12 1 16 10 5 9 6 15 4 3 7 11 2 8
9 12 2 6 8 13 4 10 5 3 16 1 15 11 14 7
11 4 10 8 9 16 5 12 6 1 14 15 13 2 7 3
1 12 6 15 4 2 16 9 14 10 8 3 11 13 5 7
1 16 5 3 10 6 9 4 13 8 14 15 11 7 2 12
1 14 15 8 16 4 5 10 9 2 12 6 13 3 11 7
14 16 13 2 5 15 11 6 3 12 7 10 4 9 8 1
6 3 5 2 12 7 9 4 13 8 1 14 10 16 11 15
1 9 12 11 15 6 16 7 10 14 5 2 3 13 4 8
7 15 3 6 8 2 11 9 12 1 10 14 5 13 4 16
2 9 16 12 8 3 15 1 10 5 6 13 4 7 14 11
4 6 11 13 1 5 8 15 2 12 16 7 9 3 10 14
2 9 14 8 5 4 1 12 15 13 7 3 16 11 6 10
14 2 6 12 8 10 11 7 4 16 13 3 1 15 9 5
8 15 3 7 11 13 16 9 14 1 5 2 6 4 10 12
3 12 9 1 2 15 8 11 10 4 14 5 6 7 13 16
13 8 11 4 10 15 2 1 9 16 12 14 3 7 6 5
7 9 11 3 10 14 15 4 2 16 6 5 1 13 12 8
12 6 1 4 15 10 11 2 13 7 16 9 8 3 14 5
15 16 13 7 11 12 14 4 5 8 1 6 2 10 3 9
8 9 12 6 13 10 15 14 2 1 3 4 16 7 11 5
1 3 11 6 5 15 14 16 8 10 2 13 7 4 9 12
16 7 8 6 14 5 9 4 2 3 15 12 1 13 10 11
12 10 5 3 9 4 16 1 11 13 7 14 8 6 2 15
12 4 8 6 10 3 13 1 15 9 7 2 11 16 14 5
5 16 9 14 2 4 13 3 6 12 15 8 11 1 10 7
11 13 14 3 2 16 4 12 6 9 7 8 10 5 15 1
3 12 5 9 13 2 14 16 15 1 8 7 6 10 4 11
4 1 9 7 10 6 8 2 12 13 15 11 3 16 14 5
3 5 14 12 15 11 16 6 2 7 1 9 13 10 4 8

6
Cleveland Kufrin
Jackson Bristowe
Carter Lincoln
Clinton Monroe
Taft Monroe
Harrison Adams
3 6 4 5 2 1
4 6 5 2 3 1
6 3 4 1 2 5
3 6 5 4 1 2
2 3 6 1 5 4
2 3 6 5 4 1
1 2 5 4 6 3
4 6 5 2 3 1
2 4 1 5 3 6
4 3 2 6 1 5
1 6 2 5 3 4
3 6 1 2 5 4

10
Biden Hartsock
Biden Lowe
Grant Polk
Biden Jefferson
Biden Dorfman
Clinton Bristowe
Coolidge Jefferson
Wilson Bristowe
Grant Pierce
Nixon Dorfman
9 8 10 6 4 1 7 3 5 2
10 6 3 2 9 5 8 4 1 7
6 5 1 2 8 4 10 7 9 3
9 8 4 10 5 3 1 6 7 2
7 8 1 10 6 5 9 4 2 3
5 7 8 1 2 3 4 9 6 10
4 8 1 5 2 9 3 6 10 7
7 2 1 10 8 6 3 4 5 9
9 8 1 6 3 10 4 2 7 5
8 9 6 5 1 4 2 3 10 7
8 4 6 2 9 3 1 5 10 7
9 6 4 10 5 7 8 1 3 2
3 9 10 4 2 7 6 8 5 1
2 7 10 5 1 8 6 9 4 3
6 4 10 8 2 1 7 5 3 9
6 9 2 10 3 1 5 4 8 7
2 6 4 10 7 9 5 3 8 1
10 4 9 1 3 7 8 6 2 5
5 1 10 8 4 2 3 6 9 7
8 5 3 6 7 2 1 10 4 9
10 8 7 3 9 2 1 4 6 5
9 10 1 7 6 8 4 3 5 2
3 4 6 8 7 5 10 2 9 1
4 7 5 9 1 6 8 10 3 2
5 9 4 7 8 3 10 1 2 6
10 3 5 9 7 8 2 1 6 4
9 4 3 6 2 8 10 1 7 5
7 10 8 4 2 3 9 6 5 1
7 8 9 10 4 5 2 1 6 3
4 8 7 3 2 6 10 5 1 9
8 7 3 6 5 1 10 2 9 4
3 7 8 9 6 2 10 4 1 5
8 9 2 4 3 6 7 1 10 5

3
Johnson Monroe
Arthur Polk
Hayes Tyler
3 2 1
3 1 2
2 1 3
1 3 2
1 3 2
3 1 2
2 3 1
3 2 1
1 3 2
2 3 1
3 1 2
3 2 1
2 3 1
3 2 1
1 2 3
1 2 3
2 3 1
3 1 2
3 1 2
3 1 2
1 2 3
3 1 2

11
Taft Fletcher
Trump Hartsock
Carter Kufrin
Carter Flajnik
Trump Polk
Harding Higgins
Coolidge Higgins
Harding Adams
Taft Monroe
Cleveland Hartsock
Reagan Fillmore
7 2 1 10 6 11 3 4 5 9 8
10 1 5 11 9 7 8 3 2 4 6
5 10 2 1 9 11 4 7 6 3 8
7 3 9 5 8 11 10 6 2 4 1
5 11 3 6 9 8 1 10 4 7 2
5 11 8 2 3 4 7 9 6 1 10
11 5 7 8 2 10 4 6 9 3 1
11 6 5 2 9 7 1 8 10 4 3
11 1 7 9 5 2 10 6 8 3 4
8 3 4 10 11 6 1 9 5 2 7
8 11 3 2 4 5 1 10 6 9 7
8 11 9 4 5 3 1 2 6 10 7
7 6 11 9 2 5 8 10 4 3 1
6 11 8 10 7 4 1 5 3 9 2
9 4 7 6 1 11 2 5 3 8 10
7 3 8 2 10 9 11 6 1 5 4
10 1 2 6 8 3 4 5 9 7 11
7 1 8 4 10 11 9 6 5 3 2
1 3 11 7 5 4 10 2 6 8 9
4 1 5 9 10 11 8 6 2 3 7
3 8 11 9 6 7 1 4 5 10 2
1 7 11 9 2 4 10 5 3 6 8
2 3 6 8 9 7 5 10 4 1 11
9 7 4 8 6 2 1 3 5 10 11
9 10 4 3 8 2 1 7 5 6 11
8 3 2 9 11 1 10 4 7 5 6
8 6 11 3 2 4 7 9 1 5 10
3 2 10 9 1 4 8 5 7 11 6
10 4 5 8 3 2 6 1 9 11 7
10 2 7 4 8 3 11 5 6 1 9
11 1 6 3 10 5 8 9 4 7 2
2 3 4 5 9 1 7 11 10 6 8
8 10 3 2 9 1 7 5 6 11 4
8 11 6 3 1 2 9 10 4 5 7
2 9 5 1 7 10 11 6 3 8 4
3 5 10 6 11 9 8 7 2 1 4
5 8 4 2 3 9 7 10 6 11 1
8 1 5 3 9 7 4 11 10 6 2
9 8 3 4 11 1 5 7 10 2 6
4 10 8 11 6 5 9 2 7 1 3
3 2 8 4 6 5 10 7 9 11 1
2 4 8 10 9 3 11 7 1 6 5
3 2 4 8 1 9 11 7 10 6 5
11 6 8 4 1 7 9 3 5 2 10
3 2 8 10 11 9 4 5 7 1 6
6 9 7 3 4 8 2 1 5 11 10
10 1 6 7 11 4 9 3 5 8 2
8 11 4 3 6 5 2 10 7 1 9
6 9 10 8 11 4 5 3 1 7 2
4 1 11 8 6 9 3 5 10 7 2
10 8 5 11 1 4 7 9 2 3 6
8 7 5 11 9 3 2 6 1 4 10
3 9 6 5 4 8 11 2 10 7 1
5 9 2 6 4 3 7 8 10 11 1
6 4 2 10 1 3 11 7 9 8 5
5 11 1 2 9 4 10 7 3 6 8
3 11 9 7 5 4 6 8 2 10 1
7 8 2 3 9 6 4 11 1 5 10

2
Arthur Higgins
Clinton Dorfman
1 2
2 1
1 2
2 1
1 2
1 2
2 1
2 1
2 1
2 1
1 2
2 1
1 2
1 2
1 2
2 1
2 1
2 1
1 2
2 1
2 1
1 2
1 2
2 1
1 2
1 2
1 2
2 1
2 1
1 2
2 1
2 1
2 1
1 2
1 2
2 1
2 1
1 2
1 2
2 1
2 1
1 2

2
Kennedy Lowe
Truman Taylor
1 2
2 1
1 2
1 2
2 1
1 2
2 1
2 1
1 2
2 1
2 1
2 1
2 1
2 1
1 2
1 2
1 2
1 2
2 1

17
Arthur Lindsay
Johnson Madison
Arthur Buchannan
Coolidge Brown
Garfield Underwood
Cleveland Jefferson
Carter Hartsock
Clinton Tyler
Harding Bristowe
Harding Hebert
Truman Tyler
Johnson Underwood
Nixon Fillmore
Nixon Buchannan
Ford Dorfman
Cleveland Maynard
Arthur Lowe
11 4 13 17 1 8 15 7 14 16 9 6 3 10 5 2 12
5 2 9 10 8 6 17 7 15 13 3 1 16 12 11 14 4
3 13 4 9 17 5 12 8 2 16 7 10 6 15 14 11 1
5 1 13 7 8 6 12 2 16 15 3 10 4 14 9 17 11
5 12 3 2 15 13 7 16 10 1 8 9 4 17 14 6 11
9 13 7 5 10 2 15 14 1 12 16 8 11 6 17 4 3
3 10 12 7 11 9 6 15 4 8 5 1 2 17 14 13 16
16 17 3 8 10 14 15 4 12 2 5 6 7 9 11 1 13
9 15 3 13 11 16 1 4 6 14 2 17 7 8 5 10 12
4 6 8 7 9 5 16 10 3 2 12 1 11 14 13 15 17
16 10 11 12 17 2 4 8 3 6 14 1 15 7 5 9 13
3 14 7 11 1 6 13 10 17 5 4 12 9 2 16 15 8
15 17 1 6 2 11 3 9 13 4 8 14 5 16 7 10 12
15 16 14 6 9 3 1 2 7 12 8 4 11 17 13 10 5
4 3 13 2 9 15 8 12 10 17 6 1 5 14 16 11 7
6 12 1 10 9 15 14 8 7 13 11 2 16 5 3 17 4
11 17 16 8 12 7 2 6 10 1 5 15 3 9 13 4 14
2 12 13 10 4 5 17 14 16 9 1 7 3 8 6 11 15
8 12 16 13 7 15 5 6 9 11 14 3 2 10 4 1 17
2 4 7 13 14 8 15 1 5 3 12 16 10 6 17 9 11
2 10 8 3 7 17 15 9 16 11 12 4 1 13 5 14 6
10 7 17 12 2 5 11 8 6 9 16 13 15 4 1 3 14
14 9 3 4 8 10 7 15 13 1 11 12 6 2 16 17 5

18
Cleveland Polk
Johnson Washington
Nixon Buchannan
Coolidge Dorfman
Obama Soules
Obama Adams
Biden Brown
Coolidge Hebert
Carter Hartsock
Harding Pierce
Truman Lowe
Coolidge Flajnik
Eisenhower Bristowe
Grant Maynard
Reagan Higgins
Hayes Luyendyk
Trump Dorfman
Biden Soules
4 13 6 12 11 1 17 3 18 14 15 8 5 7 16 10 2 9
4 2 16 1 11 10 15 9 5 8 18 13 17 3 7 6 12 14
7 5 15 11 16 10 18 3 1 6 9 13 12 14 4 8 17 2
3 9 13 10 12 17 14 4 8 15 16 5 7 18 11 1 6 2
1 12 18 2 7 13 11 5 15 9 4 6 16 8 10 17 3 14
13 7 9 5 18 1 12 8 2 4 3 6 16 17 14 10 15 11
6 2 13 12 7 11 15 16 10 1 3 8 5 9 14 17 4 18
12 17 13 16 9 3 2 5 6 18 11 8 15 14 7 1 4 10
16 10 17 2 1 8 11 15 7 9 5 14 4 3 18 12 6 13
13 1 11 14 17 15 2 4 9 18 12 8 5 7 10 3 6 16
5 16 13 10 12 15 17 4 11 6 14 9 1 8 3 2 18 7
6 8 13 12 11 15 18 14 5 17 9 3 16 1 4 7 2 10
2 5 10 14 8 6 4 3 13 12 17 1 16 9 11 15 18 7
15 2 4 10 9 17 8 11 14 16 13 3 1 18 6 12 7 5
10 5 12 1 11 15 16 2 7 13 6 14 18 17 4 9 8 3
2 16 1 13 6 12 9 5 18 4 10 15 3 11 7 8 14 17
5 4 6 2 16 1 15 17 9 3 12 10 11 18 7 14 8 13
8 18 17 7 14 12 2 16 9 11 5 1 4 6 3 15 13 10
10 16 17 1 9 4 12 18 6 8 15 11 13 14 3 5 7 2
8 4 5 15 2 1 12 16 9 6 18 14 7 3 11 13 10 17
9 15 12 2 17 16 14 7 6 8 1 13 5 10 18 11 3 4
3 9 12 18 2 8 5 1 11 6 4 10 17 7 13 15 16 14
18 1 14 9 13 3 6 16 4 8 17 15 11 2 10 5 12 7
4 1 11 2 10 7 9 14 12 17 6 16 5 13 8 3 18 15
1 16 2 13 18 11 4 6 9 10 5 17 15 12 8 3 7 14
4 16 7 10 6 15 8 1 13 9 12 14 11 18 17 5 3 2
10 13 18 7 3 16 5 9 14 4 11 2 8 6 1 17 12 15
11 15 10 7 1 18 12 16 14 6 2 3 4 9 17 8 5 13
3 18 8 9 16 17 4 10 12 14 13 2 1 15 11 7 5 6
10 18 9 13 3 16 7 15 1 11 5 17 14 2 6 12 8 4
6 5 2 16 3 4 12 11 15 1 14 13 8 9 17 18 10 7
14 3 8 10 2 11 18 7 13 9 15 1 4 5 6 17 12 16
18 12 1 8 3 13 6 10 7 16 14 11 9 2 5 17 15 4
17 16 7 4 3 5 1 18 14 10 9 15 8 13 11 12 6 2
5 11 3 12 13 4 8 16 7 10 9 14 17 15 1 6 18 2
18 15 9 16 11 6 7 5 2 13 8 17 1 12 14 3 4 10
4 1 9 18 13 10 14 2 12 8 15 16 5 11 3 7 6 17
5 10 13 6 2 18 4 17 7 3 12 8 15 16 9 11 1 14
5 9 4 8 14 3 2 12 10 13 15 7 16 6 17 11 18 1
16 13 14 11 2 17 6 15 12 10 18 1 9 7 4 3 8 5
5 8 1 6 13 18 12 2 11 17 10 7 14 15 16 3 9 4
18 15 3 7 9 12 5 6 17 13 10 14 4 8 1 2 11 16
18 3 16 13 8 14 15 12 9 10 1 5 17 7 11 2 6 4

19
Bush Bristowe
Bush Washington
Jackson Jefferson
Grant Underwood
Hayes Washington
Garfield Kufrin
Truman Jefferson
Hayes Madison
Hoover Madison
Taft Hartsock
Harrison Brown
Jackson Luyendyk
Kennedy Madison
Truman Hartsock
Reagan Taylor
Taft Lincoln
Ford Taylor
Coolidge Kufrin
Johnson Bristowe
8 17 2 15 18 5 11 12 14 1 6 10 19 7 16 4 9 3 13
14 3 10 11 16 12 17 6 19 9 7 4 13 2 18 8 15 1 5
11 4 15 10 2 7 12 16 17 18 8 6 1 19 13 9 14 3 5
7 14 16 2 15 1 10 17 3 5 18 6 4 11 9 12 19 13 8
18 19 3 11 12 5 1 14 4 9 13 17 10 2 6 7 8 16 15
2 16 4 5 12 6 17 9 1 8 19 10 11 14 3 13 15 7 18
13 9 3 12 10 19 4 15 6 1 5 11 14 8 16 18 17 2 7
14 13 8 3 12 9 2 19 1 15 5 18 6 17 16 11 7 10 4
5 4 7 11 3 16 13 19 9 15 2 14 6 12 18 17 10 8 1
14 19 9 1 3 2 4 5 15 6 10 17 18 11 7 13 12 8 16
4 7 11 10 5 6 15 14 1 9 16 17 13 2 19 8 3 12 18
14 15 13 1 10 2 16 12 19 6 4 18 7 5 17 11 3 8 9
16 6 7 15 3 5 19 17 14 13 11 4 1 2 10 9 18 12 8
5 10 1 11 14 18 19 16 9 13 17 2 7 4 3 8 12 15 6
8 2 14 6 7 4 3 13 18 1 11 12 17 16 19 10 15 9 5
7 19 5 14 11 16 12 3 17 6 8 1 2 4 15 13 10 18 9
11 14 10 4 15 6 18 12 3 5 13 19 2 7 1 9 17 8 16
10 1 4 12 7 13 6 18 8 3 16 5 19 15 2 9 14 17 11
4 8 18 9 13 15 11 12 6 1 10 17 19 3 2 7 5 16 14
18 16 10 19 2 5 11 4 17 6 1 8 13 9 3 7 12 14 15
12 11 19 10 18 3 2 4 5 13 14 15 8 6 7 9 1 16 17
17 19 12 15 1 6 11 8 13 2 16 14 7 9 3 10 5 18 4

18
Clinton Hebert
Reagan Underwood
Garfield Dorfman
Hayes Lindsay
Roosevelt Hebert
Roosevelt Jefferson
Cleveland Flajnik
Eisenhower Hartsock
Truman Lowe
Bush Taylor
Grant Hartsock
Garfield Fletcher
Eisenhower Hartsock
Bush Viall
Hoover Hartsock
Grant Maynard
McKinley Dorfman
Truman Hebert
13 2 9 14 16 18 17 8 4 3 12 1 11 5 7 10 15 6
15 4 2 5 10 11 17 18 1 13 14 7 8 6 16 12 3 9
5 7 13 18 9 10 6 16 4 1 8 2 11 14 12 15 3 17
12 14 2 1 9 16 11 18 4 5 3 10 13 7 8 6 17 15
14 13 15 16 5 4 18 6 8 1 11 2 9 17 7 3 10 12
6 8 11 10 17 3 7 5 15 12 9 14 18 4 16 13 2 1
15 14 4 16 8 17 3 5 10 2 7 13 11 9 6 18 12 1
12 1 8 2 14 15 9 17 16 7 6 10 13 11 5 4 18 3
